<?xml version="1.0" encoding="utf-8"?>
<!-- Generator: Adobe Illustrator 16.0.0, SVG Export Plug-In . SVG Version: 6.00 Build 0)  -->
<!DOCTYPE svg PUBLIC "-//W3C//DTD SVG 1.1//EN" "http://www.w3.org/Graphics/SVG/1.1/DTD/svg11.dtd">
<svg version="1.1" id="レイヤー_1" xmlns="http://www.w3.org/2000/svg" xmlns:xlink="http://www.w3.org/1999/xlink" x="0px"
	 y="0px" width="60.546px" height="48.459px" viewBox="0 0 60.546 48.459" enable-background="new 0 0 60.546 48.459"
	 xml:space="preserve">
<g>
	<g>
		<g>
			<g>
				<path fill="#FFE9AB" d="M36.965,21.009c0-0.216,0.212-0.471,0.226-0.769c0.01-0.234-0.21-0.505-0.196-0.791
					c0.014-0.272,0.016-0.565,0.03-0.875c0.013-0.28,0.07-0.569,0.081-0.874c0.01-0.283,0.319-0.567,0.325-0.869
					c0.006-0.286-0.19-0.583-0.19-0.881c0-0.288,0.234-0.585,0.228-0.882c-0.006-0.289-0.334-0.571-0.347-0.865
					c-0.013-0.291,0.242-0.6,0.22-0.894c-0.022-0.292-0.238-0.568-0.271-0.86c-0.033-0.292,0.126-0.61,0.082-0.9
					c-0.044-0.291-0.333-0.539-0.39-0.825c-0.058-0.29-0.099-0.569-0.171-0.85c-0.121-0.285-0.379-0.467-0.518-0.721
					c-0.147-0.271,0.046-0.738-0.123-0.973c-0.177-0.248-0.323-0.553-0.526-0.764c-0.208-0.217-0.529-0.35-0.766-0.528
					c-0.236-0.178-0.614-0.144-0.879-0.285c-0.257-0.137-0.565-0.118-0.852-0.222c-0.271-0.099-0.49-0.345-0.79-0.415
					c-0.279-0.066-0.57-0.078-0.875-0.12c-0.286-0.039-0.562-0.276-0.871-0.295c-0.289-0.018-0.597-0.007-0.906-0.008
					c-0.293,0.022-0.601-0.084-0.863-0.044c-0.291,0.043-0.479,0.492-0.737,0.555c-0.285,0.095-0.673-0.088-0.924,0.051
					c-0.259,0.143-0.582,0.243-0.81,0.423C25.923,6.71,25.788,7.03,25.585,7.24c-0.203,0.21-0.187,0.609-0.369,0.838
					c-0.182,0.229-0.45,0.379-0.617,0.617c-0.102,0.275-0.432,0.502-0.503,0.817c-0.065,0.286,0.107,0.639,0.063,0.959
					c-0.04,0.291-0.083,0.594-0.108,0.913c-0.023,0.295-0.218,0.595-0.23,0.914c-0.011,0.297-0.082,0.61-0.085,0.929
					c-0.003,0.299,0.383,0.608,0.386,0.927c0.002,0.3-0.398,0.615-0.392,0.932c0.006,0.302,0.467,0.601,0.476,0.918
					c0.008,0.303-0.111,0.616-0.102,0.933c0.009,0.269,0.141,0.536,0.149,0.808c0.008,0.267-0.174,0.542-0.167,0.813
					c0.007,0.269-0.225,0.544-0.219,0.817c0.005,0.268,0.413,0.532,0.416,0.804c0.003,0.272-0.3,0.549-0.3,0.826
					c0,0.327-0.133,0.488-0.347,0.702c-0.214,0.214-0.375,0.315-0.702,0.315c-0.452,0-0.452,0.112-0.905,0.112
					c-0.453,0-0.453,0.221-0.906,0.221c-0.455,0-0.455-0.263-0.91-0.263c-0.454,0-0.454-0.128-0.908-0.128
					c-0.454,0-0.454,0.308-0.908,0.308c-0.456,0-0.456,0.134-0.911,0.134c-0.455,0-0.455,0.023-0.91,0.023s-0.455-0.083-0.909-0.083
					s-0.454-0.281-0.907-0.281c-0.456,0-0.456,0.145-0.912,0.145c-0.457,0-0.457,0.18-0.914,0.18c-0.458,0-0.458-0.401-0.917-0.401
					c-0.458,0-0.511-0.044-0.835,0.279c-0.323,0.322-0.069,0.375-0.069,0.832s-0.21,0.457-0.21,0.913s-0.048,0.457-0.048,0.913
					c0,0.458,0.156,0.458,0.156,0.915s0.026,0.457,0.026,0.915c0,0.457-0.045,0.457-0.045,0.914s-0.017,0.457-0.017,0.915
					s0.291,0.458,0.291,0.915c0,0.456-0.232,0.456-0.232,0.912s0.2,0.456,0.2,0.911s-0.167,0.455-0.167,0.912s0.03,0.457,0.03,0.916
					c0,0.457-0.148,0.457-0.148,0.914s-0.095,0.457-0.095,0.914c0,0.459,0.429,0.459,0.429,0.918c0,0.457-0.37,0.457-0.37,0.916
					c0,0.457,0.331,0.457,0.331,0.914s-0.3,0.457-0.3,0.914c0,0.459,0.298,0.459,0.298,0.918s-0.227,0.459-0.227,0.92
					s0.047,0.461,0.047,0.922s-0.125,0.436,0.199,0.764c0.325,0.329,0.302,0.206,0.764,0.213c0.461,0.008,0.466-0.281,0.928-0.275
					c0.463,0.008,0.462,0.076,0.924,0.084c0.465,0.006,0.464,0.041,0.929,0.049c0.463,0.007,0.464-0.012,0.928-0.004
					c0.463,0.008,0.464-0.063,0.928-0.057c0.465,0.008,0.462,0.198,0.928,0.206c0.464,0.009,0.46,0.231,0.925,0.239
					c0.465,0.008,0.471-0.348,0.936-0.342c0.463,0.009,0.457,0.406,0.92,0.414c0.465,0.007,0.472-0.389,0.937-0.381
					c0.466,0.008,0.465,0.106,0.931,0.115c0.467,0.006,0.463,0.262,0.931,0.27c0.468,0.009,0.513,0.074,0.968-0.033
					c-0.008-0.234-0.117-0.62-0.132-0.938c-0.014-0.283-0.092-0.586-0.106-0.91c-0.013-0.291,0.038-0.601,0.029-0.918
					c-0.008-0.297,0.155-0.604,0.153-0.918c-0.002-0.299,0.025-0.604,0.032-0.914c0.006-0.303-0.358-0.625-0.342-0.933
					c0.016-0.305,0.328-0.595,0.355-0.901c0.028-0.305-0.113-0.633-0.072-0.937c0.042-0.306,0.126-0.61,0.184-0.909
					c0.059-0.305,0.38-0.545,0.458-0.839c0.08-0.3,0.086-0.61,0.188-0.894c0.105-0.295,0.245-0.559,0.377-0.83
					c0.136-0.28,0.223-0.573,0.39-0.824c0.172-0.257,0.201-0.641,0.409-0.861c0.227-0.242,0.631-0.287,0.889-0.471
					c0.265-0.188,0.541-0.329,0.838-0.456c0.293-0.125,0.559-0.362,0.882-0.425c0.308-0.061,0.647,0.125,0.981,0.121
					c0.3-0.004,0.617-0.373,0.897-0.34c0.295,0.033,0.567,0.277,0.84,0.351c0.284,0.077,0.644,0.011,0.903,0.13
					c0.264,0.122,0.522,0.332,0.759,0.498c0.235,0.165,0.346,0.508,0.554,0.717c0.214,0.213,0.392,0.455,0.569,0.701
					c0.175,0.242,0.25,0.541,0.392,0.813c0.138,0.263,0.387,0.477,0.498,0.763c0.107,0.276,0.376,0.517,0.46,0.813
					c0.082,0.285-0.11,0.649-0.047,0.951c0.061,0.291,0.262,0.563,0.307,0.867c0.044,0.295-0.122,0.621-0.09,0.926
					c0.031,0.297-0.059,0.603-0.039,0.906c0.02,0.301,0.334,0.584,0.346,0.889c0.012,0.301,0.114,0.604,0.119,0.906
					c0.005,0.303-0.374,0.609-0.373,0.912c0.001,0.305,0.096,0.607,0.094,0.912c-0.002,0.303,0.244,0.605,0.241,0.904
					c-0.003,0.414-0.053,0.646-0.054,1.039c0.423,0.188,0.389,0.076,0.852,0.084c0.462,0.006,0.464-0.127,0.927-0.121
					c0.463,0.009,0.458,0.33,0.92,0.337c0.465,0.008,0.467-0.101,0.932-0.093c0.464,0.008,0.464,0.031,0.928,0.039
					c0.464,0.006,0.461,0.199,0.925,0.205c0.465,0.008,0.471-0.346,0.937-0.338c0.464,0.008,0.465-0.009,0.929,0
					c0.465,0.008,0.463,0.113,0.929,0.121c0.463,0.008,0.462,0.098,0.925,0.105c0.466,0.008,0.468-0.104,0.934-0.096
					c0.467,0.008,0.466,0.032,0.933,0.039c0.468,0.008,0.465,0.2,0.933,0.209c0.468,0.008,0.628,0.246,0.971-0.072
					c0.324-0.301-0.016-0.479-0.016-0.92c0-0.442-0.05-0.442-0.05-0.885c0-0.443,0.018-0.443,0.018-0.885s-0.183-0.441-0.183-0.884
					s0.22-0.442,0.22-0.886s-0.179-0.443-0.179-0.887c0-0.441,0.349-0.441,0.349-0.885s0.005-0.443,0.005-0.886
					s-0.081-0.442-0.081-0.886c0-0.441-0.365-0.441-0.365-0.883c0-0.442,0.404-0.441,0.404-0.883s-0.196-0.441-0.196-0.883
					c0-0.443,0.26-0.443,0.26-0.887s-0.253-0.443-0.253-0.887c0-0.442,0.141-0.442,0.141-0.885c0-0.443-0.051-0.443-0.051-0.889
					c0-0.443-0.17-0.443-0.17-0.887s0.214-0.443,0.214-0.887c0-0.441-0.057-0.441-0.057-0.885c0-0.445,0.143-0.445,0.143-0.89
					c0-0.445-0.347-0.445-0.347-0.891c0-0.446,0.385-0.446,0.385-0.893s0.09-0.576-0.219-0.898c-0.307-0.32-0.443-0.15-0.886-0.166
					c-0.445-0.015-0.45,0.122-0.896,0.107c-0.444-0.015-0.443-0.046-0.887-0.062c-0.444-0.016-0.447,0.065-0.891,0.05
					c-0.446-0.015-0.442-0.125-0.888-0.14c-0.445-0.015-0.443-0.08-0.888-0.095c-0.445-0.015-0.45,0.135-0.895,0.12
					c-0.444-0.016-0.437-0.208-0.881-0.223c-0.446-0.016-0.455,0.225-0.901,0.209c-0.447-0.015-0.448,0.032-0.895,0.016
					c-0.448-0.015-0.443-0.151-0.892-0.167c-0.448-0.015-0.449,0.006-0.897-0.009c-0.319-0.011-0.776,0.013-0.982-0.201
					S36.965,21.328,36.965,21.009z M17.673,31.95c-0.008,0.289-0.396,0.488-0.683,0.527c-0.39,0.055-0.358,0.287-0.749,0.34
					c-0.392,0.055-0.39,0.068-0.781,0.121c-0.391,0.055-0.397,0.011-0.789,0.063c-0.026,0.004-0.076-0.292-0.103-0.292
					c-0.142,0-0.324,0.132-0.433,0.037c-0.128-0.111,0.01-0.325,0.01-0.497c0-0.431-0.319-0.431-0.319-0.86
					c0-0.429,0.273-0.429,0.273-0.859c0-0.428-0.19-0.428-0.19-0.857c0-0.429,0.198-0.429,0.198-0.857c0-0.43-0.243-0.43-0.243-0.86
					s0.021-0.431,0.021-0.863s-0.153-0.433-0.153-0.864c0-0.434,0.412-0.434,0.412-0.865c0-0.309,0.089-0.316,0.396-0.342
					c0.42-0.035,0.411-0.148,0.831-0.184c0.421-0.036,0.402-0.268,0.823-0.303c0.421-0.035,0.41-0.177,0.831-0.212
					c0.169-0.014,0.398,0.236,0.521,0.352c0.122,0.115,0.251,0.328,0.246,0.496c-0.012,0.423-0.22,0.417-0.231,0.841
					c-0.011,0.424,0.009,0.424-0.002,0.846c-0.011,0.422-0.15,0.418-0.162,0.842c-0.011,0.421,0.393,0.432,0.382,0.854
					c-0.011,0.424-0.338,0.415-0.35,0.84c-0.011,0.424-0.11,0.422-0.122,0.846c-0.011,0.426,0.079,0.445,0.122,0.869
					C17.476,31.54,17.685,31.524,17.673,31.95z M22.486,31.681c-0.009,0.319-0.438,0.532-0.758,0.532c-0.39,0-0.39,0.235-0.78,0.235
					c-0.391,0-0.391,0.014-0.783,0.014c-0.391,0-0.391-0.044-0.782-0.044c-0.327,0-0.459-0.433-0.459-0.758
					c0-0.45-0.2-0.45-0.2-0.899s0.236-0.449,0.236-0.9c0-0.448-0.319-0.448-0.319-0.897c0-0.45,0.273-0.45,0.273-0.901
					c0-0.453-0.19-0.453-0.19-0.904c0-0.453,0.198-0.453,0.198-0.906s-0.243-0.453-0.243-0.906c0-0.31,0.344-0.658,0.653-0.682
					c0.42-0.032,0.408-0.185,0.829-0.217c0.421-0.032,0.453,0.379,0.874,0.347c0.421-0.032,0.428,0.049,0.849,0.017
					c0.167-0.013,0.219-0.104,0.341,0.012s0.378,0.183,0.374,0.351c-0.013,0.464,0.129,0.468,0.117,0.931
					c-0.013,0.463-0.187,0.459-0.199,0.922c-0.013,0.463,0.027,0.463,0.015,0.927c-0.013,0.465-0.222,0.459-0.235,0.924
					c-0.013,0.466,0.007,0.466-0.006,0.933s-0.207,0.49-0.164,0.955C22.167,31.237,22.499,31.213,22.486,31.681z M29.436,19.172
					c-0.021,0.298-0.429,0.484-0.727,0.5c-0.549,0.029-0.537,0.263-1.086,0.292c-0.549,0.029-0.549,0.043-1.098,0.072
					c-0.01,0-0.032-0.043-0.042-0.043c-0.151,0-0.206-0.32-0.316-0.425c-0.117-0.112-0.343-0.17-0.343-0.333
					c0-0.402,0.236-0.402,0.236-0.804c0-0.403-0.319-0.403-0.319-0.806s0.273-0.403,0.273-0.806c0-0.314,0.119-0.641,0.432-0.659
					c0.394-0.021,0.405,0.176,0.799,0.154c0.395-0.022,0.381-0.265,0.776-0.287s0.396,0,0.791-0.022
					c0.168-0.01,0.514-0.027,0.634,0.094c0.119,0.121-0.16,0.448-0.172,0.617c-0.028,0.405-0.11,0.399-0.138,0.804
					c-0.028,0.406,0.03,0.432,0.057,0.837C29.219,18.776,29.464,18.767,29.436,19.172z M29.436,14.439
					c-0.021,0.298-0.429,0.485-0.727,0.501c-0.549,0.028-0.537,0.263-1.086,0.292c-0.549,0.029-0.549,0.043-1.098,0.072
					c-0.01,0-0.032-0.043-0.042-0.043c-0.151,0-0.206-0.321-0.316-0.425c-0.117-0.112-0.343-0.171-0.343-0.333
					c0-0.402,0.236-0.402,0.236-0.804c0-0.403-0.319-0.403-0.319-0.806c0-0.403,0.273-0.403,0.273-0.806
					c0-0.313,0.119-0.641,0.432-0.658c0.394-0.022,0.405,0.176,0.799,0.154c0.395-0.022,0.381-0.265,0.776-0.287
					s0.396-0.001,0.791-0.023c0.168-0.009,0.514-0.026,0.634,0.094c0.119,0.121-0.16,0.448-0.172,0.618
					c-0.028,0.405-0.11,0.399-0.138,0.804c-0.028,0.406,0.03,0.432,0.057,0.837C29.219,14.043,29.464,14.033,29.436,14.439z
					 M34.34,19.103c0,0.314-0.414,0.535-0.727,0.553c-0.394,0.022-0.381,0.256-0.774,0.278c-0.395,0.022-0.394,0.036-0.789,0.058
					c-0.395,0.021-0.397-0.022-0.792,0c-0.011,0-0.031-0.299-0.042-0.299c-0.158,0-0.357,0.118-0.469,0.005
					c-0.119-0.122,0.035-0.323,0.047-0.493c0.028-0.405-0.29-0.427-0.262-0.832c0.028-0.406,0.301-0.387,0.329-0.793
					c0.028-0.406-0.162-0.419-0.134-0.825c0.021-0.298,0.335-0.399,0.634-0.415c0.549-0.029,0.537-0.271,1.086-0.3
					c0.549-0.029,0.55-0.008,1.1-0.036c0.161-0.008,0.494-0.037,0.612,0.075c0.118,0.111-0.151,0.445-0.151,0.607
					c0,0.402-0.082,0.402-0.082,0.804c0,0.403,0.06,0.425,0.115,0.825C34.096,18.727,34.34,18.7,34.34,19.103z M34.34,14.37
					c0,0.314-0.414,0.535-0.727,0.553c-0.394,0.022-0.381,0.256-0.774,0.278c-0.395,0.022-0.394,0.036-0.789,0.058
					s-0.397-0.022-0.792,0c-0.011,0-0.031-0.299-0.042-0.299c-0.158,0-0.357,0.117-0.469,0.004
					c-0.119-0.121,0.035-0.323,0.047-0.492c0.028-0.405-0.29-0.427-0.262-0.831c0.028-0.406,0.301-0.387,0.329-0.793
					c0.028-0.406-0.162-0.419-0.134-0.825c0.021-0.298,0.335-0.399,0.634-0.416c0.549-0.029,0.537-0.271,1.086-0.3
					c0.549-0.029,0.55-0.008,1.1-0.036c0.161-0.008,0.494-0.037,0.612,0.075c0.118,0.112-0.151,0.446-0.151,0.607
					c0,0.402-0.082,0.402-0.082,0.804c0,0.403,0.06,0.425,0.115,0.825C34.096,13.994,34.34,13.967,34.34,14.37z M42.29,25.345
					c0-0.311,0.408-0.529,0.716-0.553c0.42-0.031,0.402-0.266,0.822-0.298c0.421-0.032,0.42-0.046,0.842-0.078
					c0.422-0.032,0.425,0.012,0.846-0.021c0.168-0.013,0.253,0.309,0.375,0.424c0.121,0.115,0.346,0.183,0.341,0.351
					c-0.013,0.442-0.249,0.437-0.261,0.878c-0.012,0.441,0.306,0.452,0.293,0.895c-0.013,0.44-0.286,0.434-0.299,0.875
					c-0.013,0.443,0.177,0.449,0.165,0.894c-0.013,0.444-0.211,0.438-0.224,0.884c-0.013,0.445,0.23,0.452,0.217,0.898
					c-0.013,0.445-0.034,0.445-0.046,0.891c-0.008,0.292-0.291,0.775-0.58,0.811c-0.39,0.05-0.441-0.359-0.831-0.312
					c-0.391,0.05-0.401-0.032-0.792,0.017c-0.392,0.05-0.377,0.162-0.769,0.211c-0.024,0.004-0.032,0.236-0.057,0.236
					c-0.143,0-0.441,0.03-0.55-0.066c-0.127-0.111-0.107-0.453-0.107-0.622c0-0.45-0.041-0.45-0.041-0.9
					c0-0.448,0.209-0.448,0.209-0.899c0-0.448-0.02-0.448-0.02-0.897c0-0.45,0.139-0.45,0.139-0.901
					c0-0.453-0.404-0.453-0.404-0.904c0-0.453,0.381-0.475,0.326-0.924C42.544,25.771,42.29,25.797,42.29,25.345z M41.282,24.6
					c0.122,0.115,0.038,0.397,0.033,0.565c-0.011,0.443,0.224,0.449,0.212,0.893c-0.011,0.443,0.002,0.443-0.009,0.887
					c-0.011,0.441-0.055,0.441-0.066,0.884c-0.011,0.44-0.311,0.435-0.322,0.875c-0.011,0.444,0.188,0.448,0.177,0.894
					c-0.011,0.443-0.247,0.438-0.258,0.883c-0.011,0.445,0.307,0.453,0.296,0.899c-0.011,0.446-0.284,0.438-0.295,0.886
					c-0.008,0.32-0.148,0.647-0.469,0.647c-0.39,0-0.39-0.198-0.78-0.198c-0.391,0-0.391,0.243-0.783,0.243
					c-0.391,0-0.391-0.021-0.782-0.021c-0.327,0-0.837-0.358-0.837-0.686c0-0.43,0.412-0.43,0.412-0.859s0.082-0.43,0.082-0.859
					s-0.113-0.43-0.113-0.858s-0.232-0.429-0.232-0.856c0-0.432-0.143-0.432-0.143-0.861c0-0.432,0.174-0.432,0.174-0.863
					c0-0.433-0.041-0.433-0.041-0.865s0.209-0.433,0.209-0.865c0-0.307,0.14-0.481,0.447-0.506c0.42-0.035,0.432,0.104,0.852,0.068
					c0.421-0.035,0.388-0.438,0.809-0.474c0.421-0.035,0.448,0.291,0.87,0.256C40.894,24.691,41.159,24.484,41.282,24.6z"/>
			</g>
			<g>
				<path fill="#FCA651" d="M21.882,24.808c-0.42,0.032-0.434-0.153-0.854-0.121c-0.421,0.032-0.422,0.024-0.843,0.056
					c-0.421,0.033-0.422,0.018-0.844,0.05c-0.309,0.022-0.436,0.242-0.436,0.552c0,0.449-0.137,0.449-0.137,0.899
					c0,0.448-0.145,0.448-0.145,0.899c0,0.448,0.168,0.448,0.168,0.897c0,0.451-0.223,0.451-0.223,0.901
					c0,0.453,0.218,0.453,0.218,0.904c0,0.453-0.224,0.453-0.224,0.906s0.451,0.453,0.451,0.907c0,0.325,0.042,0.753,0.369,0.753
					c0.39,0,0.39-0.209,0.78-0.209c0.391,0,0.391-0.059,0.783-0.059c0.391,0,0.391,0.101,0.782,0.101c0.32,0,0.662-0.248,0.67-0.567
					c0.013-0.464-0.015-0.465-0.002-0.929c0.013-0.463-0.286-0.472-0.273-0.935c0.013-0.463,0.436-0.451,0.448-0.914
					c0.013-0.465-0.143-0.469-0.13-0.935c0.013-0.465,0.225-0.459,0.238-0.925c0.013-0.467-0.397-0.479-0.384-0.945
					c0.013-0.467-0.042-0.468-0.029-0.935c0.005-0.168,0.258-0.415,0.137-0.531C22.283,24.515,22.049,24.795,21.882,24.808z"/>
			</g>
			<g>
				<path fill="#FCA651" d="M28.816,16.105c-0.394,0.022-0.407-0.212-0.8-0.191c-0.395,0.022-0.37,0.473-0.765,0.495
					s-0.402-0.115-0.797-0.093c-0.313,0.018-0.468,0.188-0.468,0.502c0,0.402,0.068,0.402,0.068,0.804
					c0,0.403-0.085,0.403-0.085,0.807c0,0.403,0.099,0.403,0.099,0.806c0,0.163,0.06,0.139,0.177,0.25
					c0.11,0.105,0.086,0.143,0.237,0.143c0.01,0,0.017,0.129,0.027,0.129c0.549-0.029,0.549-0.031,1.099-0.06
					c0.55-0.029,0.55-0.016,1.099-0.044c0.299-0.016,0.641-0.187,0.662-0.485c0.028-0.404-0.039-0.409-0.011-0.814
					c0.028-0.406-0.146-0.418-0.117-0.824c0.028-0.406-0.038-0.411-0.01-0.816c0.012-0.169,0.244-0.406,0.125-0.527
					S28.984,16.096,28.816,16.105z"/>
			</g>
			<g>
				<path fill="#FCA651" d="M28.823,11.485c-0.394,0.022-0.392,0.063-0.785,0.084c-0.395,0.022-0.405-0.166-0.8-0.144
					s-0.385,0.185-0.78,0.207c-0.313,0.018-0.566,0.14-0.566,0.453c0,0.402-0.116,0.402-0.116,0.804
					c0,0.403-0.035,0.403-0.035,0.806c0,0.403,0.037,0.403,0.037,0.806c0,0.162,0.17,0.328,0.288,0.439
					c0.111,0.105,0.266,0.159,0.417,0.159c0.01,0,0.017-0.065,0.028-0.065c0.549-0.029,0.56,0.169,1.109,0.141
					c0.55-0.029,0.552,0.013,1.101-0.016c0.299-0.016,0.551-0.433,0.571-0.73c0.028-0.405,0.007-0.406,0.036-0.811
					c0.028-0.406,0.097-0.401,0.125-0.807c0.028-0.406-0.024-0.409,0.004-0.815c0.012-0.169-0.082-0.321-0.201-0.442
					C29.135,11.434,28.991,11.476,28.823,11.485z"/>
			</g>
			<g>
				<path fill="#FCA651" d="M17.051,24.612c-0.42,0.035-0.405,0.211-0.825,0.247c-0.422,0.035-0.438-0.151-0.858-0.116
					c-0.421,0.034-0.432-0.084-0.853-0.049c-0.307,0.026-0.417,0.361-0.417,0.669c0,0.431,0.104,0.431,0.104,0.859
					c0,0.43-0.046,0.43-0.046,0.859s-0.174,0.43-0.174,0.857c0,0.429-0.064,0.43-0.064,0.857c0,0.432-0.108,0.432-0.108,0.861
					c0,0.431,0.166,0.431,0.166,0.863s-0.192,0.433-0.192,0.865c0,0.432,0.427,0.432,0.427,0.864c0,0.171-0.264,0.457-0.136,0.569
					c0.109,0.095,0.354-0.117,0.497-0.117c0.027,0,0.077,0.309,0.104,0.304c0.39-0.053,0.396-0.004,0.787-0.058
					c0.392-0.053,0.352-0.344,0.743-0.396c0.391-0.054,0.369-0.216,0.76-0.27c0.287-0.039,0.727-0.041,0.734-0.331
					c0.011-0.423-0.387-0.435-0.375-0.856c0.012-0.423,0.029-0.423,0.041-0.846c0.011-0.422,0.148-0.419,0.159-0.841
					c0.012-0.421,0.133-0.419,0.144-0.841c0.011-0.424-0.082-0.426-0.071-0.851c0.011-0.424,0.057-0.423,0.068-0.848
					c0.011-0.427-0.023-0.427-0.012-0.853c0.011-0.426,0.25-0.418,0.261-0.845c0.005-0.168-0.249-0.376-0.371-0.491
					C17.417,24.566,17.22,24.598,17.051,24.612z"/>
			</g>
			<g>
				<path fill="#FCA651" d="M37.591,25.36c0,0.432,0.042,0.432,0.042,0.861c0,0.428-0.227,0.43-0.227,0.858
					c0,0.431,0.352,0.431,0.352,0.858s-0.177,0.429-0.177,0.856c0,0.431-0.139,0.431-0.139,0.86c0,0.432,0.278,0.432,0.278,0.863
					c0,0.434,0.068,0.434,0.068,0.865s-0.158,0.434-0.158,0.865c0,0.327,0.279,0.563,0.606,0.563c0.39,0,0.39,0.061,0.78,0.061
					c0.391,0,0.391-0.064,0.782-0.064c0.392,0,0.392,0.049,0.783,0.049c0.321,0,0.586-0.271,0.594-0.592
					c0.011-0.443-0.015-0.445-0.003-0.888c0.011-0.442,0.234-0.437,0.246-0.879c0.011-0.442-0.428-0.454-0.417-0.896
					c0.011-0.442,0.184-0.438,0.195-0.879c0.011-0.443,0.26-0.438,0.272-0.882c0.011-0.444-0.404-0.454-0.393-0.899
					c0.011-0.445,0.338-0.438,0.35-0.883c0.011-0.445-0.034-0.447-0.022-0.894c0.004-0.168-0.229-0.207-0.352-0.321
					c-0.123-0.116-0.175-0.387-0.346-0.373c-0.42,0.036-0.394,0.351-0.814,0.386c-0.421,0.035-0.456-0.375-0.877-0.339
					c-0.421,0.036-0.408,0.199-0.829,0.234C37.878,24.778,37.591,25.054,37.591,25.36z"/>
			</g>
			<g>
				<path fill="#FCA651" d="M33.558,16.236c-0.549,0.029-0.544,0.13-1.093,0.159c-0.549,0.029-0.56-0.165-1.109-0.136
					c-0.299,0.016-0.573,0.202-0.594,0.5c-0.028,0.405,0.011,0.407-0.017,0.812c-0.028,0.406,0.014,0.409-0.015,0.814
					c-0.028,0.406-0.288,0.388-0.316,0.794c-0.012,0.169,0.291,0.32,0.41,0.44c0.111,0.113,0.232,0.442,0.391,0.442
					c0.011,0,0.033-0.033,0.044-0.034c0.394-0.021,0.392-0.046,0.786-0.068c0.395-0.021,0.397,0.023,0.792,0.001
					s0.388-0.137,0.783-0.159c0.313-0.018,0.322-0.386,0.322-0.7c0-0.402,0.208-0.402,0.208-0.804c0-0.403,0.227-0.403,0.227-0.806
					c0-0.403,0.011-0.403,0.011-0.806c0-0.162-0.147-0.459-0.265-0.571C34.006,16.004,33.719,16.228,33.558,16.236z"/>
			</g>
			<g>
				<path fill="#333333" d="M53.106,10.217c-0.08,0-0.404,0.028-0.922,0.009c-0.262-0.01-0.572-0.042-0.924-0.055
					c-0.283-0.011-0.592,0.006-0.923-0.007c-0.292-0.011-0.606,0.111-0.93,0.098c-0.297-0.012-0.606-0.029-0.926-0.042
					c-0.3-0.012-0.61-0.038-0.927-0.051c-0.303-0.013-0.609-0.124-0.923-0.136c-0.306-0.013-0.623,0.147-0.937,0.134
					c-0.305-0.012-0.604-0.255-0.915-0.268c-0.308-0.013-0.618-0.024-0.928-0.037c-0.31-0.013-0.625,0.041-0.936,0.028
					c-0.313-0.013-0.625-0.034-0.935-0.046c-0.313-0.013-0.629,0.097-0.937,0.084c-0.313-0.013-0.613-0.24-0.917-0.253
					c-0.314-0.013-0.713,0.27-1.016,0.257c-0.083-0.239,0.127-0.68,0.035-0.906c-0.023-0.085-0.406-0.048-0.431-0.132
					c-0.048-0.17-0.088-0.301-0.196-0.427c-0.138-0.287-0.241-0.588-0.396-0.851c-0.162-0.272-0.46-0.43-0.642-0.676
					c-0.187-0.254-0.017-0.798-0.225-1.024c-0.212-0.23-0.583-0.318-0.817-0.52c-0.236-0.203-0.645-0.161-0.903-0.335
					c-0.255-0.172-0.291-0.719-0.569-0.863c-0.272-0.141-0.72,0.091-1.013-0.023c-0.284-0.11-0.477-0.509-0.781-0.595
					c-0.292-0.083-0.632-0.027-0.943-0.087c-0.298-0.058-0.604-0.118-0.919-0.155c-0.302-0.036-0.628,0.204-0.947,0.187
					c-0.304-0.017-0.603-0.432-0.922-0.432c-0.025,0-0.048,0.245-0.073,0.245c-0.004,0,0.003,0.148,0,0.148
					c-0.006,0-0.021-0.131-0.027-0.131c-0.259,0.003-0.531-0.269-0.773-0.243c-0.256,0.028-0.524,0.061-0.762,0.111
					c-0.25,0.053-0.386,0.537-0.618,0.612c-0.296,0.078-0.682-0.162-0.948-0.063c-0.287,0.107-0.422,0.52-0.675,0.65
					c-0.271,0.14-0.504,0.272-0.739,0.438c-0.247,0.172-0.587,0.198-0.797,0.397c-0.216,0.204-0.452,0.393-0.632,0.623
					c-0.182,0.231-0.138,0.605-0.286,0.86c-0.147,0.252-0.423,0.431-0.541,0.705c-0.212,0.306-0.292,0.683-0.475,0.96
					C21.927,8.657,21.46,8.76,21.276,9.02c-0.25,0.353-0.433,0.548-0.571,0.615C20.55,9.687,20.31,9.768,19.899,9.8
					c-0.258,0.02-0.552,0.036-0.881,0.049c-0.276,0.011-0.564,0.279-0.875,0.287c-0.287,0.007-0.589-0.268-0.894-0.263
					c-0.292,0.004-0.588,0.184-0.888,0.187c-0.299,0.002-0.6-0.248-0.897-0.247c-0.302,0.001-0.599,0.183-0.888,0.183
					c-0.308,0-0.605,0.25-0.888,0.25c-0.292,0-0.581-0.173-0.865-0.173c-0.292,0-0.58,0.022-0.86,0.023
					c-0.295,0.001-0.584-0.071-0.862-0.068c-0.297,0.002-0.581,0.186-0.854,0.19c-0.303,0.005-0.594-0.215-0.861-0.206
					c-0.317,0.01-0.64-0.062-0.938-0.041c-0.33,0.023-0.686-0.003-0.962,0.062c-0.336,0.079-0.429,0.583-0.634,0.772
					C6.641,11,6.557,11.13,6.545,11.498c-0.019,0.134-0.21,0.428-0.307,0.844c-0.056,0.241-0.163,0.513-0.24,0.828
					c-0.063,0.258-0.229,0.514-0.304,0.813c-0.066,0.265-0.251,0.515-0.325,0.806c-0.068,0.269,0.017,0.588-0.057,0.875
					c-0.07,0.272,0.066,0.606-0.007,0.891c-0.071,0.274-0.437,0.478-0.51,0.76c-0.072,0.275-0.038,0.581-0.112,0.861
					c-0.073,0.278-0.186,0.549-0.26,0.83c-0.074,0.281-0.325,0.517-0.399,0.798c-0.074,0.281,0.095,0.625,0.021,0.901
					c-0.095,0.355-0.188,0.858,0.036,1.149c0.224,0.292,0.734,0.151,1.102,0.151c0.442,0,0.442,0.136,0.885,0.136
					c0.443,0,0.443,0.136,0.886,0.136c0.444,0,0.444-0.143,0.889-0.143c0.445,0,0.634-0.316,0.946,0
					c0.316,0.32-0.226,0.506-0.226,0.956c0,0.449,0.316,0.449,0.316,0.898c0,0.449,0.086,0.449,0.086,0.898
					c0,0.449-0.28,0.449-0.28,0.898s-0.056,0.449-0.056,0.9c0,0.449-0.027,0.449-0.027,0.898s-0.03,0.449-0.03,0.898
					c0,0.451,0.314,0.451,0.314,0.899c0,0.449-0.115,0.45-0.115,0.899s-0.244,0.449-0.244,0.898c0,0.447,0.192,0.447,0.192,0.896
					s0.019,0.448,0.019,0.897s0.223,0.449,0.223,0.9c0,0.449-0.025,0.449-0.025,0.898s-0.147,0.451-0.147,0.899
					c0,0.451,0.023,0.451,0.023,0.901c0,0.451,0.058,0.451,0.058,0.902c0,0.449-0.07,0.449-0.07,0.899
					c0,0.448,0.126,0.448,0.126,0.897c0,0.453-0.282,0.453-0.282,0.904c0,0.453-0.12,0.453-0.12,0.905
					c0,0.454,0.23,0.454,0.23,0.907s0.072,0.453,0.072,0.906c0,0.15-0.004,0.274,0.047,0.407c-0.003,0.027-0.112,0.068-0.113,0.097
					c-0.005,0.309,0.314,0.433,0.513,0.637c0.198,0.205,0.309,0.736,0.617,0.74c0.444,0.008,0.45-0.361,0.895-0.354
					c0.445,0.008,0.444,0.044,0.889,0.053c0.445,0.006,0.441,0.252,0.887,0.26s0.451-0.318,0.897-0.312
					c0.447,0.007,0.447,0.011,0.894,0.017c0.447,0.008,0.441,0.319,0.888,0.328c0.446,0.006,0.452-0.353,0.898-0.345
					c0.446,0.007,0.445,0.063,0.891,0.07c0.445,0.007,0.444,0.063,0.89,0.071c0.445,0.008,0.447-0.101,0.892-0.092
					c0.445,0.006,0.44,0.299,0.886,0.307c0.445,0.007,0.443,0.13,0.888,0.137c0.446,0.008,0.449-0.211,0.895-0.204
					c0.446,0.009,0.445,0.104,0.891,0.112c0.447,0.008,0.445,0.137,0.892,0.145c0.447,0.008,0.453-0.32,0.9-0.313
					c0.447,0.008,0.445,0.119,0.892,0.127c0.446,0.007,0.446,0.021,0.893,0.027c0.446,0.008,0.448-0.135,0.894-0.127
					c0.446,0.008,0.446,0.055,0.892,0.063c0.446,0.007,0.444,0.126,0.891,0.134s0.449-0.081,0.896-0.074
					c0.448,0.008,0.45-0.111,0.897-0.104c0.447,0.008,0.444,0.172,0.891,0.179c0.447,0.009,0.446,0.075,0.893,0.083
					c0.447,0.008,0.448-0.027,0.895-0.021c0.448,0.009,0.448,0.021,0.896,0.029c0.447,0.008,0.445,0.118,0.893,0.125
					c0.447,0.008,0.448-0.068,0.896-0.062c0.448,0.007,0.447,0.075,0.894,0.084c0.448,0.007,0.447,0.051,0.895,0.06
					c0.446,0.006,0.452-0.334,0.898-0.326c0.446,0.008,0.44,0.367,0.886,0.375c0.446,0.006,0.453-0.392,0.9-0.383
					c0.448,0.008,0.445,0.211,0.893,0.219c0.448,0.008,0.448-0.028,0.896-0.021c0.447,0.007,0.45-0.16,0.897-0.153
					c0.449,0.008,0.442,0.416,0.892,0.424c0.448,0.008,0.454-0.375,0.902-0.369c0.448,0.009,0.443,0.304,0.891,0.311
					c0.447,0.008,0.451-0.209,0.898-0.201c0.449,0.008,0.452-0.143,0.901-0.135c0.45,0.007,0.446,0.271,0.896,0.279
					c0.451,0.008,0.45,0.105,0.901,0.111c0.451,0.008,0.451,0.043,0.902,0.051c0.006,0,0.015-0.295,0.021-0.295
					c0.304,0,0.542-0.028,0.744-0.228c0.201-0.198,0.506-0.433,0.511-0.737c0.001-0.051-0.085-0.074-0.091-0.125
					c0.061-0.143-0.151-0.32-0.151-0.486c0-0.452,0.166-0.452,0.166-0.905c0-0.452-0.052-0.452-0.052-0.905
					c0-0.451-0.159-0.451-0.159-0.904c0-0.451,0.334-0.451,0.334-0.903c0-0.453-0.225-0.453-0.225-0.906
					c0-0.452,0.191-0.452,0.191-0.905s-0.073-0.453-0.073-0.906c0-0.452-0.258-0.452-0.258-0.905s0.035-0.453,0.035-0.906
					c0-0.45,0.243-0.45,0.243-0.903c0-0.451,0.003-0.451,0.003-0.901c0-0.452,0.186-0.452,0.186-0.903
					c0-0.453-0.449-0.453-0.449-0.908c0-0.453,0.311-0.453,0.311-0.904c0-0.453-0.208-0.453-0.208-0.906
					c0-0.454,0.208-0.454,0.208-0.908c0-0.453-0.095-0.453-0.095-0.906s0.108-0.453,0.108-0.906s-0.216-0.453-0.216-0.905
					c0-0.455,0.331-0.455,0.331-0.909c0-0.456-0.369-0.456-0.369-0.911c0-0.457-0.011-0.457-0.011-0.914s-0.101-0.542,0.209-0.878
					c0.276-0.3,0.375-0.212,0.783-0.198c0.41,0.014,0.402,0.24,0.811,0.254c0.411,0.014,0.414-0.071,0.824-0.057
					c0.411,0.015,0.401,0.295,0.813,0.31c0.411,0.014,0.414-0.055,0.825-0.041c0.013,0,0.032-0.245,0.046-0.245
					c0.342,0,0.651-0.08,0.875-0.339c0.234-0.269,0.319-0.608,0.258-0.96c-0.056-0.314,0.158-0.667,0.104-0.964
					c-0.056-0.314-0.484-0.552-0.538-0.848c-0.058-0.316,0.264-0.691,0.209-0.985c-0.059-0.318-0.125-0.623-0.182-0.917
					c-0.061-0.319-0.212-0.607-0.271-0.899c-0.063-0.32-0.068-0.637-0.128-0.926c-0.066-0.321-0.16-0.619-0.222-0.904
					c-0.071-0.324-0.479-0.549-0.544-0.83c-0.077-0.328,0.034-0.671-0.038-0.944c-0.087-0.335-0.269-0.602-0.35-0.862
					c-0.108-0.351-0.264-0.605-0.362-0.841c-0.164-0.389-0.187-0.684-0.341-0.84C53.679,10.37,53.423,10.217,53.106,10.217z
					 M48.866,42.845c-0.335,0.319-0.362-0.008-0.825-0.015c-0.462-0.009-0.461-0.028-0.924-0.036
					c-0.463-0.007-0.463,0.021-0.926,0.014c-0.465-0.008-0.467,0.127-0.932,0.119c-0.464-0.008-0.464-0.012-0.928-0.02
					s-0.464-0.021-0.928-0.029c-0.465-0.007-0.464-0.105-0.929-0.113c-0.465-0.009-0.468,0.164-0.932,0.156
					c-0.465-0.008-0.461-0.236-0.927-0.245c-0.463-0.007-0.463-0.006-0.927-0.014c-0.466-0.009-0.467,0.06-0.933,0.051
					c-0.466-0.007-0.466-0.017-0.933-0.022c-0.468-0.008-0.47,0.115-0.938,0.106c-0.468-0.007-0.439-0.028-0.867-0.217
					c0.001-0.396-0.217-0.644-0.213-1.06c0.003-0.297,0.386-0.597,0.388-0.899c0.002-0.302-0.377-0.604-0.378-0.907
					c-0.001-0.302,0.029-0.604,0.024-0.906c-0.005-0.304,0.039-0.605,0.027-0.908c-0.012-0.303-0.188-0.594-0.208-0.895
					c-0.021-0.304,0.431-0.646,0.4-0.945c-0.031-0.305-0.263-0.588-0.307-0.884c-0.045-0.304-0.374-0.548-0.435-0.84
					c-0.063-0.301,0.306-0.704,0.224-0.989c-0.084-0.297-0.556-0.459-0.663-0.736c-0.111-0.287,0.054-0.693-0.084-0.957
					c-0.143-0.271-0.417-0.469-0.592-0.711c-0.177-0.246-0.364-0.486-0.578-0.699c-0.208-0.208-0.586-0.18-0.822-0.344
					c-0.237-0.166-0.281-0.658-0.545-0.78c-0.259-0.12-0.622,0.006-0.906-0.07c-0.273-0.073-0.563,0.022-0.859-0.011
					c-0.28-0.032-0.543-0.178-0.842-0.174c-0.334,0.004-0.694-0.248-1.001-0.188c-0.323,0.063-0.674,0.16-0.968,0.285
					c-0.297,0.126-0.367,0.657-0.632,0.845c-0.257,0.184-0.718,0.129-0.945,0.371c-0.208,0.221-0.141,0.657-0.312,0.915
					c-0.167,0.25-0.31,0.49-0.446,0.771c-0.132,0.271-0.426,0.468-0.531,0.76c-0.103,0.283-0.239,0.564-0.318,0.863
					c-0.078,0.293,0.095,0.643,0.036,0.945c-0.058,0.299-0.272,0.568-0.314,0.875c-0.042,0.303,0.066,0.619,0.039,0.924
					c-0.028,0.308-0.381,0.59-0.397,0.895c-0.016,0.311-0.075,0.623-0.082,0.927c-0.006,0.312,0.048,0.624,0.05,0.925
					c0.002,0.315,0.008,0.627,0.016,0.924c0.009,0.318,0.28,0.615,0.292,0.908c0.014,0.323-0.251,0.643-0.237,0.926
					c0.016,0.316,0.201,0.574,0.209,0.809c-0.45,0.107-0.459-0.26-0.921-0.268s-0.465,0.174-0.927,0.166
					c-0.462-0.006-0.466,0.244-0.929,0.235c-0.465-0.007-0.462-0.181-0.926-0.188c-0.464-0.008-0.464,0.014-0.928,0.007
					c-0.463-0.009-0.462-0.081-0.926-0.089c-0.465-0.008-0.468,0.173-0.934,0.166c-0.464-0.008-0.46-0.234-0.925-0.242
					c-0.465-0.008-0.464-0.09-0.929-0.098c-0.463-0.008-0.462-0.078-0.925-0.086c-0.465-0.006-0.473,0.437-0.938,0.429
					c-0.466-0.007-0.466-0.029-0.932-0.037c-0.468-0.009-0.465-0.136-0.933-0.144c-0.467-0.008-0.609,0.271-0.941-0.06
					c-0.324-0.321,0.096-0.463,0.096-0.92s0.119-0.457,0.119-0.913s-0.162-0.457-0.162-0.913c0-0.457-0.215-0.457-0.215-0.915
					s0.303-0.458,0.303-0.915c0-0.456-0.11-0.456-0.11-0.913c0-0.459,0.04-0.459,0.04-0.916s0.183-0.457,0.183-0.914
					s-0.252-0.457-0.252-0.912s0.211-0.455,0.211-0.912c0-0.455-0.392-0.455-0.392-0.912s0.136-0.457,0.136-0.916
					c0-0.457,0.136-0.457,0.136-0.914s-0.143-0.457-0.143-0.914c0-0.459-0.023-0.459-0.023-0.917s0.249-0.458,0.249-0.916
					s-0.316-0.458-0.316-0.915s-0.086-0.457-0.086-0.914c0-0.459,0.279-0.459,0.279-0.918c0-0.46,0.056-0.46,0.056-0.919
					c0-0.461,0.027-0.461,0.027-0.922c0-0.461-0.338-0.482-0.015-0.812c0.317-0.323,0.34-0.267,0.792-0.267
					c0.453,0,0.453,0.115,0.906,0.115c0.455,0,0.455,0.244,0.91,0.244c0.454,0,0.454-0.192,0.908-0.192s0.454-0.019,0.908-0.019
					c0.456,0,0.456-0.223,0.911-0.223c0.455,0,0.455,0.025,0.91,0.025s0.455,0.147,0.909,0.147s0.454-0.023,0.907-0.023
					c0.456,0,0.456-0.058,0.912-0.058c0.457,0,0.457,0.07,0.914,0.07c0.458,0,0.458-0.126,0.917-0.126s0.458,0.282,0.916,0.282
					c0.327,0,0.768-0.072,0.981-0.287c0.214-0.214,0.177-0.655,0.177-0.981c0-0.274-0.074-0.545-0.077-0.814
					c-0.003-0.275,0.029-0.548,0.023-0.819c-0.005-0.273,0.086-0.546,0.079-0.815c-0.007-0.274-0.278-0.537-0.286-0.807
					c-0.009-0.27,0.452-0.552,0.443-0.818c-0.01-0.316-0.389-0.615-0.397-0.917c-0.009-0.317,0.021-0.627,0.014-0.929
					c-0.006-0.317,0.234-0.629,0.232-0.929c-0.003-0.318-0.329-0.628-0.326-0.927c0.003-0.321,0.013-0.634,0.024-0.933
					c0.012-0.32,0.341-0.611,0.364-0.906c0.025-0.322-0.299-0.668-0.258-0.961c0.044-0.319,0.156-0.626,0.221-0.912
					c0.072-0.313,0.221-0.619,0.322-0.893c0.167-0.239,0.268-0.557,0.451-0.786s0.596-0.263,0.799-0.473
					c0.203-0.21,0.486-0.305,0.715-0.487c0.228-0.181,0.335-0.517,0.594-0.66c0.251-0.139,0.547-0.164,0.832-0.259
					c0.258-0.063,0.538,0.014,0.829-0.03c0.262-0.04,0.503-0.396,0.797-0.418c0.31,0.001,0.613,0.122,0.901,0.14
					c0.31,0.019,0.605,0.062,0.891,0.101c0.306,0.042,0.631-0.042,0.911,0.023c0.3,0.071,0.584,0.205,0.855,0.304
					c0.287,0.105,0.514,0.335,0.771,0.473c0.266,0.142,0.564,0.229,0.8,0.407c0.237,0.179,0.55,0.299,0.758,0.516
					c0.202,0.21,0.273,0.552,0.449,0.799c0.169,0.236,0.267,0.521,0.415,0.792c0.138,0.253,0.295,0.5,0.416,0.785
					c0.072,0.281,0.123,0.566,0.181,0.855c0.057,0.285-0.003,0.589,0.041,0.879c0.044,0.289,0.157,0.565,0.189,0.857
					c0.032,0.292-0.011,0.587,0.012,0.878c0.022,0.293-0.005,0.584,0.008,0.875c0.014,0.296,0.364,0.578,0.37,0.868
					c0.006,0.299-0.352,0.597-0.352,0.886c0,0.299,0.394,0.597,0.388,0.883c-0.006,0.302-0.22,0.591-0.23,0.875
					c-0.011,0.304,0.012,0.597-0.001,0.876c-0.015,0.309,0.137,0.609,0.123,0.881c-0.015,0.286-0.437,0.526-0.447,0.759
					c-0.014,0.298,0.361,0.564,0.361,0.78c0,0.319-0.132,0.701,0.074,0.914s0.589,0.174,0.908,0.185
					c0.443,0.015,0.448-0.134,0.891-0.119c0.445,0.016,0.437,0.279,0.882,0.295c0.444,0.015,0.44,0.113,0.885,0.128
					c0.444,0.016,0.443,0.051,0.887,0.066c0.446,0.015,0.456-0.28,0.901-0.264c0.445,0.015,0.442,0.093,0.888,0.108
					c0.444,0.015,0.438,0.209,0.882,0.225c0.444,0.016,0.446-0.045,0.89-0.03c0.446,0.015,0.455-0.234,0.901-0.219
					c0.447,0.016,0.441,0.182,0.888,0.197c0.448,0.016,0.45-0.037,0.898-0.021c0.448,0.016,0.734-0.384,1.048-0.063
					c0.31,0.317-0.272,0.593-0.272,1.036c0,0.442,0.225,0.442,0.225,0.885c0,0.442-0.191,0.442-0.191,0.884s0.073,0.441,0.073,0.885
					c0,0.442,0.258,0.442,0.258,0.885c0,0.443-0.035,0.443-0.035,0.887c0,0.441-0.243,0.441-0.243,0.885s-0.003,0.443-0.003,0.887
					c0,0.442-0.186,0.442-0.186,0.885c0,0.441,0.449,0.441,0.449,0.884c0,0.44-0.311,0.44-0.311,0.882s0.208,0.441,0.208,0.883
					c0,0.444-0.208,0.444-0.208,0.887c0,0.443,0.095,0.443,0.095,0.887c0,0.441-0.108,0.441-0.108,0.885s0.216,0.443,0.216,0.889
					c0,0.444-0.331,0.444-0.331,0.887c0,0.443,0.369,0.443,0.369,0.887c0,0.441,0.011,0.441,0.011,0.885
					c0,0.445-0.223,0.445-0.223,0.889c0,0.445,0.243,0.445,0.243,0.892s-0.297,0.458-0.226,0.899
					C48.998,42.479,49.189,42.537,48.866,42.845z"/>
			</g>
			<g>
				<path fill="#FCA651" d="M43.048,32.11c0.025,0,0.068,0.287,0.092,0.283c0.39-0.049,0.39-0.054,0.78-0.103
					c0.391-0.049,0.388-0.074,0.779-0.124c0.391-0.049,0.352-0.363,0.743-0.413c0.29-0.037,0.752-0.075,0.761-0.366
					c0.013-0.443-0.404-0.455-0.391-0.898c0.013-0.442,0.11-0.439,0.123-0.883c0.013-0.44-0.126-0.444-0.113-0.887
					c0.013-0.443,0.324-0.435,0.337-0.879c0.013-0.445,0.083-0.441,0.096-0.887c0.013-0.446-0.232-0.453-0.219-0.898
					c0.013-0.445-0.025-0.447-0.013-0.893c0.005-0.168-0.021-0.221-0.142-0.335c-0.122-0.116-0.193-0.404-0.362-0.391
					c-0.42,0.032-0.41,0.168-0.83,0.2c-0.421,0.032-0.436-0.158-0.857-0.126c-0.421,0.033-0.401,0.296-0.822,0.329
					c-0.309,0.022-0.676,0.194-0.676,0.503c0,0.45-0.08,0.45-0.08,0.9c0,0.449,0.078,0.449,0.078,0.898s0.141,0.449,0.141,0.898
					c0,0.451,0.017,0.451,0.017,0.902s-0.099,0.451-0.099,0.904c0,0.452,0.146,0.452,0.146,0.905s0.015,0.453,0.015,0.907
					c0,0.169-0.026,0.336,0.102,0.449C42.76,32.204,42.905,32.11,43.048,32.11z"/>
			</g>
			<g>
				<path fill="#FCA651" d="M33.547,11.283c-0.549,0.029-0.554-0.061-1.104-0.032c-0.549,0.029-0.534,0.318-1.083,0.347
					c-0.299,0.016-0.71,0.121-0.731,0.418c-0.028,0.404,0.096,0.413,0.068,0.818c-0.028,0.406-0.113,0.4-0.141,0.806
					c-0.028,0.406,0.221,0.423,0.193,0.829c-0.012,0.169-0.22,0.472-0.101,0.593c0.112,0.113,0.41,0.073,0.568,0.073
					c0.011,0,0.036,0.201,0.046,0.201c0.394-0.022,0.373-0.392,0.767-0.414c0.395-0.022,0.408,0.224,0.803,0.202
					s0.384-0.219,0.778-0.241c0.313-0.018,0.555-0.199,0.555-0.513c0-0.402,0.052-0.402,0.052-0.804s-0.1-0.402-0.1-0.806
					c0-0.403-0.192-0.403-0.192-0.806c0-0.162,0.029-0.157-0.089-0.268C33.719,11.574,33.708,11.275,33.547,11.283z"/>
			</g>
		</g>
		<g>
			<path fill="#FCA651" d="M8.401,12.226c-0.335,0.267-0.315,0.32-0.415,0.737c-0.101,0.418,0.232,0.498,0.132,0.916
				c-0.1,0.418-0.429,0.338-0.529,0.756c-0.101,0.417-0.05,0.429-0.15,0.846c-0.101,0.417-0.08,0.421-0.181,0.838
				c-0.101,0.418-0.242,0.385-0.342,0.803c-0.101,0.419,0.107,0.469,0.006,0.888c-0.102,0.42-0.193,0.398-0.294,0.819
				c-0.101,0.42-0.166,0.404-0.267,0.825c0,0,0.529,0.024,1.101,0.079c0.258,0.024,0.562,0.068,0.906,0.099
				c0.28,0.024,0.589-0.003,0.914,0.023c0.289,0.024,0.602-0.07,0.918-0.046c0.294,0.022,0.591,0.144,0.904,0.165
				c0.298,0.02,0.609-0.069,0.918-0.051c0.3,0.018,0.589,0.292,0.896,0.308c0.304,0.015,0.605,0.166,0.911,0.178
				c0.308,0.013,0.621-0.133,0.925-0.125c0.31,0.009,0.618,0.024,0.92,0.027c0.312,0.004,0.62-0.027,0.918-0.029
				c0.315-0.002,0.629,0.216,0.924,0.206c0.32-0.011,0.602-0.474,0.891-0.496c0.329-0.024,0.682,0.384,0.959,0.344
				c0.346-0.05,0.598-0.385,0.843-0.462c0.408-0.128,0.625-0.248,0.671-0.466c0.063-0.289,0.286-0.553,0.317-0.852
				c0.03-0.281-0.117-0.587-0.104-0.898c0.013-0.278,0.292-0.564,0.3-0.881c0.007-0.276-0.388-0.581-0.38-0.897
				c0.007-0.278,0.009-0.576,0.021-0.892c0.01-0.251,0.419-0.505,0.44-0.788c0.02-0.271-0.361-0.58-0.337-0.845
				c0.026-0.293,0.287-0.55,0.311-0.792c0.049-0.476,0.506-0.895,0.125-1.032c-0.412-0.148-0.521,0.116-0.959,0.13
				c-0.436,0.014-0.437-0.015-0.873-0.001c-0.436,0.014-0.427,0.275-0.862,0.289c-0.436,0.014-0.44-0.128-0.877-0.115
				c-0.438,0.014-0.441-0.104-0.879-0.091c-0.438,0.014-0.429,0.28-0.866,0.294c-0.438,0.014-0.444-0.2-0.881-0.186
				c-0.438,0.014-0.436,0.11-0.874,0.124c-0.438,0.014-0.44-0.061-0.878-0.046c-0.438,0.014-0.431,0.208-0.869,0.222
				c-0.437,0.014-0.436,0.05-0.872,0.064c-0.439,0.014-0.439,0.023-0.878,0.038c-0.44,0.014-0.445-0.147-0.885-0.133
				c-0.441,0.014-0.463,0.235-0.901,0.184C8.783,12.25,8.747,11.951,8.401,12.226z"/>
		</g>
		<g>
			<path fill="#FCA651" d="M39.303,11.452c0.075,0,0.315,0.569,0.36,1.116c0.021,0.267-0.16,0.599-0.146,0.947
				c0.012,0.292-0.1,0.608-0.093,0.935c0.007,0.302,0.303,0.613,0.305,0.93c0.002,0.311-0.035,0.627-0.037,0.938
				c-0.002,0.318-0.245,0.63-0.251,0.935c-0.007,0.328-0.127,0.636-0.14,0.928c-0.014,0.35-0.016,0.66-0.038,0.928
				c-0.044,0.543,0.105,0.709,0.031,0.709c0,0,0.324,0.27,0.882,0.294c0.25,0.011,0.541,0.182,0.875,0.196
				c0.272,0.012,0.58-0.248,0.896-0.234c0.281,0.011,0.575,0.076,0.885,0.089c0.286,0.011,0.589-0.173,0.894-0.162
				c0.289,0.011,0.583,0.073,0.885,0.084c0.292,0.01,0.576,0.339,0.875,0.35c0.293,0.01,0.6-0.326,0.897-0.316
				c0.296,0.009,0.594-0.007,0.89,0.002c0.299,0.009,0.598-0.016,0.893-0.008c0.301,0.008,0.591,0.33,0.884,0.338
				c0.302,0.007,0.603-0.131,0.892-0.125c0.305,0.006,0.603-0.109,0.888-0.105c0.31,0.004,0.603,0.4,0.883,0.403
				c0.321,0.002,0.622-0.157,0.896-0.158c0.338-0.002,0.633-0.166,0.883-0.175c0.535-0.02,0.965,0.057,0.965-0.003
				c0-0.079-0.314-0.389-0.418-0.886c-0.055-0.263,0.208-0.642,0.135-0.98c-0.062-0.284-0.17-0.582-0.241-0.899
				c-0.065-0.295-0.392-0.542-0.461-0.851c-0.068-0.302,0.093-0.66,0.024-0.961c-0.07-0.31-0.155-0.613-0.223-0.909
				c-0.073-0.319-0.224-0.607-0.29-0.892c-0.078-0.339-0.257-0.622-0.317-0.883c-0.128-0.551,0.285-0.719-0.144-0.886
				c-0.411-0.16-0.427-0.128-0.868-0.142c-0.439-0.014-0.448,0.266-0.887,0.252s-0.44,0.029-0.879,0.015
				c-0.439-0.014-0.427-0.415-0.866-0.428c-0.441-0.014-0.443,0.055-0.885,0.042c-0.44-0.014-0.444,0.112-0.885,0.098
				c-0.44-0.014-0.437-0.122-0.877-0.136c-0.442-0.014-0.44-0.082-0.882-0.096c-0.441-0.014-0.447,0.163-0.888,0.148
				c-0.441-0.014-0.442,0.03-0.883,0.016c-0.44-0.014-0.443,0.082-0.883,0.067c-0.442-0.014-0.431-0.381-0.873-0.395
				c-0.443-0.014-0.455,0.347-0.898,0.333c-0.444-0.014-0.467-0.016-0.902-0.109C39.708,11.71,39.748,11.467,39.303,11.452z"/>
		</g>
		<g>
			<path fill="#A67C52" d="M25.704,42.372c-0.014-0.258-0.224-0.344-0.239-0.688c-0.013-0.277,0.227-0.59,0.218-0.912
				c-0.009-0.287-0.219-0.586-0.222-0.899c-0.003-0.294,0.046-0.599,0.05-0.909c0.003-0.296-0.208-0.607-0.196-0.914
				c0.011-0.3,0.348-0.589,0.369-0.895c0.021-0.303,0.095-0.598,0.126-0.899c0.032-0.304-0.174-0.637-0.129-0.935
				c0.046-0.305,0.422-0.545,0.484-0.838c0.064-0.303-0.151-0.668-0.067-0.955c0.088-0.299,0.434-0.498,0.546-0.77
				c0.119-0.292,0.011-0.68,0.161-0.93c0.162-0.271,0.331-0.557,0.532-0.768c0.214-0.226,0.521-0.369,0.783-0.514
				c0.25-0.136,0.585-0.013,0.868-0.074c0.274-0.061,0.527-0.365,0.819-0.354c0.28,0.01,0.56,0.163,0.842,0.239
				c0.27,0.072,0.48,0.285,0.742,0.418c0.248,0.127,0.6,0.103,0.831,0.285c0.218,0.172,0.237,0.556,0.433,0.778
				c0.183,0.208,0.582,0.261,0.739,0.515c0.148,0.24,0.313,0.502,0.435,0.78c0.113,0.257-0.07,0.638,0.021,0.927
				c0.085,0.27,0.41,0.48,0.476,0.776c0.062,0.276,0.177,0.562,0.222,0.858c0.042,0.281-0.071,0.593-0.042,0.892
				c0.027,0.283-0.104,0.582-0.09,0.882c0.013,0.285,0.295,0.569,0.297,0.868c0.002,0.287-0.083,0.581-0.092,0.878
				c-0.008,0.288-0.096,0.578-0.114,0.876c-0.018,0.286,0.09,0.587,0.064,0.882c-0.025,0.289,0.033,0.594-0.001,0.893
				c-0.033,0.287-0.183,0.771-0.224,1.066c-0.411,0.129-0.496-0.213-0.927-0.221c-0.431-0.007-0.432,0.098-0.863,0.089
				c-0.432-0.007-0.432-0.009-0.864-0.016c-0.431-0.007-0.428-0.179-0.86-0.185c-0.431-0.008-0.432,0.07-0.863,0.063
				c-0.43-0.007-0.427-0.171-0.857-0.179c-0.433-0.006-0.437,0.254-0.87,0.248c-0.433-0.006-0.433,0.006-0.866-0.002
				c-0.435-0.006-0.445,0.026-0.878-0.014C26.08,42.685,26.119,42.5,25.704,42.372z"/>
		</g>
	</g>
</g>
</svg>
