<?xml version="1.0" encoding="utf-8"?>
<!-- Generator: Adobe Illustrator 16.0.0, SVG Export Plug-In . SVG Version: 6.00 Build 0)  -->
<!DOCTYPE svg PUBLIC "-//W3C//DTD SVG 1.1//EN" "http://www.w3.org/Graphics/SVG/1.1/DTD/svg11.dtd">
<svg version="1.1" id="レイヤー_1" xmlns="http://www.w3.org/2000/svg" xmlns:xlink="http://www.w3.org/1999/xlink" x="0px"
	 y="0px" width="474.5px" height="131px" viewBox="0 0 474.5 131" enable-background="new 0 0 474.5 131" xml:space="preserve">
<g>
	<g>
		<path fill="#333333" d="M21.010254-104.867188c1.665039-1.305176,2.970215-2.970215,3.735352-4.859863
			c0.899902-2.564941,1.304688-5.35498,1.125-8.550293h-0.945313l-5.040039,0.405273h-9.269531v-1.305176l0.540039-6.344727
			c6.119629,0,12.104492-0.180176,18.224609-0.540039c6.120117-0.180176,12.10498-0.584961,18.225098-0.944824l0.944824,7.424805
			l-13.949707,0.944824c-0.180176,3.330078-0.765137,6.524902-1.890137,9.495117
			c-1.080078,2.969727-2.970215,5.57959-5.35498,8.009766l-2.970215,2.025391L21.010254-104.867188z M13.225586-131.282227
			l0.540039-9.269531h0.944824l25.290039,1.259766v6.524902l-26.595215,2.609863L13.225586-131.282227z M43.870117-132.227051
			l-3.32959-6.839844l4.634766-1.484863l2.069824,7.244629l-3.375,1.305176V-132.227051z M45.580078-141.676758l4.814941-0.945313
			l1.125,6.705566l-3.374512,0.899414L45.580078-141.676758z"/>
		<path fill="#333333" d="M72.129883-113.822266l-0.584961-0.224609c-1.529785,0.584473-3.060059,0.944824-4.77002,1.169922
			c-1.709961,0.179688-3.600098,0.359863-5.35498,0.359863l-0.540039-6.075195
			c1.709961-0.224609,3.600098-0.404785,5.310059-0.989746c1.709961-0.540039,3.240234-1.125,4.77002-1.889648v-0.360352
			c2.475098-1.17041,4.589844-2.879883,6.47998-4.995117c1.935059-2.475098,3.464844-4.949707,4.77002-7.604492h0.404785
			l7.425293,4.769531v0.765625c-1.350098,1.889648-2.655273,3.599609-4.185059,5.30957
			c-1.530273,1.754883-3.240234,3.464844-4.950195,4.994629H80.5l-0.180176,4.54541v10.124512l-0.180176,2.475098H74.02002
			L72.129883-113.822266z"/>
		<path fill="#333333" d="M101.844727-103.51709l-0.630371-6.525391c2.52002-0.449219,5.040039-1.07959,7.379883-2.249512
			c2.205078-1.035156,4.365234-2.475098,6.390137-4.230469c2.475098-2.339844,4.185059-5.354492,5.040039-8.549805
			c0.765137-3.239746,1.169922-6.614746,1.169922-10.259766l-0.359863-4.410156l10.574707-0.179688l-0.314941,8.594727
			c-0.404785,4.140137-1.620117,8.100098-3.330078,11.835449c-1.93457,3.734863-4.589844,7.02002-7.964844,9.719727
			c-2.609863,1.97998-5.580078,3.509766-8.504883,4.499512c-2.969727,1.17041-6.209961,1.755371-9.495117,2.115234
			L101.844727-103.51709z"/>
		<path fill="#333333" d="M145.719238-101.627441l-1.350098-6.299805c3.824707-1.169922,7.424805-2.879883,10.709961-5.174805
			c3.239746-2.070313,6.47998-4.725098,9.314941-7.964844c1.935059-2.114746,3.419922-4.410156,4.409668-6.884766
			l-3.239746-0.585449h-9.540039l-10.484863,0.944824v-5.89502l0.180176-4.589844l4.769531-0.359375h10.665039
			c2.655273,0.179688,5.35498,0.359375,8.010254,0.944824c2.474609,0.584473,4.77002,1.709473,6.884766,3.419434
			c1.305176,1.755371,2.069824,3.64502,2.069824,5.94043c-0.359863,2.654785-1.304688,5.129395-3.05957,7.244629
			c-1.710449,2.070313-3.42041,4.185059-5.130371,6.300293c1.890137,1.304688,3.825195,2.655273,5.89502,3.779785
			c1.935059,1.169922,3.825195,2.29541,5.535156,3.64502l-2.475098,5.89502h-0.584961
			c-2.834961-0.945313-5.714844-2.070313-8.370117-3.239746c-2.879883-1.125488-5.534668-2.29541-8.369629-3.600098
			c-2.52002,1.709473-4.995117,3.014648-7.649902,4.18457c-2.655273,1.125-5.35498,2.070313-8.189941,2.655273V-101.627441z"/>
		<path fill="#333333" d="M207.728516-112.337402h-0.945313l-13.949707,3.780273l-1.709961-10.485352l13.544922-2.069824v-0.764648
			l-1.350098-3.825195h-1.304688l-12.780273,2.294922l-0.764648-10.484863l12.014648-0.765137v-0.764648l-1.529785-5.35498
			l10.304688-1.890137l1.530273,7.245117h2.069824l8.594727-0.765137l0.945313,6.884766l-9.720215,1.890137v1.125l0.945313,3.64502
			h1.529785l8.774902-1.529785l1.530273,6.660156l-9.720215,2.879395l-0.225098,0.765137l3.060059,12.015137l-6.299805,2.294434
			L207.728516-112.337402z"/>
		<path fill="#333333" d="M236.788086-121.066895c-0.990234-1.755371-1.754883-3.464844-2.520508-5.175293l6.884766-2.294922
			l2.880859,9.944824l-4.589844,2.475098C238.498047-117.827148,237.507813-119.356934,236.788086-121.066895z
			 M246.103516-123.586914c-0.945313-1.709961-1.710938-3.600098-2.294922-5.30957l7.064453-1.935547l2.654297,10.484863
			l-4.949219,1.935059C247.632813-120.12207,246.868164-121.832031,246.103516-123.586914z M246.6875-101.852051l-1.708984-4.950195
			c2.654297-1.125,5.128906-2.834961,7.423828-5.129395c2.294922-2.29541,4.005859-4.770508,5.130859-7.425293
			c1.169922-2.880371,1.93457-5.715332,2.115234-8.774902h0.583984l7.605469,1.709961v0.764648
			c-0.765625,3.419922-1.890625,6.660156-3.599609,9.720215c-1.710938,3.060059-4.005859,5.894531-6.884766,8.370117
			c-1.710938,1.349609-3.419922,2.699707-5.130859,3.644531c-1.708984,0.945313-3.644531,1.709961-5.535156,2.294922V-101.852051z"
			/>
		<path fill="#333333" d="M278.1875-100.502441l-1.349609-6.659668c3.644531-1.169922,7.244141-2.880371,10.484375-4.950195
			c3.240234-2.114746,6.121094-4.589844,9-7.649902c2.070313-2.294922,3.78125-4.769531,4.951172-7.424805
			c-1.935547-0.405273-3.826172-0.584961-5.941406-0.584961c-2.068359,0-4.183594,0-6.253906,0l-11.070313,0.944824v-10.484863
			l14.849609-0.359863c2.701172,0.180176,5.355469,0.359863,8.009766,0.764648
			c2.474609,0.585449,4.951172,1.530762,7.066406,3.060059v-0.584473l-2.65625-5.715332l4.769531-1.529785l1.890625,7.424805
			l-3.060547,1.169922v0.540039c0.945313,1.350098,1.53125,3.05957,1.710938,4.77002
			c-0.359375,2.879883-1.304688,5.355469-3.015625,7.424805c-1.753906,2.115234-3.464844,4.410156-5.173828,6.524902
			c1.708984,1.305176,3.644531,2.655273,5.535156,3.779785c1.888672,1.17041,3.824219,2.29541,5.894531,3.240234v0.404785
			l-2.474609,5.89502h-0.765625c-2.835938-0.944824-5.535156-2.069824-8.371094-3.239746
			c-2.878906-1.125-5.533203-2.294922-8.189453-3.600098c-2.474609,1.709961-4.949219,3.015137-7.650391,4.185059
			c-2.654297,1.125488-5.308594,2.070313-8.189453,2.834961V-100.502441z M311.9375-140.551758l4.769531-0.945313l1.125,6.885254
			l-3.419922,0.944824L311.9375-140.551758z"/>
		<path fill="#333333" d="M350.927734-106.802246v-0.359863c1.349609-1.709961,2.474609-3.64502,3.240234-5.714844
			c0.583984-1.935547,0.943359-4.005371,0.943359-6.300293c-0.179688-2.475098-1.304688-4.77002-3.419922-6.659668
			c-1.708984-1.530273-3.644531-2.475098-5.714844-2.880371c0,4.005371-0.404297,8.010254-0.945313,11.834961
			c-0.763672,4.005371-2.699219,7.425293-5.533203,10.305176c-2.115234,1.890137-4.771484,2.834961-7.650391,2.834961
			c-2.474609-0.180176-4.365234-1.350098-6.076172-3.240234c-1.529297-1.889648-2.474609-4.004883-3.058594-6.299805
			c-0.585938-2.069824-0.765625-4.544922-0.585938-7.064941c0.40625-2.25,1.169922-4.364746,2.115234-6.47998
			c0.945313-1.890137,2.294922-3.600098,4.005859-5.310059c2.294922-2.114746,4.769531-3.464844,7.603516-4.409668
			c2.880859-0.944824,5.941406-1.305176,9.179688-1.125c2.835938,0.180176,5.535156,0.944824,8.011719,2.069824
			c2.474609,1.350098,4.544922,3.060059,6.658203,5.35498c1.710938,2.115234,2.835938,4.185059,3.601563,6.47998
			c0.763672,2.475098,1.169922,4.950195,0.990234,7.830078c-0.226563,2.474609-0.765625,4.949707-1.755859,7.064941
			c-0.945313,2.294922-1.890625,4.365234-3.240234,6.47998l-0.539063,0.179688L350.927734-106.802246z M337.382813-115.352051
			c0.763672-2.115234,1.349609-4.410156,1.708984-6.705078c0.224609-2.069824,0.40625-4.364746,0.40625-6.839355h-0.585938
			c-2.654297,0.584473-4.949219,2.069336-6.839844,4.364746c-1.935547,2.474609-2.699219,5.354492-2.294922,8.774902
			c0.179688,1.709961,0.945313,3.05957,2.070313,4.409668l1.349609,0.359863l1.529297-0.764648
			C336.078125-112.697266,336.796875-114.046875,337.382813-115.352051z"/>
		<path fill="#333333" d="M380.382813-139.606934c-0.099609,2.249512-0.300781,4.249512-0.5,6.049805l1.599609-0.399902
			l0.599609-10.049805l4.349609,0.399902l0.351563,8.350098l3.599609-0.850098l1.400391,7.5l-4.75,0.199707l0.298828,7.200195
			l2.599609-0.950195l2.101563,7.550293l-4.400391,0.799805l0.599609,14.100098l-8.800781,0.849609l0.800781-13.649414
			l-4.550781,0.799805l-1.298828-4.600098l6.199219-2.350098l0.550781-9.449707l-2.25,0.100098
			c-0.900391,3.5-2.099609,6.149414-3.650391,7.849609l-5.150391-8.299805c3-1.200195,5-5.299805,5.951172-12.25
			L380.382813-139.606934z M406.332031-143.707031l0.400391,3.450195l6.75-1.150391l1.300781,7.150391l-7.351563,0.399414
			l0.351563,3.300293l7.798828-1.199707l1.300781,7.199707l-24.650391,1.300293l-0.900391-4.800293l8.050781-1.25l0.349609-4.100098
			l-6.199219,0.350098l-0.900391-4.800293l7.599609-1.299805l0.400391-5.149902L406.332031-143.707031z M416.232422-114.657227
			l-5.099609,0.25l1.048828,14.450195l-8.898438,0.899902l1.148438-15.049805l-11.699219,0.5l-0.900391-4.800293l13.099609-1.899902
			l0.25-3.25l5.300781,0.550293l0.150391,1.849609l4.349609-0.649902L416.232422-114.657227z M403.482422-106.157227
			l-6.550781,5.299805c-0.849609-2.899414-2.349609-5.849609-4.548828-8.749512l4.400391-3.450195
			C399.082031-111.506836,401.332031-109.207031,403.482422-106.157227z"/>
		<path fill="#333333" d="M433.283203-129.606934l1.849609-10.450195l3.400391,0.399902l0.548828,9.350098l0.701172-0.199707
			l1.449219-12.700195l3.150391,0.299805l1.150391,10.75l0.699219-0.200195l0.75-7.849609l3.199219,0.25l0.800781,8.350098
			c2.300781-3.200195,3.800781-7.399902,4.599609-12.600098l3.800781,1.200195
			c-0.050781,2.599609-0.300781,5.049805-0.701172,7.299805l6.851563-2l1.298828,7.100098l-2.400391,0.199707v3.800293
			c-0.148438,5.399902-0.898438,10.249512-2.199219,14.449707c1.5,1.600098,3.199219,2.900391,5.199219,3.799805l-4.548828,8.950195
			c-1.599609-1.399902-3.050781-3-4.25-4.75c-1.300781,2.100098-2.650391,3.799805-4.150391,5l-4.400391-8.399902
			c2-0.800293,3.650391-1.949707,4.951172-3.449707c-1.451172-3.800293-2.351563-8.100098-2.650391-12.900391l-1.849609-2.149902
			l-4.900391,0.450195l0.150391-1.649902l-12.300781,1.349609c-0.400391,0.900391-0.800781,1.75-1.199219,2.5l1.099609,22.900391
			l-7.800781,0.799805l1.400391-16.600098c-0.5,0.449707-1,0.850098-1.5,1.200195l-4.5-7.100098
			c3.050781-0.950195,6.5-3.950195,10.400391-9L433.283203-129.606934z M434.732422-141.407227
			c-2.199219,5.150391-5.050781,8.800293-8.5,10.900391l-4.150391-6.550293c2.800781-0.75,6-3.100098,9.599609-7.049805
			L434.732422-141.407227z M449.082031-111.307129l-4.25,0.200195l0.201172,2.399902l3.949219-1.350098l1.900391,6.850098l-15.75,3
			l-1.300781-4.650391l4.599609-1.549805l0.451172-4.450195l-2.650391,0.100586l-0.800781-4.100586l3.951172-0.799805l0.298828-2.75
			l-4.898438,0.300293l-0.75-4.100098l14.398438-3l1.150391,6.200195l-5.349609,0.349609l0.150391,1.950195l3.650391-0.75
			L449.082031-111.307129z M458.431641-117.907227c0.701172-2.399902,1.101563-5.149902,1.300781-8.149902
			c0.050781-1.199707,0.099609-2.549805,0.150391-3.949707l-2.75,0.25c-0.349609,0.949707-0.701172,1.849609-1.099609,2.699707
			C456.431641-123.557129,457.232422-120.506836,458.431641-117.907227z"/>
	</g>
</g>
<g>
	<g>
		<path fill="#FF9933" d="M88.56543-30.650391c-4.218262,0-7.650391-3.431641-7.650391-7.650391
			s3.432129-7.650391,7.650391-7.650391s7.650391,3.431641,7.650391,7.650391S92.783691-30.650391,88.56543-30.650391z"/>
		<path fill="#333333" d="M88.56543-44.451172c3.391113,0,6.150391,2.759766,6.150391,6.150391
			c0,3.392578-2.759277,6.150391-6.150391,6.150391s-6.150391-2.757813-6.150391-6.150391
			C82.415039-41.691406,85.174316-44.451172,88.56543-44.451172 M88.56543-47.451172
			c-5.053711,0-9.150391,4.097656-9.150391,9.150391c0,5.054688,4.09668,9.150391,9.150391,9.150391
			s9.150391-4.095703,9.150391-9.150391C97.71582-43.353516,93.619141-47.451172,88.56543-47.451172L88.56543-47.451172z"/>
	</g>
	<g>
		<path fill="#FFE556" d="M138.89209-30.650391c-4.218262,0-7.650391-3.431641-7.650391-7.650391
			s3.432129-7.650391,7.650391-7.650391s7.650391,3.431641,7.650391,7.650391S143.110352-30.650391,138.89209-30.650391z"/>
		<path fill="#333333" d="M138.89209-44.451172c3.391113,0,6.150391,2.759766,6.150391,6.150391
			c0,3.392578-2.759277,6.150391-6.150391,6.150391s-6.150391-2.757813-6.150391-6.150391
			C132.741699-41.691406,135.500977-44.451172,138.89209-44.451172 M138.89209-47.451172
			c-5.053711,0-9.150391,4.097656-9.150391,9.150391c0,5.054688,4.09668,9.150391,9.150391,9.150391
			s9.150391-4.095703,9.150391-9.150391C148.04248-43.353516,143.945801-47.451172,138.89209-47.451172L138.89209-47.451172z"/>
	</g>
	<g>
		<path fill="#ADCC33" d="M189.21875-30.650391c-4.218262,0-7.650391-3.431641-7.650391-7.650391
			s3.432129-7.650391,7.650391-7.650391s7.650391,3.431641,7.650391,7.650391S193.437012-30.650391,189.21875-30.650391z"/>
		<path fill="#333333" d="M189.21875-44.451172c3.391113,0,6.150391,2.759766,6.150391,6.150391
			c0,3.392578-2.759277,6.150391-6.150391,6.150391s-6.150391-2.757813-6.150391-6.150391
			C183.068359-41.691406,185.827637-44.451172,189.21875-44.451172 M189.21875-47.451172
			c-5.053711,0-9.150391,4.097656-9.150391,9.150391c0,5.054688,4.09668,9.150391,9.150391,9.150391
			s9.150391-4.095703,9.150391-9.150391C198.369141-43.353516,194.272461-47.451172,189.21875-47.451172L189.21875-47.451172z"/>
	</g>
	<g>
		<path fill="#339900" d="M239.544922-30.650391c-4.217773,0-7.650391-3.431641-7.650391-7.650391
			s3.432617-7.650391,7.650391-7.650391c4.21875,0,7.650391,3.431641,7.650391,7.650391S243.763672-30.650391,239.544922-30.650391z
			"/>
		<path fill="#333333" d="M239.544922-44.451172c3.391602,0,6.150391,2.759766,6.150391,6.150391
			c0,3.392578-2.758789,6.150391-6.150391,6.150391c-3.390625,0-6.150391-2.757813-6.150391-6.150391
			C233.394531-41.691406,236.154297-44.451172,239.544922-44.451172 M239.544922-47.451172
			c-5.052734,0-9.150391,4.097656-9.150391,9.150391c0,5.054688,4.097656,9.150391,9.150391,9.150391
			c5.054688,0,9.150391-4.095703,9.150391-9.150391C248.695313-43.353516,244.599609-47.451172,239.544922-47.451172
			L239.544922-47.451172z"/>
	</g>
	<g>
		<path fill="#796CAF" d="M289.873047-30.650391c-4.21875,0-7.650391-3.431641-7.650391-7.650391
			s3.431641-7.650391,7.650391-7.650391c4.216797,0,7.650391,3.431641,7.650391,7.650391S294.089844-30.650391,289.873047-30.650391
			z"/>
		<path fill="#333333" d="M289.873047-44.451172c3.390625,0,6.150391,2.759766,6.150391,6.150391
			c0,3.392578-2.759766,6.150391-6.150391,6.150391c-3.392578,0-6.150391-2.757813-6.150391-6.150391
			C283.722656-41.691406,286.480469-44.451172,289.873047-44.451172 M289.873047-47.451172
			c-5.054688,0-9.150391,4.097656-9.150391,9.150391c0,5.054688,4.095703,9.150391,9.150391,9.150391
			c5.052734,0,9.150391-4.095703,9.150391-9.150391C299.023438-43.353516,294.925781-47.451172,289.873047-47.451172
			L289.873047-47.451172z"/>
	</g>
	<g>
		<path fill="#4F9FE0" d="M340.199219-30.650391c-4.21875,0-7.650391-3.431641-7.650391-7.650391
			s3.431641-7.650391,7.650391-7.650391s7.650391,3.431641,7.650391,7.650391S344.417969-30.650391,340.199219-30.650391z"/>
		<path fill="#333333" d="M340.199219-44.451172c3.390625,0,6.150391,2.759766,6.150391,6.150391
			c0,3.392578-2.759766,6.150391-6.150391,6.150391s-6.150391-2.757813-6.150391-6.150391
			C334.048828-41.691406,336.808594-44.451172,340.199219-44.451172 M340.199219-47.451172
			c-5.052734,0-9.150391,4.097656-9.150391,9.150391c0,5.054688,4.097656,9.150391,9.150391,9.150391
			s9.150391-4.095703,9.150391-9.150391C349.349609-43.353516,345.251953-47.451172,340.199219-47.451172L340.199219-47.451172z"/>
	</g>
	<g>
		<path fill="#FF6F61" d="M390.525391-30.650391c-4.21875,0-7.650391-3.431641-7.650391-7.650391
			s3.431641-7.650391,7.650391-7.650391s7.650391,3.431641,7.650391,7.650391S394.744141-30.650391,390.525391-30.650391z"/>
		<path fill="#333333" d="M390.525391-44.451172c3.392578,0,6.150391,2.759766,6.150391,6.150391
			c0,3.392578-2.757813,6.150391-6.150391,6.150391c-3.390625,0-6.150391-2.757813-6.150391-6.150391
			C384.375-41.691406,387.134766-44.451172,390.525391-44.451172 M390.525391-47.451172
			c-5.052734,0-9.150391,4.097656-9.150391,9.150391c0,5.054688,4.097656,9.150391,9.150391,9.150391
			c5.054688,0,9.150391-4.095703,9.150391-9.150391C399.675781-43.353516,395.580078-47.451172,390.525391-47.451172
			L390.525391-47.451172z"/>
	</g>
</g>
<g>
	<g>
		<path fill="#333333" d="M19.595215,47.658203c1.665039-1.305664,2.970215-2.970703,3.735352-4.860352
			c0.899902-2.56543,1.304688-5.355469,1.125-8.550781h-0.945313l-5.040039,0.40625H9.200684v-1.305664l0.540039-6.344727
			c6.119629,0,12.104492-0.180664,18.224609-0.540039c6.120117-0.179688,12.10498-0.584961,18.225098-0.945313l0.944824,7.425781
			l-13.949707,0.944336c-0.180176,3.330078-0.765137,6.524414-1.890137,9.495117
			c-1.080078,2.969727-2.970215,5.580078-5.35498,8.009766l-2.970215,2.025391L19.595215,47.658203z M11.810547,21.242188
			l0.540039-9.269531h0.944824l25.290039,1.259766v6.525391l-26.595215,2.610352L11.810547,21.242188z M42.455078,20.297852
			l-3.32959-6.839844l4.634766-1.485352l2.069824,7.245117l-3.375,1.305664V20.297852z M44.165039,10.847656L48.97998,9.90332
			l1.125,6.705078l-3.374512,0.899414L44.165039,10.847656z"/>
		<path fill="#333333" d="M70.714844,38.703125l-0.584961-0.225586c-1.529785,0.584961-3.060059,0.945313-4.77002,1.169922
			c-1.709961,0.180664-3.600098,0.360352-5.35498,0.360352l-0.540039-6.075195
			c1.709961-0.224609,3.600098-0.405273,5.310059-0.989258c1.709961-0.540039,3.240234-1.125,4.77002-1.890625v-0.359375
			c2.475098-1.170898,4.589844-2.880859,6.47998-4.996094c1.935059-2.474609,3.464844-4.949219,4.77002-7.604492h0.404785
			L88.625,22.863281v0.764648c-1.350098,1.889648-2.655273,3.599609-4.185059,5.30957
			c-1.530273,1.755859-3.240234,3.46582-4.950195,4.995117h-0.404785l-0.180176,4.544922v10.125l-0.180176,2.475586H72.60498
			L70.714844,38.703125z"/>
		<path fill="#333333" d="M100.429688,49.007813l-0.630371-6.525391c2.52002-0.449219,5.040039-1.079102,7.379883-2.25
			c2.205078-1.035156,4.365234-2.474609,6.390137-4.229492c2.475098-2.34082,4.185059-5.355469,5.040039-8.549805
			c0.765137-3.240234,1.169922-6.615234,1.169922-10.259766l-0.359863-4.410156l10.574707-0.179688l-0.314941,8.59375
			c-0.404785,4.140625-1.620117,8.100586-3.330078,11.835938c-1.93457,3.734375-4.589844,7.019531-7.964844,9.719727
			c-2.609863,1.979492-5.580078,3.509766-8.504883,4.5c-2.969727,1.169922-6.209961,1.754883-9.495117,2.115234
			L100.429688,49.007813z"/>
		<path fill="#333333" d="M144.304199,50.897461l-1.350098-6.299805c3.824707-1.169922,7.424805-2.879883,10.709961-5.174805
			c3.239746-2.070313,6.47998-4.725586,9.314941-7.964844c1.935059-2.115234,3.419922-4.410156,4.409668-6.884766
			l-3.239746-0.584961h-9.540039l-10.484863,0.944336v-5.894531l0.180176-4.59082l4.769531-0.359375h10.665039
			c2.655273,0.179688,5.35498,0.359375,8.010254,0.945313c2.474609,0.584961,4.77002,1.708984,6.884766,3.419922
			c1.305176,1.754883,2.069824,3.644531,2.069824,5.939453c-0.359863,2.655273-1.304688,5.129883-3.05957,7.245117
			c-1.710449,2.070313-3.42041,4.18457-5.130371,6.299805c1.890137,1.304688,3.825195,2.655273,5.89502,3.780273
			c1.935059,1.169922,3.825195,2.294922,5.535156,3.645508l-2.475098,5.894531h-0.584961
			c-2.834961-0.945313-5.714844-2.070313-8.370117-3.240234c-2.879883-1.125-5.534668-2.294922-8.369629-3.599609
			c-2.52002,1.708984-4.995117,3.014648-7.649902,4.18457c-2.655273,1.125-5.35498,2.070313-8.189941,2.655273V50.897461z"/>
		<path fill="#333333" d="M206.313477,40.1875h-0.945313l-13.949707,3.780273l-1.709961-10.485352l13.544922-2.070313v-0.764648
			l-1.350098-3.825195h-1.304688l-12.780273,2.295898l-0.764648-10.485352l12.014648-0.764648v-0.764648l-1.529785-5.355469
			l10.304688-1.890625l1.530273,7.246094h2.069824l8.594727-0.765625l0.945313,6.884766l-9.720215,1.890625v1.125l0.945313,3.644531
			h1.529785l8.774902-1.529297l1.530273,6.65918l-9.720215,2.879883l-0.225098,0.765625l3.060059,12.014648l-6.299805,2.293945
			L206.313477,40.1875z"/>
		<path fill="#333333" d="M235.373047,31.458008c-0.990234-1.754883-1.754883-3.464844-2.52002-5.174805l6.884766-2.294922
			l2.880371,9.944336l-4.590332,2.475586C237.083008,34.697266,236.092773,33.167969,235.373047,31.458008z M244.687988,28.9375
			c-0.944824-1.709961-1.709961-3.599609-2.294922-5.30957l7.064941-1.93457l2.655273,10.484375l-4.950195,1.935547
			C246.217773,32.40332,245.453125,30.693359,244.687988,28.9375z M245.272949,50.672852l-1.709961-4.950195
			c2.654785-1.125,5.129883-2.834961,7.425293-5.129883c2.294922-2.294922,4.003906-4.770508,5.128906-7.424805
			c1.170898-2.879883,1.935547-5.714844,2.115234-8.775391h0.585938l7.604492,1.710938v0.764648
			c-0.764648,3.419922-1.889648,6.65918-3.600586,9.719727c-1.708984,3.05957-4.003906,5.894531-6.884766,8.370117
			c-1.708984,1.349609-3.419922,2.700195-5.128906,3.644531c-1.710938,0.945313-3.645508,1.709961-5.535645,2.294922V50.672852z"/>
		<path fill="#333333" d="M276.772461,52.022461l-1.350586-6.65918c3.645508-1.170898,7.246094-2.880859,10.486328-4.951172
			c3.239258-2.114258,6.119141-4.589844,8.999023-7.649414c2.070313-2.294922,3.780273-4.769531,4.950195-7.424805
			c-1.935547-0.405273-3.825195-0.584961-5.939453-0.584961c-2.070313,0-4.185547,0-6.255859,0l-11.069336,0.944336V15.212891
			l14.849609-0.359375c2.700195,0.179688,5.354492,0.359375,8.010742,0.764648
			c2.474609,0.584961,4.949219,1.530273,7.064453,3.05957v-0.584961l-2.655273-5.714844l4.770508-1.530273l1.889648,7.425781
			l-3.05957,1.169922v0.539063c0.944336,1.350586,1.529297,3.060547,1.708984,4.770508
			c-0.359375,2.879883-1.304688,5.355469-3.014648,7.424805c-1.754883,2.115234-3.464844,4.410156-5.174805,6.525391
			c1.709961,1.304688,3.644531,2.654297,5.535156,3.779297c1.889648,1.169922,3.824219,2.294922,5.894531,3.240234v0.404297
			l-2.474609,5.895508h-0.765625c-2.833984-0.944336-5.535156-2.069336-8.369141-3.239258
			c-2.880859-1.125-5.535156-2.294922-8.19043-3.600586c-2.474609,1.709961-4.950195,3.014648-7.649414,4.185547
			c-2.655273,1.125-5.310547,2.069336-8.19043,2.834961V52.022461z M310.522461,11.972656l4.770508-0.945313l1.125,6.885742
			l-3.420898,0.944336L310.522461,11.972656z"/>
		<path fill="#333333" d="M349.511719,45.722656v-0.359375c1.349609-1.710938,2.474609-3.645508,3.240234-5.71582
			c0.584961-1.93457,0.945313-4.004883,0.945313-6.299805c-0.179688-2.474609-1.304688-4.769531-3.419922-6.660156
			c-1.710938-1.529297-3.645508-2.474609-5.714844-2.879883c0,4.004883-0.40625,8.010742-0.945313,11.834961
			c-0.765625,4.004883-2.700195,7.425781-5.535156,10.304688c-2.115234,1.890625-4.769531,2.835938-7.650391,2.835938
			c-2.474609-0.180664-4.365234-1.350586-6.074219-3.240234c-1.530273-1.890625-2.475586-4.004883-3.060547-6.300781
			c-0.584961-2.069336-0.764648-4.544922-0.584961-7.064453c0.405273-2.25,1.169922-4.365234,2.115234-6.480469
			c0.944336-1.889648,2.294922-3.599609,4.004883-5.30957c2.294922-2.114258,4.769531-3.464844,7.605469-4.410156
			c2.878906-0.944336,5.939453-1.304688,9.179688-1.124023c2.834961,0.179688,5.535156,0.944336,8.009766,2.069336
			c2.474609,1.350586,4.544922,3.05957,6.660156,5.354492c1.708984,2.115234,2.833984,4.185547,3.599609,6.480469
			c0.765625,2.474609,1.169922,4.950195,0.990234,7.830078c-0.224609,2.474609-0.765625,4.950195-1.755859,7.064453
			c-0.944336,2.294922-1.888672,4.365234-3.239258,6.480469l-0.540039,0.179688L349.511719,45.722656z M335.966797,37.172852
			c0.765625-2.115234,1.349609-4.410156,1.709961-6.705078c0.225586-2.070313,0.405273-4.364258,0.405273-6.839844h-0.584961
			c-2.655273,0.584961-4.950195,2.069336-6.839844,4.365234c-1.93457,2.474609-2.700195,5.354492-2.295898,8.774414
			c0.180664,1.709961,0.945313,3.060547,2.070313,4.410156l1.350586,0.360352l1.530273-0.764648
			C334.662109,39.828125,335.381836,38.477539,335.966797,37.172852z"/>
		<path fill="#333333" d="M387.216797,10.368164c-0.800781,4.950195-1.849609,9.299805-3.25,13.049805l1.049805,19.450195
			c3.399414-1.100586,6.25-2.950195,8.450195-5.450195l-6.5,0.25l-0.950195-5l11.299805-1.299805l0.25-3.75l5.400391,0.549805
			l0.150391,2.549805l10.25-1.200195l1.25,7.150391l-8.900391,0.299805c2.5,2.950195,5.75,4.950195,9.849609,6l-4.699219,7.150391
			c-2.75-1.799805-5.050781-4.049805-6.951172-6.75l0.600586,9.049805l-8.700195,0.849609l0.75-10.599609
			c-2,2.849609-4.5,5.549805-7.549805,8.049805l-3.899414-5.5l0.399414,7.400391l-8.899414,0.899414l1.449219-19.299805
			c-1.199219,1.5-2.549805,2.75-3.949219,3.850586l-4.650391-10.75c6.099609-3.400391,10.299805-9.700195,12.5-18.900391
			L387.216797,10.368164z M413.867188,27.318359l-8.600586,1l0.100586-1.400391l-9.600586,0.25l0.100586,1l-8.600586,0.900391
			l2.100586-17.950195l22.199219-1.700195L413.867188,27.318359z M405.916016,20.517578l0.300781-3.649414l-11.5-0.549805
			l0.599609,6L405.916016,20.517578z"/>
		<path fill="#333333" d="M445.966797,8.217773l0.75,2.850586l17.099609-2.150391l1.349609,7.900391l-8.399414,0.5
			l7.299805,8.299805l-42.099609,3.5l9.150391-10.350586l-10.050781,0.600586l-0.799805-4.900391l17.950195-2.299805
			l1.349609-4.400391L445.966797,8.217773z M432.166016,29.667969l0.050781,0.349609l26.449219-3.199219l2.650391,25.049805
			l-10.049805,0.799805l0.200195-4.400391l-17.300781,1.550781l0.25,2.649414l-10.599609,1.100586l2.5-24.450195
			L432.166016,29.667969z M452.166016,34.667969l0.050781-0.849609l-19.550781,0.699219l0.350586,3.550781L452.166016,34.667969z
			 M451.766602,42.217773l0.100586-1.5l-18.400391,1.799805l0.25,2.850586L451.766602,42.217773z M436.316406,23.167969l15.75-3
			l-1-2.549805l-12.699219,0.75L436.316406,23.167969z"/>
	</g>
</g>
<g>
	<g>
		<path fill="#FF9933" d="M87.150391,121.875c-4.218262,0-7.650391-3.431641-7.650391-7.650391s3.432129-7.650391,7.650391-7.650391
			s7.650391,3.431641,7.650391,7.650391S91.368652,121.875,87.150391,121.875z"/>
		<path fill="#333333" d="M87.150391,108.074219c3.391113,0,6.150391,2.758789,6.150391,6.150391
			S90.541504,120.375,87.150391,120.375S81,117.616211,81,114.224609S83.759277,108.074219,87.150391,108.074219
			 M87.150391,105.074219c-5.053711,0-9.150391,4.09668-9.150391,9.150391s4.09668,9.150391,9.150391,9.150391
			s9.150391-4.09668,9.150391-9.150391S92.204102,105.074219,87.150391,105.074219L87.150391,105.074219z"/>
	</g>
	<g>
		<path fill="#FFE556" d="M137.477051,121.875c-4.218262,0-7.650391-3.431641-7.650391-7.650391
			s3.432129-7.650391,7.650391-7.650391s7.650391,3.431641,7.650391,7.650391S141.695313,121.875,137.477051,121.875z"/>
		<path fill="#333333" d="M137.477051,108.074219c3.391113,0,6.150391,2.758789,6.150391,6.150391
			s-2.759277,6.150391-6.150391,6.150391s-6.150391-2.758789-6.150391-6.150391S134.085938,108.074219,137.477051,108.074219
			 M137.477051,105.074219c-5.053711,0-9.150391,4.09668-9.150391,9.150391s4.09668,9.150391,9.150391,9.150391
			s9.150391-4.09668,9.150391-9.150391S142.530762,105.074219,137.477051,105.074219L137.477051,105.074219z"/>
	</g>
	<g>
		<path fill="#ADCC33" d="M187.803711,121.875c-4.218262,0-7.650391-3.431641-7.650391-7.650391
			s3.432129-7.650391,7.650391-7.650391s7.650391,3.431641,7.650391,7.650391S192.021973,121.875,187.803711,121.875z"/>
		<path fill="#333333" d="M187.803711,108.074219c3.391113,0,6.150391,2.758789,6.150391,6.150391
			s-2.759277,6.150391-6.150391,6.150391s-6.150391-2.758789-6.150391-6.150391S184.412598,108.074219,187.803711,108.074219
			 M187.803711,105.074219c-5.053711,0-9.150391,4.09668-9.150391,9.150391S182.75,123.375,187.803711,123.375
			s9.150391-4.09668,9.150391-9.150391S192.857422,105.074219,187.803711,105.074219L187.803711,105.074219z"/>
	</g>
	<g>
		<path fill="#339900" d="M238.130371,121.875c-4.218262,0-7.650391-3.431641-7.650391-7.650391
			s3.432129-7.650391,7.650391-7.650391s7.650391,3.431641,7.650391,7.650391S242.348633,121.875,238.130371,121.875z"/>
		<path fill="#333333" d="M238.130371,108.074219c3.391113,0,6.150391,2.758789,6.150391,6.150391
			s-2.759277,6.150391-6.150391,6.150391s-6.150391-2.758789-6.150391-6.150391S234.739258,108.074219,238.130371,108.074219
			 M238.130371,105.074219c-5.053223,0-9.150391,4.09668-9.150391,9.150391s4.097168,9.150391,9.150391,9.150391
			c5.053711,0,9.150391-4.09668,9.150391-9.150391S243.184082,105.074219,238.130371,105.074219L238.130371,105.074219z"/>
	</g>
	<g>
		<path fill="#796CAF" d="M288.457031,121.875c-4.21875,0-7.650391-3.431641-7.650391-7.650391s3.431641-7.650391,7.650391-7.650391
			s7.650391,3.431641,7.650391,7.650391S292.675781,121.875,288.457031,121.875z"/>
		<path fill="#333333" d="M288.457031,108.074219c3.391602,0,6.150391,2.758789,6.150391,6.150391
			s-2.758789,6.150391-6.150391,6.150391s-6.150391-2.758789-6.150391-6.150391S285.06543,108.074219,288.457031,108.074219
			 M288.457031,105.074219c-5.053711,0-9.150391,4.09668-9.150391,9.150391s4.09668,9.150391,9.150391,9.150391
			s9.150391-4.09668,9.150391-9.150391S293.510742,105.074219,288.457031,105.074219L288.457031,105.074219z"/>
	</g>
	<g>
		<path fill="#4F9FE0" d="M338.78418,121.875c-4.21875,0-7.650391-3.431641-7.650391-7.650391s3.431641-7.650391,7.650391-7.650391
			c4.217773,0,7.649414,3.431641,7.649414,7.650391S343.001953,121.875,338.78418,121.875z"/>
		<path fill="#333333" d="M338.78418,108.074219c3.390625,0,6.149414,2.758789,6.149414,6.150391
			s-2.758789,6.150391-6.149414,6.150391c-3.391602,0-6.150391-2.758789-6.150391-6.150391
			S335.392578,108.074219,338.78418,108.074219 M338.78418,105.074219c-5.053711,0-9.150391,4.09668-9.150391,9.150391
			s4.09668,9.150391,9.150391,9.150391s9.149414-4.09668,9.149414-9.150391S343.837891,105.074219,338.78418,105.074219
			L338.78418,105.074219z"/>
	</g>
	<g>
		<path fill="#FF6F61" d="M389.110352,121.875c-4.21875,0-7.650391-3.431641-7.650391-7.650391s3.431641-7.650391,7.650391-7.650391
			s7.650391,3.431641,7.650391,7.650391S393.329102,121.875,389.110352,121.875z"/>
		<path fill="#333333" d="M389.110352,108.074219c3.391602,0,6.150391,2.758789,6.150391,6.150391
			s-2.758789,6.150391-6.150391,6.150391s-6.150391-2.758789-6.150391-6.150391S385.71875,108.074219,389.110352,108.074219
			 M389.110352,105.074219c-5.053711,0-9.150391,4.09668-9.150391,9.150391s4.09668,9.150391,9.150391,9.150391
			s9.150391-4.09668,9.150391-9.150391S394.164063,105.074219,389.110352,105.074219L389.110352,105.074219z"/>
	</g>
</g>
</svg>
