<?xml version="1.0" encoding="utf-8"?>
<!-- Generator: Adobe Illustrator 16.0.0, SVG Export Plug-In . SVG Version: 6.00 Build 0)  -->
<!DOCTYPE svg PUBLIC "-//W3C//DTD SVG 1.1//EN" "http://www.w3.org/Graphics/SVG/1.1/DTD/svg11.dtd">
<svg version="1.1" id="レイヤー_1" xmlns="http://www.w3.org/2000/svg" xmlns:xlink="http://www.w3.org/1999/xlink" x="0px"
	 y="0px" width="1053px" height="78px" viewBox="0 0 1053 78" enable-background="new 0 0 1053 78" xml:space="preserve">
<g>
	<g>
		<path fill="#333333" d="M503.450195-114.079102l-6.160156,0.839844l0.040039-0.47998l-9.839844,0.640137
			c-0.080078,0.439941-0.160156,0.839844-0.240234,1.199707l18.040039-1.919922l0.799805,4.680176l-5.959961,0.359863
			c2.080078,0.879883,4.680664,1.680176,7.719727,2.359863l-3.319336,5.919922
			c-1.799805-0.799805-3.44043-1.719727-4.920898-2.759766c-0.039063,0.439941-0.039063,0.759766-0.039063,1
			c0,4.640137-2.720703,7.199707-8.080078,7.640137l-2.080078-5.800293c3.519531,0,5.320313-0.839844,5.439453-2.439941
			l-5.119141,0.120117c-1.680664,4.640137-5.080078,7.319824-10.200195,8.040039l-1.760742-6.120117
			c0.560547,0.040039,1.160156,0.080078,1.720703,0.080078c2.160156-0.080078,3.839844-0.720215,5.119141-1.879883
			l-3.039063,0.07959l-0.080078-0.599609c-2.080078,1.47998-4.599609,2.52002-7.599609,3.07959l-2.720703-5.639648
			c3.160156-0.240234,5.759766-0.879883,7.759766-1.879883l-6.199219,0.359863l-0.600586-3.120117l11.160156-1.160156
			c0.240234-0.439941,0.44043-0.879883,0.600586-1.359863l-2.121094,0.160156v0.439941l-5.958984,0.839844l1.399414-11.719727
			l24.399414-1.600098L503.450195-114.079102z M507.129883-126.039551l-9.280273,0.400391l0.080078,0.639648l-6.119141,0.640137
			l0.199219-1.040039l-5.039063,0.240234l0.119141,0.959961l-6.160156,0.600098l0.240234-1.320313l-9.040039,0.399902
			l-0.520508-3.199707l10.28125-0.919922l0.399414-2.160156l3.959961,0.399902l0.200195,1.359863l6.399414-0.599609
			l0.320313-1.47998l3.919922,0.359863l0.120117,0.719727l9.120117-0.799805L507.129883-126.039551z M497.849609-120.559082
			v-0.120117l-16.479492,0.080078l0.080078,1.679688L497.849609-120.559082z M497.570313-116.959473l0.039063-0.439941
			l-16.039063,0.800293l0.080078,1.399902L497.570313-116.959473z M484.290039-105.719238l2.44043-0.240234
			c0.240234-0.639648,0.399414-1.319824,0.519531-2.080078l-1.480469,0.080078
			C485.330078-107.119141,484.849609-106.359375,484.290039-105.719238z M490.769531-107.559082
			c-0.039063,0.47998-0.080078,0.879883-0.160156,1.239746l4.720703-0.399902
			c-0.560547-0.52002-1.080078-1.080078-1.560547-1.680176l-5.839844,0.320313L490.769531-107.559082z"/>
		<path fill="#333333" d="M524.450195-128.399414c-0.360352,1.080078-0.719727,2.080078-1.120117,3l5.320313-0.560059
			c-0.160156-0.959961-0.360352-1.879883-0.600586-2.759766l4.240234-1.720215
			c0.959961,1.200195,1.719727,2.47998,2.280273,3.840332l9-1l0.839844,4.679688l-10.400391,0.399902l0.080078,0.720215
			l8.800781-0.720215l0.55957,3.320313l-9.080078,0.239746l0.080078,0.959961l8.479492-0.679688l0.560547,3.319824
			l-8.759766,0.200195l0.119141,1.080078l9.880859-1.040039l0.799805,4.679688l-22.55957,0.840332l0.079102,0.959961
			L516.25-108.359375l0.720703-8.439941c-0.84082,0.720215-1.680664,1.359863-2.560547,1.919922l-2.720703-7.199707
			c3.600586-1.040039,6.720703-4,9.360352-8.960449L524.450195-128.399414z M546.25-104.279297l-8.560547,0.279785
			c2.880859,1.280273,6.041016,2.280273,9.520508,3.040039l-3.639648,6.240234
			c-3.960938-1.640137-7.480469-3.760254-10.599609-6.47998l0.55957,6.199707l-7.200195,0.320313l0.759766-7.560059
			c-3.119141,3.839844-7,6.319824-11.599609,7.560059l-3-6.320313c3.439453-0.239746,6.400391-1.07959,8.959961-2.439941
			l-7.760742,0.240234l-0.55957-3.720215l14.520508-1.319824l0.119141-1.280273l4.480469,0.44043l0.040039,0.439941
			l13.040039-1.200195L546.25-104.279297z M529.209961-122.359375l-7.200195,0.240234l0.080078,1.279785l7-0.560059
			L529.209961-122.359375z M528.810547-118.799316L522.25-118.63916l0.120117,1.599609l6.319336-0.519531L528.810547-118.799316z
			 M528.410156-114.999512l-5.879883,0.120117l0.15918,2.120117l5.560547-0.600098L528.410156-114.999512z"/>
		<path fill="#333333" d="M586.609375-125.319336l-11.958984,0.560059l0.119141,1l8.560547-0.720215l2.080078,12.200195
			l-6.879883,0.799805l0.079102-0.719727l-10.199219,0.359863l0.439453,0.160156
			c-0.119141,0.639648-0.240234,1.199707-0.359375,1.759766l17.879883-1.759766l0.879883,5.399902l-8.359375,0.439941
			c-0.560547,1.200195-1.28125,2.319824-2.160156,3.359863c3.359375,0.640137,6.519531,1.400391,9.479492,2.240234
			l-2.919922,5.959961c-3.919922-1.720215-7.839844-3.200195-11.680664-4.399902
			c-4.239258,2.159668-10.039063,3.560059-17.359375,4.159668l-1.560547-5.839844
			c1.640625,0.080078,3.28125,0.160156,4.960938,0.200195c2.479492,0,4.679688-0.160156,6.679688-0.52002
			c-2.480469-0.600098-4.959961-1.120117-7.359375-1.52002c1.039063-0.560059,2.119141-1.47998,3.199219-2.760254L552.25-104.559082
			l-0.599609-3.680176l11.719727-1.160156c0.399414-0.719727,0.839844-1.47998,1.319336-2.319824l-4.639648,0.160156
			l0.080078,0.839844L553.25-110.479492l1.679688-11.639648l8-0.680176l0.120117-1.439941l-10.519531,0.47998l-0.600586-3.600098
			l33.759766-3.47998L586.609375-125.319336z M562.290039-115.15918l0.319336-3.760254l-3.119141,0.040039l0.320313,4
			L562.290039-115.15918z M573.890625-105.599121l-6.800781,0.319824c-0.240234,0.47998-0.439453,0.879883-0.679688,1.200195
			c1.719727,0.239746,3.400391,0.439941,5.080078,0.679688C572.450195-104.039551,573.25-104.799316,573.890625-105.599121z
			 M570.890625-124.599121l-4.160156,0.199707l0.160156,1.280273l3.919922-0.320313L570.890625-124.599121z M570.209961-116.079102
			l0.240234-2.960449l-3.080078,0.040039l0.360352,3.200195L570.209961-116.079102z M579.009766-117.119141l0.200195-2.040039
			l-3.919922,0.040039l0.280273,2.399902L579.009766-117.119141z"/>
		<path fill="#333333" d="M627.049805-124.999512L619.25-124.719238l-0.080078,1.759766l5.800781-0.47998l1.55957,20.040039
			l-4.320313,0.52002c1.839844,0.959961,3.760742,1.640137,5.839844,2l-3.599609,6.160156
			c-2.479492-1.760254-4.639648-3.640137-6.44043-5.680176l1.759766-2.199707h-0.119141l0.039063-0.600098l-5.55957,0.120117
			l0.040039,0.359863l-0.599609,0.080078l1.719727,1.52002c-1.600586,3.040039-3.680664,5.239746-6.160156,6.52002
			l-3.55957-5.600098c1.55957-0.280273,3.279297-1,5.119141-2.160156l-3.119141,0.359863l0.080078-1.599609l-14.640625,3.319824
			l-1.240234-4.399902l4.44043-1.720215l1.320313-12.719727L593.25-118.799316l-0.799805-4.160156l13.360352-3.159668
			l1.119141,6.239746l-4.919922,0.399902l0.480469,10.640137l3.55957-1.399902l1.639648,5.879883l0.960938-17.759766
			l4.719727-0.400391l0.799805-2l-6.799805,0.280273l-0.760742-4.080078l19.400391-2.640137L627.049805-124.999512z
			 M620.609375-118.15918l0.041016-0.399902H613.25l0.080078,1.639648L620.609375-118.15918z M620.330078-113.399414
			l0.040039-0.600098l-6.839844,0.400391l0.079102,1.55957L620.330078-113.399414z M619.970703-108.079102l0.079102-1.160156
			l-6.239258,0.399902l0.119141,1.720215L619.970703-108.079102z"/>
	</g>
</g>
<g>
	<g>
		<path fill="#FF9933" d="M49.020508-108.421875c-2.619141,0-4.75-2.130859-4.75-4.75s2.130859-4.75,4.75-4.75
			s4.75,2.130859,4.75,4.75S51.639648-108.421875,49.020508-108.421875z"/>
		<path fill="#333333" d="M49.020508-116.671875c1.929688,0,3.5,1.570313,3.5,3.5s-1.570313,3.5-3.5,3.5s-3.5-1.570313-3.5-3.5
			S47.09082-116.671875,49.020508-116.671875 M49.020508-119.171875c-3.313477,0-6,2.686523-6,6c0,3.313965,2.686523,6,6,6
			s6-2.686035,6-6C55.020508-116.485352,52.333984-119.171875,49.020508-119.171875L49.020508-119.171875z"/>
	</g>
	<g>
		<path fill="#FFE556" d="M82.020508-108.421875c-2.619141,0-4.75-2.130859-4.75-4.75s2.130859-4.75,4.75-4.75
			s4.75,2.130859,4.75,4.75S84.639648-108.421875,82.020508-108.421875z"/>
		<path fill="#333333" d="M82.020508-116.671875c1.929688,0,3.5,1.570313,3.5,3.5s-1.570313,3.5-3.5,3.5s-3.5-1.570313-3.5-3.5
			S80.09082-116.671875,82.020508-116.671875 M82.020508-119.171875c-3.313477,0-6,2.686523-6,6c0,3.313965,2.686523,6,6,6
			s6-2.686035,6-6C88.020508-116.485352,85.333984-119.171875,82.020508-119.171875L82.020508-119.171875z"/>
	</g>
	<g>
		<path fill="#ADCC33" d="M115.020508-108.421875c-2.619141,0-4.75-2.130859-4.75-4.75s2.130859-4.75,4.75-4.75
			s4.75,2.130859,4.75,4.75S117.639648-108.421875,115.020508-108.421875z"/>
		<path fill="#333333" d="M115.020508-116.671875c1.929688,0,3.5,1.570313,3.5,3.5s-1.570313,3.5-3.5,3.5s-3.5-1.570313-3.5-3.5
			S113.09082-116.671875,115.020508-116.671875 M115.020508-119.171875c-3.313477,0-6,2.686523-6,6c0,3.313965,2.686523,6,6,6
			s6-2.686035,6-6C121.020508-116.485352,118.333984-119.171875,115.020508-119.171875L115.020508-119.171875z"/>
	</g>
	<g>
		<path fill="#339900" d="M148.020508-108.421875c-2.619141,0-4.75-2.130859-4.75-4.75s2.130859-4.75,4.75-4.75
			s4.75,2.130859,4.75,4.75S150.639648-108.421875,148.020508-108.421875z"/>
		<path fill="#333333" d="M148.020508-116.671875c1.929688,0,3.5,1.570313,3.5,3.5s-1.570313,3.5-3.5,3.5s-3.5-1.570313-3.5-3.5
			S146.09082-116.671875,148.020508-116.671875 M148.020508-119.171875c-3.313477,0-6,2.686523-6,6c0,3.313965,2.686523,6,6,6
			s6-2.686035,6-6C154.020508-116.485352,151.333984-119.171875,148.020508-119.171875L148.020508-119.171875z"/>
	</g>
	<g>
		<path fill="#796CAF" d="M181.020508-108.421875c-2.619141,0-4.75-2.130859-4.75-4.75s2.130859-4.75,4.75-4.75
			s4.75,2.130859,4.75,4.75S183.639648-108.421875,181.020508-108.421875z"/>
		<path fill="#333333" d="M181.020508-116.671875c1.929688,0,3.5,1.570313,3.5,3.5s-1.570313,3.5-3.5,3.5s-3.5-1.570313-3.5-3.5
			S179.09082-116.671875,181.020508-116.671875 M181.020508-119.171875c-3.313477,0-6,2.686523-6,6c0,3.313965,2.686523,6,6,6
			s6-2.686035,6-6C187.020508-116.485352,184.333984-119.171875,181.020508-119.171875L181.020508-119.171875z"/>
	</g>
	<g>
		<path fill="#4F9FE0" d="M214.020508-108.421875c-2.619141,0-4.75-2.130859-4.75-4.75s2.130859-4.75,4.75-4.75
			s4.75,2.130859,4.75,4.75S216.639648-108.421875,214.020508-108.421875z"/>
		<path fill="#333333" d="M214.020508-116.671875c1.929688,0,3.5,1.570313,3.5,3.5s-1.570313,3.5-3.5,3.5s-3.5-1.570313-3.5-3.5
			S212.09082-116.671875,214.020508-116.671875 M214.020508-119.171875c-3.313477,0-6,2.686523-6,6c0,3.313965,2.686523,6,6,6
			s6-2.686035,6-6C220.020508-116.485352,217.333984-119.171875,214.020508-119.171875L214.020508-119.171875z"/>
	</g>
	<g>
		<path fill="#FF6F61" d="M247.020508-108.421875c-2.619141,0-4.75-2.130859-4.75-4.75s2.130859-4.75,4.75-4.75
			s4.75,2.130859,4.75,4.75S249.639648-108.421875,247.020508-108.421875z"/>
		<path fill="#333333" d="M247.020508-116.671875c1.929688,0,3.5,1.570313,3.5,3.5s-1.570313,3.5-3.5,3.5s-3.5-1.570313-3.5-3.5
			S245.09082-116.671875,247.020508-116.671875 M247.020508-119.171875c-3.313477,0-6,2.686523-6,6c0,3.313965,2.686523,6,6,6
			s6-2.686035,6-6C253.020508-116.485352,250.333984-119.171875,247.020508-119.171875L247.020508-119.171875z"/>
	</g>
	<g>
		<path fill="#FF9933" d="M280.020508-108.421875c-2.619141,0-4.75-2.130859-4.75-4.75s2.130859-4.75,4.75-4.75
			s4.75,2.130859,4.75,4.75S282.639648-108.421875,280.020508-108.421875z"/>
		<path fill="#333333" d="M280.020508-116.671875c1.929688,0,3.5,1.570313,3.5,3.5s-1.570313,3.5-3.5,3.5s-3.5-1.570313-3.5-3.5
			S278.09082-116.671875,280.020508-116.671875 M280.020508-119.171875c-3.313477,0-6,2.686523-6,6c0,3.313965,2.686523,6,6,6
			s6-2.686035,6-6C286.020508-116.485352,283.333984-119.171875,280.020508-119.171875L280.020508-119.171875z"/>
	</g>
	<g>
		<path fill="#FFE556" d="M313.020508-108.421875c-2.619141,0-4.75-2.130859-4.75-4.75s2.130859-4.75,4.75-4.75
			s4.75,2.130859,4.75,4.75S315.639648-108.421875,313.020508-108.421875z"/>
		<path fill="#333333" d="M313.020508-116.671875c1.929688,0,3.5,1.570313,3.5,3.5s-1.570313,3.5-3.5,3.5s-3.5-1.570313-3.5-3.5
			S311.09082-116.671875,313.020508-116.671875 M313.020508-119.171875c-3.313477,0-6,2.686523-6,6c0,3.313965,2.686523,6,6,6
			s6-2.686035,6-6C319.020508-116.485352,316.333984-119.171875,313.020508-119.171875L313.020508-119.171875z"/>
	</g>
</g>
<g>
	<g>
		<path fill="#FF9933" d="M786.020508-108.421875c-2.619141,0-4.75-2.130859-4.75-4.75s2.130859-4.75,4.75-4.75
			s4.75,2.130859,4.75,4.75S788.639648-108.421875,786.020508-108.421875z"/>
		<path fill="#333333" d="M786.020508-116.671875c1.929688,0,3.5,1.570313,3.5,3.5s-1.570313,3.5-3.5,3.5s-3.5-1.570313-3.5-3.5
			S784.09082-116.671875,786.020508-116.671875 M786.020508-119.171875c-3.313477,0-6,2.686523-6,6c0,3.313965,2.686523,6,6,6
			s6-2.686035,6-6C792.020508-116.485352,789.333984-119.171875,786.020508-119.171875L786.020508-119.171875z"/>
	</g>
	<g>
		<path fill="#FFE556" d="M819.020508-108.421875c-2.619141,0-4.75-2.130859-4.75-4.75s2.130859-4.75,4.75-4.75
			s4.75,2.130859,4.75,4.75S821.639648-108.421875,819.020508-108.421875z"/>
		<path fill="#333333" d="M819.020508-116.671875c1.929688,0,3.5,1.570313,3.5,3.5s-1.570313,3.5-3.5,3.5s-3.5-1.570313-3.5-3.5
			S817.09082-116.671875,819.020508-116.671875 M819.020508-119.171875c-3.313477,0-6,2.686523-6,6c0,3.313965,2.686523,6,6,6
			s6-2.686035,6-6C825.020508-116.485352,822.333984-119.171875,819.020508-119.171875L819.020508-119.171875z"/>
	</g>
	<g>
		<path fill="#ADCC33" d="M852.020508-108.421875c-2.619141,0-4.75-2.130859-4.75-4.75s2.130859-4.75,4.75-4.75
			s4.75,2.130859,4.75,4.75S854.639648-108.421875,852.020508-108.421875z"/>
		<path fill="#333333" d="M852.020508-116.671875c1.929688,0,3.5,1.570313,3.5,3.5s-1.570313,3.5-3.5,3.5s-3.5-1.570313-3.5-3.5
			S850.09082-116.671875,852.020508-116.671875 M852.020508-119.171875c-3.313477,0-6,2.686523-6,6c0,3.313965,2.686523,6,6,6
			s6-2.686035,6-6C858.020508-116.485352,855.333984-119.171875,852.020508-119.171875L852.020508-119.171875z"/>
	</g>
	<g>
		<path fill="#339900" d="M885.020508-108.421875c-2.619141,0-4.75-2.130859-4.75-4.75s2.130859-4.75,4.75-4.75
			s4.75,2.130859,4.75,4.75S887.639648-108.421875,885.020508-108.421875z"/>
		<path fill="#333333" d="M885.020508-116.671875c1.929688,0,3.5,1.570313,3.5,3.5s-1.570313,3.5-3.5,3.5s-3.5-1.570313-3.5-3.5
			S883.09082-116.671875,885.020508-116.671875 M885.020508-119.171875c-3.313477,0-6,2.686523-6,6c0,3.313965,2.686523,6,6,6
			s6-2.686035,6-6C891.020508-116.485352,888.333984-119.171875,885.020508-119.171875L885.020508-119.171875z"/>
	</g>
	<g>
		<path fill="#796CAF" d="M918.020508-108.421875c-2.619141,0-4.75-2.130859-4.75-4.75s2.130859-4.75,4.75-4.75
			s4.75,2.130859,4.75,4.75S920.639648-108.421875,918.020508-108.421875z"/>
		<path fill="#333333" d="M918.020508-116.671875c1.929688,0,3.5,1.570313,3.5,3.5s-1.570313,3.5-3.5,3.5s-3.5-1.570313-3.5-3.5
			S916.09082-116.671875,918.020508-116.671875 M918.020508-119.171875c-3.313477,0-6,2.686523-6,6c0,3.313965,2.686523,6,6,6
			s6-2.686035,6-6C924.020508-116.485352,921.333984-119.171875,918.020508-119.171875L918.020508-119.171875z"/>
	</g>
	<g>
		<path fill="#4F9FE0" d="M951.020508-108.421875c-2.619141,0-4.75-2.130859-4.75-4.75s2.130859-4.75,4.75-4.75
			s4.75,2.130859,4.75,4.75S953.639648-108.421875,951.020508-108.421875z"/>
		<path fill="#333333" d="M951.020508-116.671875c1.929688,0,3.5,1.570313,3.5,3.5s-1.570313,3.5-3.5,3.5s-3.5-1.570313-3.5-3.5
			S949.09082-116.671875,951.020508-116.671875 M951.020508-119.171875c-3.313477,0-6,2.686523-6,6c0,3.313965,2.686523,6,6,6
			s6-2.686035,6-6C957.020508-116.485352,954.333984-119.171875,951.020508-119.171875L951.020508-119.171875z"/>
	</g>
	<g>
		<path fill="#FF6F61" d="M984.020508-108.421875c-2.619141,0-4.75-2.130859-4.75-4.75s2.130859-4.75,4.75-4.75
			s4.75,2.130859,4.75,4.75S986.639648-108.421875,984.020508-108.421875z"/>
		<path fill="#333333" d="M984.020508-116.671875c1.929688,0,3.5,1.570313,3.5,3.5s-1.570313,3.5-3.5,3.5s-3.5-1.570313-3.5-3.5
			S982.09082-116.671875,984.020508-116.671875 M984.020508-119.171875c-3.313477,0-6,2.686523-6,6c0,3.313965,2.686523,6,6,6
			s6-2.686035,6-6C990.020508-116.485352,987.333984-119.171875,984.020508-119.171875L984.020508-119.171875z"/>
	</g>
	<g>
		<path fill="#FF9933" d="M1017.020508-108.421875c-2.619141,0-4.75-2.130859-4.75-4.75s2.130859-4.75,4.75-4.75
			s4.75,2.130859,4.75,4.75S1019.639648-108.421875,1017.020508-108.421875z"/>
		<path fill="#333333" d="M1017.020508-116.671875c1.929688,0,3.5,1.570313,3.5,3.5s-1.570313,3.5-3.5,3.5s-3.5-1.570313-3.5-3.5
			S1015.09082-116.671875,1017.020508-116.671875 M1017.020508-119.171875c-3.313477,0-6,2.686523-6,6c0,3.313965,2.686523,6,6,6
			s6-2.686035,6-6C1023.020508-116.485352,1020.333984-119.171875,1017.020508-119.171875L1017.020508-119.171875z"/>
	</g>
	<g>
		<path fill="#FFE556" d="M1050.020508-108.421875c-2.619141,0-4.75-2.130859-4.75-4.75s2.130859-4.75,4.75-4.75
			s4.75,2.130859,4.75,4.75S1052.639648-108.421875,1050.020508-108.421875z"/>
		<path fill="#333333" d="M1050.020508-116.671875c1.929688,0,3.5,1.570313,3.5,3.5s-1.570313,3.5-3.5,3.5s-3.5-1.570313-3.5-3.5
			S1048.09082-116.671875,1050.020508-116.671875 M1050.020508-119.171875c-3.313477,0-6,2.686523-6,6c0,3.313965,2.686523,6,6,6
			s6-2.686035,6-6C1056.020508-116.485352,1053.333984-119.171875,1050.020508-119.171875L1050.020508-119.171875z"/>
	</g>
</g>
<g>
	<g>
		<path fill="#333333" d="M388.169434-198.779297c-0.640137,3.959961-1.47998,7.439453-2.600098,10.439453l0.839844,15.560547
			c2.720215-0.880859,5-2.360352,6.760254-4.360352l-5.200195,0.200195l-0.759766-4l9.040039-1.040039l0.199707-3l4.320313,0.44043
			L400.888672-182.5l8.201172-0.958984l1,5.71875L402.96875-177.5c2,2.360352,4.600586,3.960938,7.880859,4.800781
			l-3.759766,5.719727c-2.201172-1.44043-4.041016-3.240234-5.560547-5.399414l0.480469,7.239258l-6.960449,0.680664
			l0.600098-8.480469c-1.600098,2.279297-3.600098,4.439453-6.040039,6.439453l-3.120117-4.399414l0.320313,5.919922
			l-7.120117,0.719727l1.160156-15.439453C379.88916-178.5,378.80957-177.5,377.689453-176.619141l-3.720215-8.600586
			c4.880371-2.719727,8.240234-7.759766,10-15.120117L388.169434-198.779297z M409.489258-185.219727l-6.879883,0.799805
			l0.080078-1.119141l-7.680176,0.199219l0.080078,0.800781l-6.879883,0.719727l1.679688-14.360352l17.760254-1.359375
			L409.489258-185.219727z M403.128906-190.660156l0.240234-2.919922l-9.199707-0.439453l0.47998,4.799805L403.128906-190.660156z"
			/>
		<path fill="#333333" d="M435.169922-200.5l0.599609,2.280273l13.679688-1.719727l1.080078,6.320313l-6.719727,0.399414
			l5.839844,6.639648l-33.680664,2.800781l7.320313-8.280273L415.25-191.580078L414.609375-195.5l14.359375-1.839844
			l1.080078-3.519531L435.169922-200.5z M424.128906-183.339844l0.041016,0.280273l21.160156-2.55957l2.119141,20.039063
			l-8.040039,0.640625l0.160156-3.519531l-13.839844,1.239258l0.200195,2.120117l-8.480469,0.879883l2-19.55957
			L424.128906-183.339844z M440.128906-179.339844l0.041016-0.679688l-15.640625,0.560547l0.280273,2.839844L440.128906-179.339844z
			 M439.80957-173.298828L439.888672-174.5l-14.71875,1.44043l0.199219,2.280273L439.80957-173.298828z M427.449219-188.539063
			l12.599609-2.400391L439.25-192.979492l-10.160156,0.600586L427.449219-188.539063z"/>
		<path fill="#333333" d="M461.769531-193.378906l0.320313-7.041016l3.798828,0.360352l0.201172,5.44043
			c1.039063-1.080078,2.080078-2.400391,3.119141-3.919922l3.160156,1.639648
			c-0.839844,2.799805-1.879883,5.239258-3.160156,7.319336l-3-2.119141l0.121094,3.039063l3.878906-0.638672l1.041016,5.878906
			l-4.720703,0.240234l0.040039,0.720703c1.879883,0.71875,3.799805,1.639648,5.719727,2.759766l-2.799805,5.55957
			c-0.959961-1.080078-1.839844-2.040039-2.719727-2.919922l0.439453,11.879883l-6.839844,0.640625l0.44043-9.240234
			c-0.959961,1.719727-2.080078,3.359375-3.360352,4.879883l-3.359375-6.44043c2.479492-1.759766,4.55957-4.279297,6.199219-7.55957
			l-4.479492,0.239258l-0.760742-4.080078l6.44043-1.079102l0.160156-3.080078l-4.120117,2.120117
			c-0.240234-2.360352-1-4.720703-2.240234-7.080078L458.489258-197.5
			C459.929688-196.139648,461.009766-194.740234,461.769531-193.378906z M486.289063-199.819336l0.839844,19.55957
			l2.400391-0.519531l1.640625,6.240234l-3.800781,0.519531l0.360352,8.320313l-7.799805,0.719727l0.479492-8.120117l-8,1.040039
			l-1.040039-4.799805l9.400391-2.040039l0.279297-4.680664l-3.71875,4.600586
			c-1.640625-2.120117-3.600586-4.040039-5.880859-5.719727l2.720703-3.679688
			c2.71875,1.439453,5.039063,2.839844,6.919922,4.239258l0.359375-5.679688L479.569336-187.5
			c-1.719727-2.240234-3.759766-4.240234-6.080078-6l2.719727-3.679688c2.080078,1.040039,3.919922,2.080078,5.520508,3.040039
			l0.360352-6.080078L486.289063-199.819336z"/>
		<path fill="#333333" d="M496.893555-166.03125c-0.612305-1.980469-1.080078-4.104492-1.368164-6.263672
			c-0.288086-2.125-0.46875-4.248047-0.611328-6.552734v-7.775391l0.611328-8.532227h0.611328l6.552734,1.223633v1.224609
			c-0.46875,3.023438-0.900391,6.083984-1.080078,9.288086c-0.288086,3.204102-0.431641,6.551758-0.288086,9.754883
			l0.755859,6.121094l-5.183594,1.655273V-166.03125z M520.833008-185.6875v-0.324219l0.324219-0.755859l-0.143555-0.467773
			c-1.980469-0.756836-4.285156-1.043945-6.732422-0.756836l-5.652344,0.900391l-0.899414-7.306641l8.675781-0.289063
			c1.692383,0.144531,3.204102,0.431641,4.751953,0.900391c1.368164,0.467773,2.735352,1.224609,3.959961,2.447266
			c1.224609,1.369141,1.691406,3.205078,1.511719,5.18457l-0.755859,2.267578h-0.467773L520.833008-185.6875z
			 M511.689453-168.479492c-1.224609-0.612305-2.267578-1.512695-3.347656-2.735352l-0.144531-0.756836L514.28125-175.5
			c0.467773,0.792969,1.224609,1.404297,1.980469,1.692383c1.367188,0.467773,2.916016,0.612305,4.571289,0.467773
			l2.592773-0.324219l1.222656,5.18457c-1.367188,0.467773-2.878906,0.936523-4.248047,1.080078
			c-1.546875,0.288086-3.058594,0.467773-4.750977,0.288086C514.28125-167.255859,512.913086-167.6875,511.689453-168.479492z"/>
		<path fill="#333333" d="M544.521484-166.210938l-1.080078-5.18457c1.979492-0.467773,3.81543-1.223633,5.651367-2.124023
			c1.655273-0.935547,3.348633-2.160156,4.860352-3.671875c1.080078-1.080078,1.691406-2.591797,1.546875-4.28418
			c-0.611328-1.368164-1.546875-2.267578-2.915039-2.735352c-2.124023-0.46875-4.428711-0.755859-6.696289-0.613281
			c-2.591797,0.289063-5.040039,0.756836-7.34375,1.224609c-2.412109,0.46875-4.859375,1.080078-7.308594,1.691406
			l-1.223633-8.243164c3.05957-0.756836,6.264648-1.223633,9.467773-1.692383
			c3.204102-0.466797,6.408203-0.611328,9.755859-0.466797c1.980469,0.179688,3.816406,0.611328,5.507813,1.223633
			c1.65625,0.755859,3.348633,1.834961,4.716797,3.204102c1.080078,1.079102,1.835938,2.302734,2.267578,3.671875
			c0.46875,1.367188,0.612305,2.878906,0.46875,4.571289c-0.289063,1.368164-0.756836,2.736328-1.512695,3.959961
			c-0.755859,1.368164-1.835938,2.591797-3.05957,3.671875c-1.980469,1.692383-3.960938,2.880859-6.083984,3.816406
			c-2.304688,1.080078-4.608398,1.65625-7.019531,2.124023V-166.210938z"/>
		<path fill="#333333" d="M571.484375-171.395508c-2.303711-3.05957-3.671875-6.408203-4.283203-10.223633
			c-0.612305-3.671875-0.900391-7.488281-1.080078-11.304688h2.160156l5.939453,0.46875v7.630859
			c0.144531,1.693359,0.46875,3.348633,0.900391,5.041016c0.324219,1.65625,0.935547,3.347656,1.979492,4.71582l0.791992,0.323242
			l1.511719-0.611328l3.348633,5.040039c-1.835938,1.368164-3.959961,1.979492-6.408203,1.799805
			C574.365234-168.803711,572.853516-169.703125,571.484375-171.395508z M593.121094-178.416016
			c-0.432617-2.123047-1.224609-4.103516-2.268555-5.939453c-1.079102-1.835938-2.448242-3.671875-3.81543-5.364258
			l5.651367-4.391602c1.836914,2.267578,3.348633,4.859375,4.428711,7.595703
			c1.042969,2.772461,1.511719,5.652344,1.511719,8.711914l-5.507813,0.143555V-178.416016z"/>
		<path fill="#333333" d="M624.404297-168.335938c-1.223633-0.611328-2.303711-1.547852-3.203125-2.591797
			c-1.080078-1.404297-1.835938-2.916016-2.304688-4.607422c-0.431641-1.511719-0.755859-3.167969-0.755859-5.003906
			c0.179688-1.548828,0.612305-3.060547,1.080078-4.427734c0.46875-1.369141,1.080078-2.592773,1.835938-3.960938h-0.324219
			l-16.775391,2.124023l-0.288086-8.387695c4.427734-0.467773,9.143555-0.611328,13.860352-0.467773
			c4.751953,0.143555,8.748047-0.072266,14.363281-0.288086h2.267578l0.755859-0.179688l0.324219,5.507813
			c-1.367188,0.467773-2.735352,1.080078-3.958984,2.123047c-1.369141,1.081055-2.592773,2.160156-3.671875,3.384766
			c-1.693359,1.980469-2.592773,4.391602-2.736328,6.984375c0.143555,2.015625,1.042969,3.527344,2.447266,4.895508
			l1.800781,0.899414v0.936523l-0.755859,4.571289h-0.289063C626.708984-167.111328,625.484375-167.580078,624.404297-168.335938z"
			/>
	</g>
</g>
<g>
	<g>
		<path fill="#FF9933" d="M4.339355-178.162109c-2.619141,0-4.75-2.130859-4.75-4.75s2.130859-4.75,4.75-4.75
			s4.75,2.130859,4.75,4.75S6.958496-178.162109,4.339355-178.162109z"/>
		<path fill="#333333" d="M4.339355-186.412109c1.929688,0,3.5,1.570313,3.5,3.5s-1.570313,3.5-3.5,3.5s-3.5-1.570313-3.5-3.5
			S2.409668-186.412109,4.339355-186.412109 M4.339355-188.912109c-3.313477,0-6,2.686523-6,6c0,3.314453,2.686523,6,6,6
			s6-2.685547,6-6C10.339355-186.225586,7.652832-188.912109,4.339355-188.912109L4.339355-188.912109z"/>
	</g>
	<g>
		<path fill="#FFE556" d="M37.339355-178.162109c-2.619141,0-4.75-2.130859-4.75-4.75s2.130859-4.75,4.75-4.75
			s4.75,2.130859,4.75,4.75S39.958496-178.162109,37.339355-178.162109z"/>
		<path fill="#333333" d="M37.339355-186.412109c1.929688,0,3.5,1.570313,3.5,3.5s-1.570313,3.5-3.5,3.5s-3.5-1.570313-3.5-3.5
			S35.409668-186.412109,37.339355-186.412109 M37.339355-188.912109c-3.313477,0-6,2.686523-6,6c0,3.314453,2.686523,6,6,6
			s6-2.685547,6-6C43.339355-186.225586,40.652832-188.912109,37.339355-188.912109L37.339355-188.912109z"/>
	</g>
	<g>
		<path fill="#ADCC33" d="M70.339355-178.162109c-2.619141,0-4.75-2.130859-4.75-4.75s2.130859-4.75,4.75-4.75
			s4.75,2.130859,4.75,4.75S72.958496-178.162109,70.339355-178.162109z"/>
		<path fill="#333333" d="M70.339355-186.412109c1.929688,0,3.5,1.570313,3.5,3.5s-1.570313,3.5-3.5,3.5s-3.5-1.570313-3.5-3.5
			S68.409668-186.412109,70.339355-186.412109 M70.339355-188.912109c-3.313477,0-6,2.686523-6,6c0,3.314453,2.686523,6,6,6
			s6-2.685547,6-6C76.339355-186.225586,73.652832-188.912109,70.339355-188.912109L70.339355-188.912109z"/>
	</g>
	<g>
		<path fill="#339900" d="M103.339355-178.162109c-2.619141,0-4.75-2.130859-4.75-4.75s2.130859-4.75,4.75-4.75
			s4.75,2.130859,4.75,4.75S105.958496-178.162109,103.339355-178.162109z"/>
		<path fill="#333333" d="M103.339355-186.412109c1.929688,0,3.5,1.570313,3.5,3.5s-1.570313,3.5-3.5,3.5s-3.5-1.570313-3.5-3.5
			S101.409668-186.412109,103.339355-186.412109 M103.339355-188.912109c-3.313477,0-6,2.686523-6,6c0,3.314453,2.686523,6,6,6
			s6-2.685547,6-6C109.339355-186.225586,106.652832-188.912109,103.339355-188.912109L103.339355-188.912109z"/>
	</g>
	<g>
		<path fill="#796CAF" d="M136.339355-178.162109c-2.619141,0-4.75-2.130859-4.75-4.75s2.130859-4.75,4.75-4.75
			s4.75,2.130859,4.75,4.75S138.958496-178.162109,136.339355-178.162109z"/>
		<path fill="#333333" d="M136.339355-186.412109c1.929688,0,3.5,1.570313,3.5,3.5s-1.570313,3.5-3.5,3.5s-3.5-1.570313-3.5-3.5
			S134.409668-186.412109,136.339355-186.412109 M136.339355-188.912109c-3.313477,0-6,2.686523-6,6c0,3.314453,2.686523,6,6,6
			s6-2.685547,6-6C142.339355-186.225586,139.652832-188.912109,136.339355-188.912109L136.339355-188.912109z"/>
	</g>
	<g>
		<path fill="#4F9FE0" d="M169.339355-178.162109c-2.619141,0-4.75-2.130859-4.75-4.75s2.130859-4.75,4.75-4.75
			s4.75,2.130859,4.75,4.75S171.958496-178.162109,169.339355-178.162109z"/>
		<path fill="#333333" d="M169.339355-186.412109c1.929688,0,3.5,1.570313,3.5,3.5s-1.570313,3.5-3.5,3.5s-3.5-1.570313-3.5-3.5
			S167.409668-186.412109,169.339355-186.412109 M169.339355-188.912109c-3.313477,0-6,2.686523-6,6c0,3.314453,2.686523,6,6,6
			s6-2.685547,6-6C175.339355-186.225586,172.652832-188.912109,169.339355-188.912109L169.339355-188.912109z"/>
	</g>
	<g>
		<path fill="#FF6F61" d="M202.339355-178.162109c-2.619141,0-4.75-2.130859-4.75-4.75s2.130859-4.75,4.75-4.75
			s4.75,2.130859,4.75,4.75S204.958496-178.162109,202.339355-178.162109z"/>
		<path fill="#333333" d="M202.339355-186.412109c1.929688,0,3.5,1.570313,3.5,3.5s-1.570313,3.5-3.5,3.5s-3.5-1.570313-3.5-3.5
			S200.409668-186.412109,202.339355-186.412109 M202.339355-188.912109c-3.313477,0-6,2.686523-6,6c0,3.314453,2.686523,6,6,6
			s6-2.685547,6-6C208.339355-186.225586,205.652832-188.912109,202.339355-188.912109L202.339355-188.912109z"/>
	</g>
	<g>
		<path fill="#FF9933" d="M235.339355-178.162109c-2.619141,0-4.75-2.130859-4.75-4.75s2.130859-4.75,4.75-4.75
			s4.75,2.130859,4.75,4.75S237.958496-178.162109,235.339355-178.162109z"/>
		<path fill="#333333" d="M235.339355-186.412109c1.929688,0,3.5,1.570313,3.5,3.5s-1.570313,3.5-3.5,3.5s-3.5-1.570313-3.5-3.5
			S233.409668-186.412109,235.339355-186.412109 M235.339355-188.912109c-3.313477,0-6,2.686523-6,6c0,3.314453,2.686523,6,6,6
			s6-2.685547,6-6C241.339355-186.225586,238.652832-188.912109,235.339355-188.912109L235.339355-188.912109z"/>
	</g>
	<g>
		<path fill="#FFE556" d="M268.339355-178.162109c-2.619141,0-4.75-2.130859-4.75-4.75s2.130859-4.75,4.75-4.75
			s4.75,2.130859,4.75,4.75S270.958496-178.162109,268.339355-178.162109z"/>
		<path fill="#333333" d="M268.339355-186.412109c1.929688,0,3.5,1.570313,3.5,3.5s-1.570313,3.5-3.5,3.5s-3.5-1.570313-3.5-3.5
			S266.409668-186.412109,268.339355-186.412109 M268.339355-188.912109c-3.313477,0-6,2.686523-6,6c0,3.314453,2.686523,6,6,6
			s6-2.685547,6-6C274.339355-186.225586,271.652832-188.912109,268.339355-188.912109L268.339355-188.912109z"/>
	</g>
</g>
<g>
	<g>
		<path fill="#FF9933" d="M741.338867-178.162109c-2.619141,0-4.75-2.130859-4.75-4.75s2.130859-4.75,4.75-4.75
			s4.75,2.130859,4.75,4.75S743.958008-178.162109,741.338867-178.162109z"/>
		<path fill="#333333" d="M741.338867-186.412109c1.929688,0,3.5,1.570313,3.5,3.5s-1.570313,3.5-3.5,3.5s-3.5-1.570313-3.5-3.5
			S739.40918-186.412109,741.338867-186.412109 M741.338867-188.912109c-3.3125,0-6,2.686523-6,6c0,3.314453,2.6875,6,6,6
			c3.314453,0,6-2.685547,6-6C747.338867-186.225586,744.65332-188.912109,741.338867-188.912109L741.338867-188.912109z"/>
	</g>
	<g>
		<path fill="#FFE556" d="M774.338867-178.162109c-2.619141,0-4.75-2.130859-4.75-4.75s2.130859-4.75,4.75-4.75
			s4.75,2.130859,4.75,4.75S776.958008-178.162109,774.338867-178.162109z"/>
		<path fill="#333333" d="M774.338867-186.412109c1.929688,0,3.5,1.570313,3.5,3.5s-1.570313,3.5-3.5,3.5s-3.5-1.570313-3.5-3.5
			S772.40918-186.412109,774.338867-186.412109 M774.338867-188.912109c-3.3125,0-6,2.686523-6,6c0,3.314453,2.6875,6,6,6
			c3.314453,0,6-2.685547,6-6C780.338867-186.225586,777.65332-188.912109,774.338867-188.912109L774.338867-188.912109z"/>
	</g>
	<g>
		<path fill="#ADCC33" d="M807.338867-178.162109c-2.619141,0-4.75-2.130859-4.75-4.75s2.130859-4.75,4.75-4.75
			s4.75,2.130859,4.75,4.75S809.958008-178.162109,807.338867-178.162109z"/>
		<path fill="#333333" d="M807.338867-186.412109c1.929688,0,3.5,1.570313,3.5,3.5s-1.570313,3.5-3.5,3.5s-3.5-1.570313-3.5-3.5
			S805.40918-186.412109,807.338867-186.412109 M807.338867-188.912109c-3.3125,0-6,2.686523-6,6c0,3.314453,2.6875,6,6,6
			c3.314453,0,6-2.685547,6-6C813.338867-186.225586,810.65332-188.912109,807.338867-188.912109L807.338867-188.912109z"/>
	</g>
	<g>
		<path fill="#339900" d="M840.338867-178.162109c-2.619141,0-4.75-2.130859-4.75-4.75s2.130859-4.75,4.75-4.75
			s4.75,2.130859,4.75,4.75S842.958008-178.162109,840.338867-178.162109z"/>
		<path fill="#333333" d="M840.338867-186.412109c1.929688,0,3.5,1.570313,3.5,3.5s-1.570313,3.5-3.5,3.5s-3.5-1.570313-3.5-3.5
			S838.40918-186.412109,840.338867-186.412109 M840.338867-188.912109c-3.3125,0-6,2.686523-6,6c0,3.314453,2.6875,6,6,6
			c3.314453,0,6-2.685547,6-6C846.338867-186.225586,843.65332-188.912109,840.338867-188.912109L840.338867-188.912109z"/>
	</g>
	<g>
		<path fill="#796CAF" d="M873.338867-178.162109c-2.619141,0-4.75-2.130859-4.75-4.75s2.130859-4.75,4.75-4.75
			s4.75,2.130859,4.75,4.75S875.958008-178.162109,873.338867-178.162109z"/>
		<path fill="#333333" d="M873.338867-186.412109c1.929688,0,3.5,1.570313,3.5,3.5s-1.570313,3.5-3.5,3.5s-3.5-1.570313-3.5-3.5
			S871.40918-186.412109,873.338867-186.412109 M873.338867-188.912109c-3.3125,0-6,2.686523-6,6c0,3.314453,2.6875,6,6,6
			c3.314453,0,6-2.685547,6-6C879.338867-186.225586,876.65332-188.912109,873.338867-188.912109L873.338867-188.912109z"/>
	</g>
	<g>
		<path fill="#4F9FE0" d="M906.338867-178.162109c-2.619141,0-4.75-2.130859-4.75-4.75s2.130859-4.75,4.75-4.75
			s4.75,2.130859,4.75,4.75S908.958008-178.162109,906.338867-178.162109z"/>
		<path fill="#333333" d="M906.338867-186.412109c1.929688,0,3.5,1.570313,3.5,3.5s-1.570313,3.5-3.5,3.5s-3.5-1.570313-3.5-3.5
			S904.40918-186.412109,906.338867-186.412109 M906.338867-188.912109c-3.3125,0-6,2.686523-6,6c0,3.314453,2.6875,6,6,6
			c3.314453,0,6-2.685547,6-6C912.338867-186.225586,909.65332-188.912109,906.338867-188.912109L906.338867-188.912109z"/>
	</g>
	<g>
		<path fill="#FF6F61" d="M939.338867-178.162109c-2.619141,0-4.75-2.130859-4.75-4.75s2.130859-4.75,4.75-4.75
			s4.75,2.130859,4.75,4.75S941.958008-178.162109,939.338867-178.162109z"/>
		<path fill="#333333" d="M939.338867-186.412109c1.929688,0,3.5,1.570313,3.5,3.5s-1.570313,3.5-3.5,3.5s-3.5-1.570313-3.5-3.5
			S937.40918-186.412109,939.338867-186.412109 M939.338867-188.912109c-3.3125,0-6,2.686523-6,6c0,3.314453,2.6875,6,6,6
			c3.314453,0,6-2.685547,6-6C945.338867-186.225586,942.65332-188.912109,939.338867-188.912109L939.338867-188.912109z"/>
	</g>
	<g>
		<path fill="#FF9933" d="M972.338867-178.162109c-2.619141,0-4.75-2.130859-4.75-4.75s2.130859-4.75,4.75-4.75
			s4.75,2.130859,4.75,4.75S974.958008-178.162109,972.338867-178.162109z"/>
		<path fill="#333333" d="M972.338867-186.412109c1.929688,0,3.5,1.570313,3.5,3.5s-1.570313,3.5-3.5,3.5s-3.5-1.570313-3.5-3.5
			S970.40918-186.412109,972.338867-186.412109 M972.338867-188.912109c-3.3125,0-6,2.686523-6,6c0,3.314453,2.6875,6,6,6
			c3.314453,0,6-2.685547,6-6C978.338867-186.225586,975.65332-188.912109,972.338867-188.912109L972.338867-188.912109z"/>
	</g>
	<g>
		<path fill="#FFE556" d="M1005.338867-178.162109c-2.619141,0-4.75-2.130859-4.75-4.75s2.130859-4.75,4.75-4.75
			s4.75,2.130859,4.75,4.75S1007.958008-178.162109,1005.338867-178.162109z"/>
		<path fill="#333333" d="M1005.338867-186.412109c1.929688,0,3.5,1.570313,3.5,3.5s-1.570313,3.5-3.5,3.5s-3.5-1.570313-3.5-3.5
			S1003.40918-186.412109,1005.338867-186.412109 M1005.338867-188.912109c-3.3125,0-6,2.686523-6,6c0,3.314453,2.6875,6,6,6
			c3.314453,0,6-2.685547,6-6C1011.338867-186.225586,1008.65332-188.912109,1005.338867-188.912109L1005.338867-188.912109z"/>
	</g>
</g>
<g>
	<g>
		<path fill="#333333" d="M314.640137,24.900391c-0.640137,3.960938-1.47998,7.44043-2.600098,10.44043l0.839844,15.55957
			c2.720215-0.879883,5-2.359375,6.760254-4.359375l-5.200195,0.199219l-0.759766-4l9.040039-1.039063l0.199707-3l4.320313,0.439453
			l0.119629,2.040039l8.200195-0.959961l1,5.719727l-7.120117,0.240234c2,2.360352,4.600098,3.959961,7.880371,4.799805
			l-3.760254,5.720703c-2.200195-1.44043-4.040039-3.240234-5.560059-5.400391l0.47998,7.240234l-6.959961,0.679688
			l0.600098-8.480469c-1.600098,2.280273-3.600098,4.44043-6.040039,6.44043l-3.120117-4.399414l0.320313,5.919922
			l-7.120117,0.71875l1.160156-15.439453c-0.960449,1.200195-2.040039,2.200195-3.160156,3.080078l-3.720215-8.599609
			c4.880371-2.720703,8.240234-7.759766,10-15.120117L314.640137,24.900391z M335.959961,38.460938l-6.879883,0.799805
			l0.080078-1.120117l-7.680176,0.200195l0.080078,0.799805l-6.879883,0.720703L316.359863,25.5l17.760254-1.359375
			L335.959961,38.460938z M329.600098,33.020508l0.239746-2.919922l-9.199707-0.44043l0.47998,4.800781L329.600098,33.020508z"/>
		<path fill="#333333" d="M361.640137,23.180664l0.600098,2.280273l13.679688-1.720703L377,30.060547l-6.719727,0.400391
			l5.839844,6.639648l-33.680176,2.799805l7.320313-8.279297l-8.040039,0.479492l-0.640137-3.919922l14.359863-1.839844
			l1.080078-3.520508L361.640137,23.180664z M350.600098,40.34082l0.040039,0.280273l21.160156-2.560547l2.119629,20.040039
			l-8.040039,0.639648l0.160156-3.519531l-13.839844,1.240234l0.199707,2.119141l-8.47998,0.880859l2-19.560547L350.600098,40.34082
			z M366.600098,44.34082l0.040039-0.680664L351,44.220703l0.280273,2.839844L366.600098,44.34082z M366.280273,50.380859
			l0.07959-1.200195l-14.719727,1.44043l0.199707,2.279297L366.280273,50.380859z M353.919922,35.140625l12.600098-2.400391
			l-0.799805-2.039063l-10.160156,0.599609L353.919922,35.140625z"/>
		<path fill="#333333" d="M388.240234,30.300781l0.319824-7.040039l3.799805,0.360352l0.200195,5.439453
			c1.040039-1.080078,2.080078-2.400391,3.120117-3.919922l3.159668,1.640625
			c-0.839844,2.798828-1.879883,5.239258-3.159668,7.319336l-3-2.120117l0.120117,3.040039l3.879883-0.639648l1.040039,5.879883
			L393,40.5l0.040039,0.720703c1.879883,0.719727,3.799805,1.640625,5.720215,2.759766l-2.800293,5.560547
			C395,48.460938,394.120117,47.5,393.240234,46.621094L393.680176,58.5l-6.840332,0.640625l0.44043-9.240234
			c-0.959961,1.720703-2.080078,3.360352-3.360352,4.880859l-3.359863-6.44043c2.47998-1.760742,4.560059-4.280273,6.200195-7.55957
			l-4.47998,0.239258l-0.760254-4.080078l6.439941-1.079102l0.160156-3.080078L384,34.900391
			c-0.239746-2.359375-1-4.719727-2.239746-7.080078l3.199707-1.639648
			C386.399902,27.541016,387.47998,28.94043,388.240234,30.300781z M412.760254,23.861328l0.839844,19.558594L416,42.900391
			l1.640137,6.240234l-3.800293,0.519531l0.360352,8.320313l-7.800293,0.720703l0.47998-8.121094l-8,1.041016l-1.040039-4.800781
			l9.400391-2.039063l0.279785-4.680664l-3.719727,4.600586c-1.640137-2.121094-3.600098-4.041016-5.880371-5.720703
			l2.720215-3.679688c2.719727,1.439453,5.040039,2.839844,6.919922,4.240234l0.359863-5.679688l-1.879883,2.319336
			c-1.719727-2.240234-3.759766-4.240234-6.080078-6L402.680176,26.5c2.080078,1.041016,3.919922,2.080078,5.52002,3.041016
			l0.359863-6.080078L412.760254,23.861328z"/>
		<path fill="#333333" d="M442.875977,53.18457v-0.288086c1.080078-1.367188,1.979492-2.916016,2.591797-4.572266
			c0.467773-1.546875,0.756836-3.203125,0.756836-5.039063c-0.144531-1.980469-1.044922-3.816406-2.736328-5.328125
			c-1.368164-1.224609-2.916016-1.980469-4.572266-2.304688c0,3.204102-0.324219,6.408203-0.755859,9.46875
			c-0.612305,3.203125-2.160156,5.939453-4.428223,8.244141c-1.691895,1.511719-3.815918,2.267578-6.120117,2.267578
			c-1.97998-0.144531-3.491699-1.080078-4.859863-2.591797c-1.224121-1.511719-1.97998-3.205078-2.447754-5.041016
			c-0.468262-1.655273-0.612305-3.634766-0.468262-5.651367c0.324219-1.799805,0.936035-3.492188,1.691895-5.18457
			c0.756348-1.511719,1.836426-2.878906,3.204102-4.248047c1.835938-1.691406,3.815918-2.771484,6.083984-3.527344
			c2.304199-0.755859,4.751953-1.043945,7.344238-0.900391c2.267578,0.144531,4.427734,0.755859,6.408203,1.65625
			c1.979492,1.080078,3.635742,2.449219,5.328125,4.28418c1.367188,1.692383,2.267578,3.348633,2.878906,5.18457
			c0.612305,1.979492,0.936523,3.958984,0.792969,6.263672c-0.180664,1.979492-0.612305,3.958984-1.404297,5.652344
			c-0.755859,1.835938-1.511719,3.491211-2.591797,5.183594l-0.432617,0.143555L442.875977,53.18457z M432.040039,46.344727
			c0.611816-1.692383,1.080078-3.52832,1.368164-5.364258c0.179688-1.65625,0.32373-3.492188,0.32373-5.47168h-0.467773
			c-2.124023,0.467773-3.959961,1.655273-5.472168,3.491211c-1.547852,1.980469-2.160156,4.285156-1.835938,7.020508
			c0.144043,1.368164,0.755859,2.448242,1.655762,3.52832l1.080078,0.287109l1.224121-0.611328
			C430.996094,48.46875,431.571777,47.388672,432.040039,46.344727z"/>
		<path fill="#333333" d="M458.536133,56.424805c-1.692383-1.835938-2.303711-3.996094-1.979492-6.588867
			c0.466797-1.979492,1.367188-3.634766,2.878906-5.183594c2.160156-1.367188,4.428711-2.447266,6.876953-3.023438v-1.080078
			l-0.289063-1.224609l-0.611328-0.143555l-7.956055,1.368164l-0.432617-8.532227l7.453125-0.180664v-0.430664l-0.900391-4.28418
			l7.164063-0.900391l1.223633,5.472656h4.71582l1.368164-0.144531l0.467773,5.47168l-5.47168,0.936523v0.467773l0.432617,2.411133
			c1.691406,0.180664,3.203125,0.613281,4.751953,1.224609c1.367188,0.755859,2.735352,1.691406,3.958984,3.060547
			c1.044922,1.367188,1.980469,2.878906,2.448242,4.572266c0.432617,1.691406,0.756836,3.347656,0.756836,5.327148
			l-5.508789,0.612305c0.143555-1.511719,0-2.880859-0.431641-4.248047c-0.467773-1.224609-1.404297-2.304688-2.448242-3.204102
			c-0.935547-0.755859-1.980469-1.080078-3.204102-1.223633c0,1.835938-0.143555,3.492188-0.612305,5.183594
			c-0.467773,1.691406-1.367188,3.204102-2.735352,4.572266c-2.016602,1.367188-4.139648,1.980469-6.731445,1.980469
			C461.740234,58.548828,459.904297,57.792969,458.536133,56.424805z M466.923828,47.856445h-0.467773l-3.024414,1.692383
			c-0.467773,0.467773-0.611328,1.223633-0.467773,1.980469l0.143555,0.466797l1.224609,0.144531l1.835938-0.611328
			C466.636719,50.449219,466.923828,49.224609,466.923828,47.856445z M479.595703,33.060547l6.083984-3.816406l4.751953,8.388672
			l-4.283203,3.060547L479.595703,33.060547z"/>
		<path fill="#333333" d="M528.320313,32.220703L513.280273,33.5l0.280273,4.44043l10.319336-1.55957
			c-0.679688,6.599609-3.280273,11.759766-7.759766,15.439453c1.600586,0.400391,3.319336,0.640625,5.200195,0.679688
			c2.160156-0.080078,4.279297-0.279297,6.320313-0.679688l-1.839844,7.041016c-4.560547,0-8.361328-0.600586-11.480469-1.720703
			c-1.519531-0.400391-2.880859-0.959961-4.120117-1.640625c-3.639648,1.600586-8.200195,2.84082-13.639648,3.640625
			l-2.360352-6.320313c4.600586-0.160156,8.319336-0.599609,11.200195-1.240234
			c-1.839844-2.160156-3.240234-4.798828-4.200195-7.919922l-3.520508,0.201172l-0.479492-3.480469L507,38.900391l0.439453-4.919922
			l-12.878906,1.080078l-0.759766-3.959961l14.039063-2.120117l0.44043-5.439453l4.44043,0.479492l0.239258,4.160156
			l14.280273-2.160156L528.320313,32.220703z M510.839844,49.621094c3.080078-1.640625,5.160156-3.960938,6.200195-6.919922
			l-11.919922,0.71875C506.599609,46.100586,508.519531,48.180664,510.839844,49.621094z"/>
		<path fill="#333333" d="M549.320313,35.380859l-5.400391,0.359375l0.160156,4.480469l3.679688-1.160156l1.560547,6
			l-5.040039,0.919922l0.479492,12.160156l-7.240234,0.679688l0.680664-11.719727L534,47.861328l-0.959961-4.240234
			l5.479492-1.680664l0.320313-5.839844l-4.439453,0.280273l-0.839844-4.360352l5.55957-1.080078l0.44043-7.55957l3.919922,0.359375
			l0.240234,6.320313l4.479492-0.839844L549.320313,35.380859z M568.800781,55.660156l-6.920898,3.121094
			c-0.200195-1.400391-0.399414-2.760742-0.639648-4.121094l-15.040039,1.280273l9.520508-31.399414l3.71875,0.519531
			l-4.919922,24.919922l5.240234-1.599609c-0.639648-2.200195-1.400391-4.320313-2.199219-6.360352l3.519531-1.799805
			C564.120117,44.100586,566.679688,49.260742,568.800781,55.660156z"/>
		<path fill="#333333" d="M577.956055,52.285156c-2.303711-3.060547-3.671875-6.408203-4.28418-10.224609
			c-0.611328-3.671875-0.900391-7.488281-1.080078-11.303711h2.160156l5.939453,0.467773v7.631836
			c0.144531,1.692383,0.46875,3.348633,0.900391,5.040039c0.324219,1.65625,0.935547,3.347656,1.980469,4.716797l0.791016,0.323242
			l1.512695-0.612305l3.347656,5.041016c-1.835938,1.367188-3.958984,1.979492-6.407227,1.798828
			C580.835938,54.876953,579.324219,53.976563,577.956055,52.285156z M599.591797,45.264648
			c-0.432617-2.124023-1.223633-4.104492-2.268555-5.94043c-1.079102-1.835938-2.447266-3.671875-3.81543-5.363281
			l5.651367-4.392578c1.836914,2.267578,3.348633,4.860352,4.428711,7.595703
			c1.043945,2.772461,1.511719,5.652344,1.511719,8.712891l-5.507813,0.143555V45.264648z"/>
		<path fill="#333333" d="M622.59668,57l-1.404297-12.491211h-0.432617c-1.692383,0.467773-3.383789,0.612305-5.040039,0.755859
			c-1.691406,0.143555-3.527344,0.288086-5.183594,0.467773l-0.612305-5.363281c3.204102-0.432617,6.264648-1.044922,9.288086-2.125
			c2.916016-0.899414,5.507813-2.735352,7.775391-5.328125c1.080078-1.222656,2.016602-2.447266,2.772461-3.81543
			c0.756836-1.368164,1.512695-2.735352,2.268555-4.139648h0.611328l6.552734,4.283203v0.324219
			c-1.369141,2.125-2.880859,4.248047-4.572266,6.228516c-1.835938,1.980469-3.816406,3.816406-5.94043,5.363281
			l-0.612305,16.919922h-5.470703V57z"/>
		<path fill="#333333" d="M648.37207,52.896484c1.65625-0.935547,3.204102-2.124023,4.71582-3.527344
			c1.547852-1.369141,2.916016-2.736328,4.139648-4.248047v-0.46875l-7.955078-3.958984v-0.613281l3.958984-6.550781h0.613281
			l7.487305,4.859375c0.755859-1.980469,1.511719-3.959961,1.979492-5.939453c0.46875-1.980469,0.755859-4.104492,0.612305-6.408203
			l1.835938-0.144531l6.551758,0.144531v2.123047c-0.287109,2.772461-0.899414,5.365234-1.835938,7.8125
			c-0.900391,2.412109-1.979492,4.859375-3.347656,7.164063l4.896484,4.572266v0.431641
			c-1.369141,1.404297-2.772461,2.448242-4.285156,3.204102l-4.714844-3.204102
			c-1.080078,1.548828-2.448242,3.060547-3.996094,4.427734c-1.368164,1.224609-2.736328,2.304688-4.104492,3.060547
			c-1.511719,0.935547-3.05957,1.691406-4.571289,2.447266L648.37207,52.896484z"/>
		<path fill="#333333" d="M710.651367,46.164063l-9-0.143555h-13.427734l-7.164063-0.143555v-1.224609l0.612305-5.795898h1.080078
			l6.551758,0.288086h9.612305l8.532227,0.179688l4.71582,0.289063l0.179688,6.550781H710.651367z"/>
		<path fill="#333333" d="M716.268555,41.592773V41.125l3.81543-5.94043l9.612305,4.71582l0.179688,0.46875l-2.160156,4.571289
			h-0.431641L716.268555,41.592773z M720.264648,31.224609v-0.324219l2.878906-6.408203h0.324219l11.412109,4.896484v0.467773
			c-0.431641,1.799805-0.900391,3.492188-1.65625,4.860352L720.264648,31.224609z M726.05957,58.835938l-1.223633-7.019531
			c2.735352-0.611328,5.328125-1.691406,7.776367-3.05957c2.447266-1.368164,4.71582-3.204102,6.695313-5.508789
			c1.080078-1.1875,1.980469-2.591797,2.772461-3.958984c0.755859-1.369141,1.188477-2.880859,1.655273-4.427734h0.46875
			l4.859375,0.791016v0.900391c-0.611328,2.736328-1.65625,5.328125-3.023438,7.631836
			c-1.368164,2.448242-3.204102,4.71582-5.364258,6.875977c-2.124023,1.980469-4.391602,3.492188-6.839844,4.859375
			c-2.591797,1.369141-5.18457,2.449219-7.776367,3.205078V58.835938z M739.452148,28.632813l3.816406-1.080078l1.546875,5.795898
			l-2.591797,1.080078L739.452148,28.632813z M744.81543,28.453125l3.816406-0.900391l0.900391,5.507813l-2.736328,0.755859
			L744.81543,28.453125z"/>
	</g>
</g>
<g>
	<g>
		<path fill="#FFE556" d="M794.80957,45.517578c-2.619141,0-4.75-2.130859-4.75-4.75s2.130859-4.75,4.75-4.75
			s4.75,2.130859,4.75,4.75S797.428711,45.517578,794.80957,45.517578z"/>
		<path fill="#333333" d="M794.80957,37.267578c1.929688,0,3.5,1.570313,3.5,3.5s-1.570313,3.5-3.5,3.5s-3.5-1.570313-3.5-3.5
			S792.879883,37.267578,794.80957,37.267578 M794.80957,34.767578c-3.313477,0-6,2.6875-6,6c0,3.314453,2.686523,6,6,6
			s6-2.685547,6-6C800.80957,37.455078,798.123047,34.767578,794.80957,34.767578L794.80957,34.767578z"/>
	</g>
	<g>
		<path fill="#ADCC33" d="M827.80957,45.517578c-2.619141,0-4.75-2.130859-4.75-4.75s2.130859-4.75,4.75-4.75
			s4.75,2.130859,4.75,4.75S830.428711,45.517578,827.80957,45.517578z"/>
		<path fill="#333333" d="M827.80957,37.267578c1.929688,0,3.5,1.570313,3.5,3.5s-1.570313,3.5-3.5,3.5s-3.5-1.570313-3.5-3.5
			S825.879883,37.267578,827.80957,37.267578 M827.80957,34.767578c-3.313477,0-6,2.6875-6,6c0,3.314453,2.686523,6,6,6
			s6-2.685547,6-6C833.80957,37.455078,831.123047,34.767578,827.80957,34.767578L827.80957,34.767578z"/>
	</g>
	<g>
		<path fill="#339900" d="M860.926758,45.517578c-2.619141,0-4.75-2.130859-4.75-4.75s2.130859-4.75,4.75-4.75
			s4.75,2.130859,4.75,4.75S863.545898,45.517578,860.926758,45.517578z"/>
		<path fill="#333333" d="M860.926758,37.267578c1.929688,0,3.5,1.570313,3.5,3.5s-1.570313,3.5-3.5,3.5s-3.5-1.570313-3.5-3.5
			S858.99707,37.267578,860.926758,37.267578 M860.926758,34.767578c-3.313477,0-6,2.6875-6,6c0,3.314453,2.686523,6,6,6
			s6-2.685547,6-6C866.926758,37.455078,864.240234,34.767578,860.926758,34.767578L860.926758,34.767578z"/>
	</g>
	<g>
		<path fill="#796CAF" d="M893.80957,45.517578c-2.619141,0-4.75-2.130859-4.75-4.75s2.130859-4.75,4.75-4.75
			s4.75,2.130859,4.75,4.75S896.428711,45.517578,893.80957,45.517578z"/>
		<path fill="#333333" d="M893.80957,37.267578c1.929688,0,3.5,1.570313,3.5,3.5s-1.570313,3.5-3.5,3.5s-3.5-1.570313-3.5-3.5
			S891.879883,37.267578,893.80957,37.267578 M893.80957,34.767578c-3.313477,0-6,2.6875-6,6c0,3.314453,2.686523,6,6,6
			s6-2.685547,6-6C899.80957,37.455078,897.123047,34.767578,893.80957,34.767578L893.80957,34.767578z"/>
	</g>
	<g>
		<path fill="#4F9FE0" d="M926.80957,45.517578c-2.619141,0-4.75-2.130859-4.75-4.75s2.130859-4.75,4.75-4.75
			s4.75,2.130859,4.75,4.75S929.428711,45.517578,926.80957,45.517578z"/>
		<path fill="#333333" d="M926.80957,37.267578c1.929688,0,3.5,1.570313,3.5,3.5s-1.570313,3.5-3.5,3.5s-3.5-1.570313-3.5-3.5
			S924.879883,37.267578,926.80957,37.267578 M926.80957,34.767578c-3.313477,0-6,2.6875-6,6c0,3.314453,2.686523,6,6,6
			s6-2.685547,6-6C932.80957,37.455078,930.123047,34.767578,926.80957,34.767578L926.80957,34.767578z"/>
	</g>
	<g>
		<path fill="#FF6F61" d="M959.80957,45.517578c-2.619141,0-4.75-2.130859-4.75-4.75s2.130859-4.75,4.75-4.75
			s4.75,2.130859,4.75,4.75S962.428711,45.517578,959.80957,45.517578z"/>
		<path fill="#333333" d="M959.80957,37.267578c1.929688,0,3.5,1.570313,3.5,3.5s-1.570313,3.5-3.5,3.5s-3.5-1.570313-3.5-3.5
			S957.879883,37.267578,959.80957,37.267578 M959.80957,34.767578c-3.313477,0-6,2.6875-6,6c0,3.314453,2.686523,6,6,6
			s6-2.685547,6-6C965.80957,37.455078,963.123047,34.767578,959.80957,34.767578L959.80957,34.767578z"/>
	</g>
	<g>
		<path fill="#FF9933" d="M992.80957,45.517578c-2.619141,0-4.75-2.130859-4.75-4.75s2.130859-4.75,4.75-4.75
			s4.75,2.130859,4.75,4.75S995.428711,45.517578,992.80957,45.517578z"/>
		<path fill="#333333" d="M992.80957,37.267578c1.929688,0,3.5,1.570313,3.5,3.5s-1.570313,3.5-3.5,3.5s-3.5-1.570313-3.5-3.5
			S990.879883,37.267578,992.80957,37.267578 M992.80957,34.767578c-3.313477,0-6,2.6875-6,6c0,3.314453,2.686523,6,6,6
			s6-2.685547,6-6C998.80957,37.455078,996.123047,34.767578,992.80957,34.767578L992.80957,34.767578z"/>
	</g>
	<g>
		<path fill="#FFE556" d="M1025.80957,45.517578c-2.619141,0-4.75-2.130859-4.75-4.75s2.130859-4.75,4.75-4.75
			s4.75,2.130859,4.75,4.75S1028.428711,45.517578,1025.80957,45.517578z"/>
		<path fill="#333333" d="M1025.80957,37.267578c1.929688,0,3.5,1.570313,3.5,3.5s-1.570313,3.5-3.5,3.5s-3.5-1.570313-3.5-3.5
			S1023.879883,37.267578,1025.80957,37.267578 M1025.80957,34.767578c-3.313477,0-6,2.6875-6,6c0,3.314453,2.686523,6,6,6
			s6-2.685547,6-6C1031.80957,37.455078,1029.123047,34.767578,1025.80957,34.767578L1025.80957,34.767578z"/>
	</g>
</g>
<g>
	<g>
		<path fill="#FFE556" d="M24.80957,45.517578c-2.619141,0-4.75-2.130859-4.75-4.75s2.130859-4.75,4.75-4.75
			s4.75,2.130859,4.75,4.75S27.428711,45.517578,24.80957,45.517578z"/>
		<path fill="#333333" d="M24.80957,37.267578c1.929688,0,3.5,1.570313,3.5,3.5s-1.570313,3.5-3.5,3.5s-3.5-1.570313-3.5-3.5
			S22.879883,37.267578,24.80957,37.267578 M24.80957,34.767578c-3.313477,0-6,2.6875-6,6c0,3.314453,2.686523,6,6,6s6-2.685547,6-6
			C30.80957,37.455078,28.123047,34.767578,24.80957,34.767578L24.80957,34.767578z"/>
	</g>
	<g>
		<path fill="#ADCC33" d="M57.80957,45.517578c-2.619141,0-4.75-2.130859-4.75-4.75s2.130859-4.75,4.75-4.75
			s4.75,2.130859,4.75,4.75S60.428711,45.517578,57.80957,45.517578z"/>
		<path fill="#333333" d="M57.80957,37.267578c1.929688,0,3.5,1.570313,3.5,3.5s-1.570313,3.5-3.5,3.5s-3.5-1.570313-3.5-3.5
			S55.879883,37.267578,57.80957,37.267578 M57.80957,34.767578c-3.313477,0-6,2.6875-6,6c0,3.314453,2.686523,6,6,6s6-2.685547,6-6
			C63.80957,37.455078,61.123047,34.767578,57.80957,34.767578L57.80957,34.767578z"/>
	</g>
	<g>
		<path fill="#339900" d="M90.926758,45.517578c-2.619141,0-4.75-2.130859-4.75-4.75s2.130859-4.75,4.75-4.75
			s4.75,2.130859,4.75,4.75S93.545898,45.517578,90.926758,45.517578z"/>
		<path fill="#333333" d="M90.926758,37.267578c1.929688,0,3.5,1.570313,3.5,3.5s-1.570313,3.5-3.5,3.5s-3.5-1.570313-3.5-3.5
			S88.99707,37.267578,90.926758,37.267578 M90.926758,34.767578c-3.313477,0-6,2.6875-6,6c0,3.314453,2.686523,6,6,6
			s6-2.685547,6-6C96.926758,37.455078,94.240234,34.767578,90.926758,34.767578L90.926758,34.767578z"/>
	</g>
	<g>
		<path fill="#796CAF" d="M123.80957,45.517578c-2.619141,0-4.75-2.130859-4.75-4.75s2.130859-4.75,4.75-4.75
			s4.75,2.130859,4.75,4.75S126.428711,45.517578,123.80957,45.517578z"/>
		<path fill="#333333" d="M123.80957,37.267578c1.929688,0,3.5,1.570313,3.5,3.5s-1.570313,3.5-3.5,3.5s-3.5-1.570313-3.5-3.5
			S121.879883,37.267578,123.80957,37.267578 M123.80957,34.767578c-3.313477,0-6,2.6875-6,6c0,3.314453,2.686523,6,6,6
			s6-2.685547,6-6C129.80957,37.455078,127.123047,34.767578,123.80957,34.767578L123.80957,34.767578z"/>
	</g>
	<g>
		<path fill="#4F9FE0" d="M156.80957,45.517578c-2.619141,0-4.75-2.130859-4.75-4.75s2.130859-4.75,4.75-4.75
			s4.75,2.130859,4.75,4.75S159.428711,45.517578,156.80957,45.517578z"/>
		<path fill="#333333" d="M156.80957,37.267578c1.929688,0,3.5,1.570313,3.5,3.5s-1.570313,3.5-3.5,3.5s-3.5-1.570313-3.5-3.5
			S154.879883,37.267578,156.80957,37.267578 M156.80957,34.767578c-3.313477,0-6,2.6875-6,6c0,3.314453,2.686523,6,6,6
			s6-2.685547,6-6C162.80957,37.455078,160.123047,34.767578,156.80957,34.767578L156.80957,34.767578z"/>
	</g>
	<g>
		<path fill="#FF6F61" d="M189.80957,45.517578c-2.619141,0-4.75-2.130859-4.75-4.75s2.130859-4.75,4.75-4.75
			s4.75,2.130859,4.75,4.75S192.428711,45.517578,189.80957,45.517578z"/>
		<path fill="#333333" d="M189.80957,37.267578c1.929688,0,3.5,1.570313,3.5,3.5s-1.570313,3.5-3.5,3.5s-3.5-1.570313-3.5-3.5
			S187.879883,37.267578,189.80957,37.267578 M189.80957,34.767578c-3.313477,0-6,2.6875-6,6c0,3.314453,2.686523,6,6,6
			s6-2.685547,6-6C195.80957,37.455078,193.123047,34.767578,189.80957,34.767578L189.80957,34.767578z"/>
	</g>
	<g>
		<path fill="#FF9933" d="M222.80957,45.517578c-2.619141,0-4.75-2.130859-4.75-4.75s2.130859-4.75,4.75-4.75
			s4.75,2.130859,4.75,4.75S225.428711,45.517578,222.80957,45.517578z"/>
		<path fill="#333333" d="M222.80957,37.267578c1.929688,0,3.5,1.570313,3.5,3.5s-1.570313,3.5-3.5,3.5s-3.5-1.570313-3.5-3.5
			S220.879883,37.267578,222.80957,37.267578 M222.80957,34.767578c-3.313477,0-6,2.6875-6,6c0,3.314453,2.686523,6,6,6
			s6-2.685547,6-6C228.80957,37.455078,226.123047,34.767578,222.80957,34.767578L222.80957,34.767578z"/>
	</g>
	<g>
		<path fill="#FFE556" d="M255.80957,45.517578c-2.619141,0-4.75-2.130859-4.75-4.75s2.130859-4.75,4.75-4.75
			s4.75,2.130859,4.75,4.75S258.428711,45.517578,255.80957,45.517578z"/>
		<path fill="#333333" d="M255.80957,37.267578c1.929688,0,3.5,1.570313,3.5,3.5s-1.570313,3.5-3.5,3.5s-3.5-1.570313-3.5-3.5
			S253.879883,37.267578,255.80957,37.267578 M255.80957,34.767578c-3.313477,0-6,2.6875-6,6c0,3.314453,2.686523,6,6,6
			s6-2.685547,6-6C261.80957,37.455078,259.123047,34.767578,255.80957,34.767578L255.80957,34.767578z"/>
	</g>
</g>
</svg>
