<?xml version="1.0" encoding="utf-8"?>
<!-- Generator: Adobe Illustrator 16.0.0, SVG Export Plug-In . SVG Version: 6.00 Build 0)  -->
<!DOCTYPE svg PUBLIC "-//W3C//DTD SVG 1.1//EN" "http://www.w3.org/Graphics/SVG/1.1/DTD/svg11.dtd">
<svg version="1.1" id="レイヤー_1" xmlns="http://www.w3.org/2000/svg" xmlns:xlink="http://www.w3.org/1999/xlink" x="0px"
	 y="0px" width="1053px" height="78px" viewBox="0 0 1053 78" enable-background="new 0 0 1053 78" xml:space="preserve">
<g>
	<g>
		<path fill="#333333" d="M478.43-7030.907l-6.16,0.84l0.04-0.48l-9.84,0.64c-0.08,0.44-0.16,0.84-0.238,1.2l18.038-1.92l0.802,4.68
			l-5.96,0.36c2.08,0.88,4.68,1.68,7.721,2.36l-3.32,5.92c-1.801-0.8-3.438-1.72-4.92-2.76c-0.041,0.44-0.041,0.76-0.041,1
			c0,4.64-2.719,7.2-8.079,7.64l-2.08-5.8c3.521,0,5.319-0.84,5.44-2.44l-5.121,0.12c-1.68,4.64-5.08,7.32-10.199,8.04l-1.76-6.12
			c0.56,0.04,1.16,0.08,1.72,0.08c2.159-0.08,3.84-0.72,5.12-1.88l-3.041,0.08l-0.079-0.6c-2.08,1.48-4.601,2.52-7.601,3.08
			l-2.72-5.64c3.158-0.24,5.761-0.88,7.761-1.88l-6.201,0.36l-0.6-3.12l11.158-1.16c0.24-0.44,0.439-0.88,0.602-1.36l-2.119,0.16
			v0.44l-5.961,0.84l1.4-11.72l24.398-1.6L478.43-7030.907z M482.109-7042.868l-9.279,0.4l0.08,0.64l-6.121,0.64l0.201-1.04
			l-5.041,0.24l0.12,0.96l-6.159,0.6l0.239-1.32l-9.04,0.4l-0.521-3.2l10.279-0.92l0.398-2.16l3.96,0.4l0.2,1.36l6.4-0.6l0.318-1.48
			l3.921,0.36l0.119,0.72l9.119-0.8L482.109-7042.868z M472.83-7037.387v-0.12l-16.48,0.08l0.08,1.68L472.83-7037.387z
			 M472.549-7033.788l0.041-0.44l-16.041,0.8l0.08,1.4L472.549-7033.788z M459.27-7022.547l2.439-0.24
			c0.24-0.64,0.4-1.32,0.521-2.08l-1.479,0.08C460.31-7023.947,459.83-7023.188,459.27-7022.547z M465.75-7024.387
			c-0.041,0.48-0.08,0.88-0.16,1.24l4.72-0.4c-0.56-0.52-1.078-1.08-1.56-1.68l-5.84,0.32L465.75-7024.387z"/>
		<path fill="#333333" d="M499.43-7045.228c-0.358,1.08-0.721,2.08-1.12,3l5.319-0.56c-0.159-0.96-0.359-1.88-0.6-2.76l4.238-1.72
			c0.96,1.2,1.723,2.48,2.279,3.84l9-1l0.841,4.68l-10.397,0.4l0.079,0.72l8.8-0.72l0.561,3.32l-9.08,0.24l0.08,0.96l8.48-0.68
			l0.56,3.32l-8.761,0.2l0.121,1.08l9.879-1.04l0.801,4.68l-22.561,0.84l0.08,0.96l-6.802,0.28l0.722-8.44
			c-0.84,0.72-1.682,1.36-2.562,1.92l-2.72-7.2c3.6-1.04,6.72-4,9.359-8.96L499.43-7045.228z M521.229-7021.107l-8.56,0.28
			c2.879,1.28,6.039,2.28,9.521,3.04l-3.643,6.24c-3.959-1.64-7.479-3.76-10.6-6.48l0.561,6.2l-7.2,0.32l0.762-7.56
			c-3.12,3.84-7,6.32-11.602,7.56l-3-6.32c3.44-0.24,6.399-1.08,8.96-2.44l-7.76,0.24l-0.562-3.72l14.521-1.32l0.121-1.28
			l4.479,0.44l0.04,0.44l13.04-1.2L521.229-7021.107z M504.189-7039.188l-7.199,0.24l0.079,1.28l7-0.56L504.189-7039.188z
			 M503.789-7035.627l-6.562,0.16l0.12,1.6l6.32-0.52L503.789-7035.627z M503.39-7031.828l-5.88,0.12l0.16,2.12l5.562-0.6
			L503.39-7031.828z"/>
		<path fill="#333333" d="M561.59-7042.147l-11.961,0.56l0.121,1l8.56-0.72l2.08,12.2l-6.88,0.8l0.08-0.72l-10.2,0.36l0.44,0.16
			c-0.121,0.64-0.24,1.2-0.36,1.76l17.88-1.76l0.882,5.4l-8.36,0.44c-0.561,1.2-1.279,2.32-2.16,3.36c3.36,0.64,6.521,1.4,9.48,2.24
			l-2.92,5.96c-3.922-1.72-7.842-3.2-11.682-4.4c-4.24,2.16-10.041,3.56-17.358,4.16l-1.562-5.84c1.642,0.08,3.279,0.16,4.959,0.2
			c2.48,0,4.683-0.16,6.683-0.52c-2.479-0.6-4.962-1.12-7.36-1.52c1.041-0.56,2.12-1.48,3.2-2.76l-7.92,0.4l-0.603-3.68l11.723-1.16
			c0.398-0.72,0.84-1.48,1.318-2.32l-4.641,0.16l0.08,0.84l-6.88,0.24l1.681-11.64l8-0.68l0.119-1.44l-10.521,0.48l-0.6-3.6
			l33.76-3.48L561.59-7042.147z M537.27-7031.987l0.32-3.76l-3.12,0.04l0.319,4L537.27-7031.987z M548.869-7022.427l-6.8,0.32
			c-0.239,0.48-0.44,0.88-0.682,1.2c1.722,0.24,3.399,0.44,5.08,0.68C547.43-7020.868,548.229-7021.627,548.869-7022.427z
			 M545.869-7041.427l-4.16,0.2l0.16,1.28l3.92-0.32L545.869-7041.427z M545.189-7032.907l0.238-2.96l-3.08,0.04l0.359,3.2
			L545.189-7032.907z M553.99-7033.947l0.199-2.04l-3.922,0.04l0.279,2.4L553.99-7033.947z"/>
		<path fill="#333333" d="M602.029-7041.828l-7.802,0.28l-0.078,1.76l5.8-0.48l1.561,20.04l-4.32,0.52
			c1.842,0.96,3.762,1.64,5.842,2l-3.602,6.16c-2.479-1.76-4.641-3.64-6.438-5.68l1.76-2.2h-0.121l0.041-0.6l-5.561,0.12l0.04,0.36
			l-0.603,0.08l1.721,1.52c-1.6,3.04-3.68,5.24-6.158,6.52l-3.563-5.6c1.563-0.28,3.281-1,5.121-2.16l-3.121,0.36l0.08-1.6
			l-14.639,3.32l-1.24-4.4l4.439-1.72l1.318-12.72l-4.278,0.32l-0.802-4.16l13.359-3.16l1.121,6.24l-4.92,0.4l0.479,10.64l3.562-1.4
			l1.641,5.88l0.959-17.76l4.722-0.4l0.801-2l-6.801,0.28l-0.761-4.08l19.4-2.64L602.029-7041.828z M595.59-7034.987l0.039-0.4
			h-7.397l0.079,1.64L595.59-7034.987z M595.31-7030.228l0.04-0.6l-6.84,0.4l0.08,1.56L595.31-7030.228z M594.949-7024.907
			l0.08-1.16l-6.24,0.4l0.121,1.72L594.949-7024.907z"/>
	</g>
</g>
<g>
	<g>
		<path fill="#FF9933" d="M24-7025.25c-2.619,0-4.75-2.131-4.75-4.75s2.131-4.75,4.75-4.75s4.75,2.131,4.75,4.75
			S26.619-7025.25,24-7025.25z"/>
		<path fill="#333333" d="M24-7033.5c1.93,0,3.5,1.57,3.5,3.5s-1.57,3.5-3.5,3.5s-3.5-1.57-3.5-3.5S22.07-7033.5,24-7033.5 M24-7036
			c-3.313,0-6,2.687-6,6c0,3.314,2.687,6,6,6s6-2.686,6-6C30-7033.313,27.313-7036,24-7036L24-7036z"/>
	</g>
	<g>
		<path fill="#FFE556" d="M57-7025.25c-2.619,0-4.75-2.131-4.75-4.75s2.131-4.75,4.75-4.75s4.75,2.131,4.75,4.75
			S59.619-7025.25,57-7025.25z"/>
		<path fill="#333333" d="M57-7033.5c1.93,0,3.5,1.57,3.5,3.5s-1.57,3.5-3.5,3.5s-3.5-1.57-3.5-3.5S55.07-7033.5,57-7033.5 M57-7036
			c-3.313,0-6,2.687-6,6c0,3.314,2.687,6,6,6s6-2.686,6-6C63-7033.313,60.313-7036,57-7036L57-7036z"/>
	</g>
	<g>
		<path fill="#ADCC33" d="M90-7025.25c-2.619,0-4.75-2.131-4.75-4.75s2.131-4.75,4.75-4.75s4.75,2.131,4.75,4.75
			S92.619-7025.25,90-7025.25z"/>
		<path fill="#333333" d="M90-7033.5c1.93,0,3.5,1.57,3.5,3.5s-1.57,3.5-3.5,3.5s-3.5-1.57-3.5-3.5S88.07-7033.5,90-7033.5 M90-7036
			c-3.313,0-6,2.687-6,6c0,3.314,2.687,6,6,6s6-2.686,6-6C96-7033.313,93.313-7036,90-7036L90-7036z"/>
	</g>
	<g>
		<path fill="#339900" d="M123-7025.25c-2.619,0-4.75-2.131-4.75-4.75s2.131-4.75,4.75-4.75s4.75,2.131,4.75,4.75
			S125.619-7025.25,123-7025.25z"/>
		<path fill="#333333" d="M123-7033.5c1.93,0,3.5,1.57,3.5,3.5s-1.57,3.5-3.5,3.5s-3.5-1.57-3.5-3.5S121.07-7033.5,123-7033.5
			 M123-7036c-3.313,0-6,2.687-6,6c0,3.314,2.687,6,6,6s6-2.686,6-6C129-7033.313,126.313-7036,123-7036L123-7036z"/>
	</g>
	<g>
		<path fill="#796CAF" d="M156-7025.25c-2.619,0-4.75-2.131-4.75-4.75s2.131-4.75,4.75-4.75s4.75,2.131,4.75,4.75
			S158.619-7025.25,156-7025.25z"/>
		<path fill="#333333" d="M156-7033.5c1.93,0,3.5,1.57,3.5,3.5s-1.57,3.5-3.5,3.5s-3.5-1.57-3.5-3.5S154.07-7033.5,156-7033.5
			 M156-7036c-3.313,0-6,2.687-6,6c0,3.314,2.687,6,6,6s6-2.686,6-6C162-7033.313,159.313-7036,156-7036L156-7036z"/>
	</g>
	<g>
		<path fill="#4F9FE0" d="M189-7025.25c-2.619,0-4.75-2.131-4.75-4.75s2.131-4.75,4.75-4.75s4.75,2.131,4.75,4.75
			S191.619-7025.25,189-7025.25z"/>
		<path fill="#333333" d="M189-7033.5c1.93,0,3.5,1.57,3.5,3.5s-1.57,3.5-3.5,3.5s-3.5-1.57-3.5-3.5S187.07-7033.5,189-7033.5
			 M189-7036c-3.313,0-6,2.687-6,6c0,3.314,2.687,6,6,6s6-2.686,6-6C195-7033.313,192.313-7036,189-7036L189-7036z"/>
	</g>
	<g>
		<path fill="#FF6F61" d="M222-7025.25c-2.619,0-4.75-2.131-4.75-4.75s2.131-4.75,4.75-4.75s4.75,2.131,4.75,4.75
			S224.619-7025.25,222-7025.25z"/>
		<path fill="#333333" d="M222-7033.5c1.93,0,3.5,1.57,3.5,3.5s-1.57,3.5-3.5,3.5s-3.5-1.57-3.5-3.5S220.07-7033.5,222-7033.5
			 M222-7036c-3.313,0-6,2.687-6,6c0,3.314,2.687,6,6,6s6-2.686,6-6C228-7033.313,225.313-7036,222-7036L222-7036z"/>
	</g>
	<g>
		<path fill="#FF9933" d="M255-7025.25c-2.619,0-4.75-2.131-4.75-4.75s2.131-4.75,4.75-4.75s4.75,2.131,4.75,4.75
			S257.619-7025.25,255-7025.25z"/>
		<path fill="#333333" d="M255-7033.5c1.93,0,3.5,1.57,3.5,3.5s-1.57,3.5-3.5,3.5s-3.5-1.57-3.5-3.5S253.07-7033.5,255-7033.5
			 M255-7036c-3.313,0-6,2.687-6,6c0,3.314,2.687,6,6,6s6-2.686,6-6C261-7033.313,258.313-7036,255-7036L255-7036z"/>
	</g>
	<g>
		<path fill="#FFE556" d="M288-7025.25c-2.619,0-4.75-2.131-4.75-4.75s2.131-4.75,4.75-4.75s4.75,2.131,4.75,4.75
			S290.619-7025.25,288-7025.25z"/>
		<path fill="#333333" d="M288-7033.5c1.93,0,3.5,1.57,3.5,3.5s-1.57,3.5-3.5,3.5s-3.5-1.57-3.5-3.5S286.07-7033.5,288-7033.5
			 M288-7036c-3.313,0-6,2.687-6,6c0,3.314,2.687,6,6,6s6-2.686,6-6C294-7033.313,291.313-7036,288-7036L288-7036z"/>
	</g>
</g>
<g>
	<g>
		<path fill="#FF9933" d="M761-7025.25c-2.619,0-4.75-2.131-4.75-4.75s2.131-4.75,4.75-4.75s4.75,2.131,4.75,4.75
			S763.619-7025.25,761-7025.25z"/>
		<path fill="#333333" d="M761-7033.5c1.93,0,3.5,1.57,3.5,3.5s-1.57,3.5-3.5,3.5s-3.5-1.57-3.5-3.5S759.07-7033.5,761-7033.5
			 M761-7036c-3.313,0-6,2.687-6,6c0,3.314,2.688,6,6,6s6-2.686,6-6C767-7033.313,764.313-7036,761-7036L761-7036z"/>
	</g>
	<g>
		<path fill="#FFE556" d="M794-7025.25c-2.619,0-4.75-2.131-4.75-4.75s2.131-4.75,4.75-4.75s4.75,2.131,4.75,4.75
			S796.619-7025.25,794-7025.25z"/>
		<path fill="#333333" d="M794-7033.5c1.93,0,3.5,1.57,3.5,3.5s-1.57,3.5-3.5,3.5s-3.5-1.57-3.5-3.5S792.07-7033.5,794-7033.5
			 M794-7036c-3.313,0-6,2.687-6,6c0,3.314,2.688,6,6,6s6-2.686,6-6C800-7033.313,797.313-7036,794-7036L794-7036z"/>
	</g>
	<g>
		<path fill="#ADCC33" d="M827-7025.25c-2.619,0-4.75-2.131-4.75-4.75s2.131-4.75,4.75-4.75s4.75,2.131,4.75,4.75
			S829.619-7025.25,827-7025.25z"/>
		<path fill="#333333" d="M827-7033.5c1.93,0,3.5,1.57,3.5,3.5s-1.57,3.5-3.5,3.5s-3.5-1.57-3.5-3.5S825.07-7033.5,827-7033.5
			 M827-7036c-3.313,0-6,2.687-6,6c0,3.314,2.688,6,6,6s6-2.686,6-6C833-7033.313,830.313-7036,827-7036L827-7036z"/>
	</g>
	<g>
		<path fill="#339900" d="M860-7025.25c-2.619,0-4.75-2.131-4.75-4.75s2.131-4.75,4.75-4.75s4.75,2.131,4.75,4.75
			S862.619-7025.25,860-7025.25z"/>
		<path fill="#333333" d="M860-7033.5c1.93,0,3.5,1.57,3.5,3.5s-1.57,3.5-3.5,3.5s-3.5-1.57-3.5-3.5S858.07-7033.5,860-7033.5
			 M860-7036c-3.313,0-6,2.687-6,6c0,3.314,2.688,6,6,6s6-2.686,6-6C866-7033.313,863.313-7036,860-7036L860-7036z"/>
	</g>
	<g>
		<path fill="#796CAF" d="M893-7025.25c-2.619,0-4.75-2.131-4.75-4.75s2.131-4.75,4.75-4.75s4.75,2.131,4.75,4.75
			S895.619-7025.25,893-7025.25z"/>
		<path fill="#333333" d="M893-7033.5c1.93,0,3.5,1.57,3.5,3.5s-1.57,3.5-3.5,3.5s-3.5-1.57-3.5-3.5S891.07-7033.5,893-7033.5
			 M893-7036c-3.313,0-6,2.687-6,6c0,3.314,2.688,6,6,6s6-2.686,6-6C899-7033.313,896.313-7036,893-7036L893-7036z"/>
	</g>
	<g>
		<path fill="#4F9FE0" d="M926-7025.25c-2.619,0-4.75-2.131-4.75-4.75s2.131-4.75,4.75-4.75s4.75,2.131,4.75,4.75
			S928.619-7025.25,926-7025.25z"/>
		<path fill="#333333" d="M926-7033.5c1.93,0,3.5,1.57,3.5,3.5s-1.57,3.5-3.5,3.5s-3.5-1.57-3.5-3.5S924.07-7033.5,926-7033.5
			 M926-7036c-3.313,0-6,2.687-6,6c0,3.314,2.688,6,6,6s6-2.686,6-6C932-7033.313,929.313-7036,926-7036L926-7036z"/>
	</g>
	<g>
		<path fill="#FF6F61" d="M959-7025.25c-2.619,0-4.75-2.131-4.75-4.75s2.131-4.75,4.75-4.75s4.75,2.131,4.75,4.75
			S961.619-7025.25,959-7025.25z"/>
		<path fill="#333333" d="M959-7033.5c1.93,0,3.5,1.57,3.5,3.5s-1.57,3.5-3.5,3.5s-3.5-1.57-3.5-3.5S957.07-7033.5,959-7033.5
			 M959-7036c-3.313,0-6,2.687-6,6c0,3.314,2.688,6,6,6s6-2.686,6-6C965-7033.313,962.313-7036,959-7036L959-7036z"/>
	</g>
	<g>
		<path fill="#FF9933" d="M992-7025.25c-2.619,0-4.75-2.131-4.75-4.75s2.131-4.75,4.75-4.75s4.75,2.131,4.75,4.75
			S994.619-7025.25,992-7025.25z"/>
		<path fill="#333333" d="M992-7033.5c1.93,0,3.5,1.57,3.5,3.5s-1.57,3.5-3.5,3.5s-3.5-1.57-3.5-3.5S990.07-7033.5,992-7033.5
			 M992-7036c-3.313,0-6,2.687-6,6c0,3.314,2.688,6,6,6s6-2.686,6-6C998-7033.313,995.313-7036,992-7036L992-7036z"/>
	</g>
	<g>
		<path fill="#FFE556" d="M1025-7025.25c-2.619,0-4.75-2.131-4.75-4.75s2.131-4.75,4.75-4.75s4.75,2.131,4.75,4.75
			S1027.619-7025.25,1025-7025.25z"/>
		<path fill="#333333" d="M1025-7033.5c1.93,0,3.5,1.57,3.5,3.5s-1.57,3.5-3.5,3.5s-3.5-1.57-3.5-3.5S1023.07-7033.5,1025-7033.5
			 M1025-7036c-3.313,0-6,2.687-6,6c0,3.314,2.688,6,6,6s6-2.686,6-6C1031-7033.313,1028.313-7036,1025-7036L1025-7036z"/>
	</g>
</g>
<g>
	<g>
		<path fill="#333333" d="M478.43-7030.907l-6.16,0.84l0.04-0.48l-9.84,0.64c-0.08,0.44-0.16,0.84-0.238,1.2l18.038-1.92l0.802,4.68
			l-5.96,0.36c2.08,0.88,4.68,1.68,7.721,2.36l-3.32,5.92c-1.801-0.8-3.438-1.72-4.92-2.76c-0.041,0.44-0.041,0.76-0.041,1
			c0,4.64-2.719,7.2-8.079,7.64l-2.08-5.8c3.521,0,5.319-0.84,5.44-2.44l-5.121,0.12c-1.68,4.64-5.08,7.32-10.199,8.04l-1.76-6.12
			c0.56,0.04,1.16,0.08,1.72,0.08c2.159-0.08,3.84-0.72,5.12-1.88l-3.041,0.08l-0.079-0.6c-2.08,1.48-4.601,2.52-7.601,3.08
			l-2.72-5.64c3.158-0.24,5.761-0.88,7.761-1.88l-6.201,0.36l-0.6-3.12l11.158-1.16c0.24-0.44,0.439-0.88,0.602-1.36l-2.119,0.16
			v0.44l-5.961,0.84l1.4-11.72l24.398-1.6L478.43-7030.907z M482.109-7042.868l-9.279,0.4l0.08,0.64l-6.121,0.64l0.201-1.04
			l-5.041,0.24l0.12,0.96l-6.159,0.6l0.239-1.32l-9.04,0.4l-0.521-3.2l10.279-0.92l0.398-2.16l3.96,0.4l0.2,1.36l6.4-0.6l0.318-1.48
			l3.921,0.36l0.119,0.72l9.119-0.8L482.109-7042.868z M472.83-7037.387v-0.12l-16.48,0.08l0.08,1.68L472.83-7037.387z
			 M472.549-7033.788l0.041-0.44l-16.041,0.8l0.08,1.4L472.549-7033.788z M459.27-7022.547l2.439-0.24
			c0.24-0.64,0.4-1.32,0.521-2.08l-1.479,0.08C460.31-7023.947,459.83-7023.188,459.27-7022.547z M465.75-7024.387
			c-0.041,0.48-0.08,0.88-0.16,1.24l4.72-0.4c-0.56-0.52-1.078-1.08-1.56-1.68l-5.84,0.32L465.75-7024.387z"/>
		<path fill="#333333" d="M499.43-7045.228c-0.358,1.08-0.721,2.08-1.12,3l5.319-0.56c-0.159-0.96-0.359-1.88-0.6-2.76l4.238-1.72
			c0.96,1.2,1.723,2.48,2.279,3.84l9-1l0.841,4.68l-10.397,0.4l0.079,0.72l8.8-0.72l0.561,3.32l-9.08,0.24l0.08,0.96l8.48-0.68
			l0.56,3.32l-8.761,0.2l0.121,1.08l9.879-1.04l0.801,4.68l-22.561,0.84l0.08,0.96l-6.802,0.28l0.722-8.44
			c-0.84,0.72-1.682,1.36-2.562,1.92l-2.72-7.2c3.6-1.04,6.72-4,9.359-8.96L499.43-7045.228z M521.229-7021.107l-8.56,0.28
			c2.879,1.28,6.039,2.28,9.521,3.04l-3.643,6.24c-3.959-1.64-7.479-3.76-10.6-6.48l0.561,6.2l-7.2,0.32l0.762-7.56
			c-3.12,3.84-7,6.32-11.602,7.56l-3-6.32c3.44-0.24,6.399-1.08,8.96-2.44l-7.76,0.24l-0.562-3.72l14.521-1.32l0.121-1.28
			l4.479,0.44l0.04,0.44l13.04-1.2L521.229-7021.107z M504.189-7039.188l-7.199,0.24l0.079,1.28l7-0.56L504.189-7039.188z
			 M503.789-7035.627l-6.562,0.16l0.12,1.6l6.32-0.52L503.789-7035.627z M503.39-7031.828l-5.88,0.12l0.16,2.12l5.562-0.6
			L503.39-7031.828z"/>
		<path fill="#333333" d="M561.59-7042.147l-11.961,0.56l0.121,1l8.56-0.72l2.08,12.2l-6.88,0.8l0.08-0.72l-10.2,0.36l0.44,0.16
			c-0.121,0.64-0.24,1.2-0.36,1.76l17.88-1.76l0.882,5.4l-8.36,0.44c-0.561,1.2-1.279,2.32-2.16,3.36c3.36,0.64,6.521,1.4,9.48,2.24
			l-2.92,5.96c-3.922-1.72-7.842-3.2-11.682-4.4c-4.24,2.16-10.041,3.56-17.358,4.16l-1.562-5.84c1.642,0.08,3.279,0.16,4.959,0.2
			c2.48,0,4.683-0.16,6.683-0.52c-2.479-0.6-4.962-1.12-7.36-1.52c1.041-0.56,2.12-1.48,3.2-2.76l-7.92,0.4l-0.603-3.68l11.723-1.16
			c0.398-0.72,0.84-1.48,1.318-2.32l-4.641,0.16l0.08,0.84l-6.88,0.24l1.681-11.64l8-0.68l0.119-1.44l-10.521,0.48l-0.6-3.6
			l33.76-3.48L561.59-7042.147z M537.27-7031.987l0.32-3.76l-3.12,0.04l0.319,4L537.27-7031.987z M548.869-7022.427l-6.8,0.32
			c-0.239,0.48-0.44,0.88-0.682,1.2c1.722,0.24,3.399,0.44,5.08,0.68C547.43-7020.868,548.229-7021.627,548.869-7022.427z
			 M545.869-7041.427l-4.16,0.2l0.16,1.28l3.92-0.32L545.869-7041.427z M545.189-7032.907l0.238-2.96l-3.08,0.04l0.359,3.2
			L545.189-7032.907z M553.99-7033.947l0.199-2.04l-3.922,0.04l0.279,2.4L553.99-7033.947z"/>
		<path fill="#333333" d="M602.029-7041.828l-7.802,0.28l-0.078,1.76l5.8-0.48l1.561,20.04l-4.32,0.52
			c1.842,0.96,3.762,1.64,5.842,2l-3.602,6.16c-2.479-1.76-4.641-3.64-6.438-5.68l1.76-2.2h-0.121l0.041-0.6l-5.561,0.12l0.04,0.36
			l-0.603,0.08l1.721,1.52c-1.6,3.04-3.68,5.24-6.158,6.52l-3.563-5.6c1.563-0.28,3.281-1,5.121-2.16l-3.121,0.36l0.08-1.6
			l-14.639,3.32l-1.24-4.4l4.439-1.72l1.318-12.72l-4.278,0.32l-0.802-4.16l13.359-3.16l1.121,6.24l-4.92,0.4l0.479,10.64l3.562-1.4
			l1.641,5.88l0.959-17.76l4.722-0.4l0.801-2l-6.801,0.28l-0.761-4.08l19.4-2.64L602.029-7041.828z M595.59-7034.987l0.039-0.4
			h-7.397l0.079,1.64L595.59-7034.987z M595.31-7030.228l0.04-0.6l-6.84,0.4l0.08,1.56L595.31-7030.228z M594.949-7024.907
			l0.08-1.16l-6.24,0.4l0.121,1.72L594.949-7024.907z"/>
	</g>
</g>
<g>
	<g>
		<path fill="#FF9933" d="M24-7025.25c-2.619,0-4.75-2.131-4.75-4.75s2.131-4.75,4.75-4.75s4.75,2.131,4.75,4.75
			S26.619-7025.25,24-7025.25z"/>
		<path fill="#333333" d="M24-7033.5c1.93,0,3.5,1.57,3.5,3.5s-1.57,3.5-3.5,3.5s-3.5-1.57-3.5-3.5S22.07-7033.5,24-7033.5 M24-7036
			c-3.313,0-6,2.687-6,6c0,3.314,2.687,6,6,6s6-2.686,6-6C30-7033.313,27.313-7036,24-7036L24-7036z"/>
	</g>
	<g>
		<path fill="#FFE556" d="M57-7025.25c-2.619,0-4.75-2.131-4.75-4.75s2.131-4.75,4.75-4.75s4.75,2.131,4.75,4.75
			S59.619-7025.25,57-7025.25z"/>
		<path fill="#333333" d="M57-7033.5c1.93,0,3.5,1.57,3.5,3.5s-1.57,3.5-3.5,3.5s-3.5-1.57-3.5-3.5S55.07-7033.5,57-7033.5 M57-7036
			c-3.313,0-6,2.687-6,6c0,3.314,2.687,6,6,6s6-2.686,6-6C63-7033.313,60.313-7036,57-7036L57-7036z"/>
	</g>
	<g>
		<path fill="#ADCC33" d="M90-7025.25c-2.619,0-4.75-2.131-4.75-4.75s2.131-4.75,4.75-4.75s4.75,2.131,4.75,4.75
			S92.619-7025.25,90-7025.25z"/>
		<path fill="#333333" d="M90-7033.5c1.93,0,3.5,1.57,3.5,3.5s-1.57,3.5-3.5,3.5s-3.5-1.57-3.5-3.5S88.07-7033.5,90-7033.5 M90-7036
			c-3.313,0-6,2.687-6,6c0,3.314,2.687,6,6,6s6-2.686,6-6C96-7033.313,93.313-7036,90-7036L90-7036z"/>
	</g>
	<g>
		<path fill="#339900" d="M123-7025.25c-2.619,0-4.75-2.131-4.75-4.75s2.131-4.75,4.75-4.75s4.75,2.131,4.75,4.75
			S125.619-7025.25,123-7025.25z"/>
		<path fill="#333333" d="M123-7033.5c1.93,0,3.5,1.57,3.5,3.5s-1.57,3.5-3.5,3.5s-3.5-1.57-3.5-3.5S121.07-7033.5,123-7033.5
			 M123-7036c-3.313,0-6,2.687-6,6c0,3.314,2.687,6,6,6s6-2.686,6-6C129-7033.313,126.313-7036,123-7036L123-7036z"/>
	</g>
	<g>
		<path fill="#796CAF" d="M156-7025.25c-2.619,0-4.75-2.131-4.75-4.75s2.131-4.75,4.75-4.75s4.75,2.131,4.75,4.75
			S158.619-7025.25,156-7025.25z"/>
		<path fill="#333333" d="M156-7033.5c1.93,0,3.5,1.57,3.5,3.5s-1.57,3.5-3.5,3.5s-3.5-1.57-3.5-3.5S154.07-7033.5,156-7033.5
			 M156-7036c-3.313,0-6,2.687-6,6c0,3.314,2.687,6,6,6s6-2.686,6-6C162-7033.313,159.313-7036,156-7036L156-7036z"/>
	</g>
	<g>
		<path fill="#4F9FE0" d="M189-7025.25c-2.619,0-4.75-2.131-4.75-4.75s2.131-4.75,4.75-4.75s4.75,2.131,4.75,4.75
			S191.619-7025.25,189-7025.25z"/>
		<path fill="#333333" d="M189-7033.5c1.93,0,3.5,1.57,3.5,3.5s-1.57,3.5-3.5,3.5s-3.5-1.57-3.5-3.5S187.07-7033.5,189-7033.5
			 M189-7036c-3.313,0-6,2.687-6,6c0,3.314,2.687,6,6,6s6-2.686,6-6C195-7033.313,192.313-7036,189-7036L189-7036z"/>
	</g>
	<g>
		<path fill="#FF6F61" d="M222-7025.25c-2.619,0-4.75-2.131-4.75-4.75s2.131-4.75,4.75-4.75s4.75,2.131,4.75,4.75
			S224.619-7025.25,222-7025.25z"/>
		<path fill="#333333" d="M222-7033.5c1.93,0,3.5,1.57,3.5,3.5s-1.57,3.5-3.5,3.5s-3.5-1.57-3.5-3.5S220.07-7033.5,222-7033.5
			 M222-7036c-3.313,0-6,2.687-6,6c0,3.314,2.687,6,6,6s6-2.686,6-6C228-7033.313,225.313-7036,222-7036L222-7036z"/>
	</g>
	<g>
		<path fill="#FF9933" d="M255-7025.25c-2.619,0-4.75-2.131-4.75-4.75s2.131-4.75,4.75-4.75s4.75,2.131,4.75,4.75
			S257.619-7025.25,255-7025.25z"/>
		<path fill="#333333" d="M255-7033.5c1.93,0,3.5,1.57,3.5,3.5s-1.57,3.5-3.5,3.5s-3.5-1.57-3.5-3.5S253.07-7033.5,255-7033.5
			 M255-7036c-3.313,0-6,2.687-6,6c0,3.314,2.687,6,6,6s6-2.686,6-6C261-7033.313,258.313-7036,255-7036L255-7036z"/>
	</g>
	<g>
		<path fill="#FFE556" d="M288-7025.25c-2.619,0-4.75-2.131-4.75-4.75s2.131-4.75,4.75-4.75s4.75,2.131,4.75,4.75
			S290.619-7025.25,288-7025.25z"/>
		<path fill="#333333" d="M288-7033.5c1.93,0,3.5,1.57,3.5,3.5s-1.57,3.5-3.5,3.5s-3.5-1.57-3.5-3.5S286.07-7033.5,288-7033.5
			 M288-7036c-3.313,0-6,2.687-6,6c0,3.314,2.687,6,6,6s6-2.686,6-6C294-7033.313,291.313-7036,288-7036L288-7036z"/>
	</g>
</g>
<g>
	<g>
		<path fill="#FF9933" d="M761-7025.25c-2.619,0-4.75-2.131-4.75-4.75s2.131-4.75,4.75-4.75s4.75,2.131,4.75,4.75
			S763.619-7025.25,761-7025.25z"/>
		<path fill="#333333" d="M761-7033.5c1.93,0,3.5,1.57,3.5,3.5s-1.57,3.5-3.5,3.5s-3.5-1.57-3.5-3.5S759.07-7033.5,761-7033.5
			 M761-7036c-3.313,0-6,2.687-6,6c0,3.314,2.688,6,6,6s6-2.686,6-6C767-7033.313,764.313-7036,761-7036L761-7036z"/>
	</g>
	<g>
		<path fill="#FFE556" d="M794-7025.25c-2.619,0-4.75-2.131-4.75-4.75s2.131-4.75,4.75-4.75s4.75,2.131,4.75,4.75
			S796.619-7025.25,794-7025.25z"/>
		<path fill="#333333" d="M794-7033.5c1.93,0,3.5,1.57,3.5,3.5s-1.57,3.5-3.5,3.5s-3.5-1.57-3.5-3.5S792.07-7033.5,794-7033.5
			 M794-7036c-3.313,0-6,2.687-6,6c0,3.314,2.688,6,6,6s6-2.686,6-6C800-7033.313,797.313-7036,794-7036L794-7036z"/>
	</g>
	<g>
		<path fill="#ADCC33" d="M827-7025.25c-2.619,0-4.75-2.131-4.75-4.75s2.131-4.75,4.75-4.75s4.75,2.131,4.75,4.75
			S829.619-7025.25,827-7025.25z"/>
		<path fill="#333333" d="M827-7033.5c1.93,0,3.5,1.57,3.5,3.5s-1.57,3.5-3.5,3.5s-3.5-1.57-3.5-3.5S825.07-7033.5,827-7033.5
			 M827-7036c-3.313,0-6,2.687-6,6c0,3.314,2.688,6,6,6s6-2.686,6-6C833-7033.313,830.313-7036,827-7036L827-7036z"/>
	</g>
	<g>
		<path fill="#339900" d="M860-7025.25c-2.619,0-4.75-2.131-4.75-4.75s2.131-4.75,4.75-4.75s4.75,2.131,4.75,4.75
			S862.619-7025.25,860-7025.25z"/>
		<path fill="#333333" d="M860-7033.5c1.93,0,3.5,1.57,3.5,3.5s-1.57,3.5-3.5,3.5s-3.5-1.57-3.5-3.5S858.07-7033.5,860-7033.5
			 M860-7036c-3.313,0-6,2.687-6,6c0,3.314,2.688,6,6,6s6-2.686,6-6C866-7033.313,863.313-7036,860-7036L860-7036z"/>
	</g>
	<g>
		<path fill="#796CAF" d="M893-7025.25c-2.619,0-4.75-2.131-4.75-4.75s2.131-4.75,4.75-4.75s4.75,2.131,4.75,4.75
			S895.619-7025.25,893-7025.25z"/>
		<path fill="#333333" d="M893-7033.5c1.93,0,3.5,1.57,3.5,3.5s-1.57,3.5-3.5,3.5s-3.5-1.57-3.5-3.5S891.07-7033.5,893-7033.5
			 M893-7036c-3.313,0-6,2.687-6,6c0,3.314,2.688,6,6,6s6-2.686,6-6C899-7033.313,896.313-7036,893-7036L893-7036z"/>
	</g>
	<g>
		<path fill="#4F9FE0" d="M926-7025.25c-2.619,0-4.75-2.131-4.75-4.75s2.131-4.75,4.75-4.75s4.75,2.131,4.75,4.75
			S928.619-7025.25,926-7025.25z"/>
		<path fill="#333333" d="M926-7033.5c1.93,0,3.5,1.57,3.5,3.5s-1.57,3.5-3.5,3.5s-3.5-1.57-3.5-3.5S924.07-7033.5,926-7033.5
			 M926-7036c-3.313,0-6,2.687-6,6c0,3.314,2.688,6,6,6s6-2.686,6-6C932-7033.313,929.313-7036,926-7036L926-7036z"/>
	</g>
	<g>
		<path fill="#FF6F61" d="M959-7025.25c-2.619,0-4.75-2.131-4.75-4.75s2.131-4.75,4.75-4.75s4.75,2.131,4.75,4.75
			S961.619-7025.25,959-7025.25z"/>
		<path fill="#333333" d="M959-7033.5c1.93,0,3.5,1.57,3.5,3.5s-1.57,3.5-3.5,3.5s-3.5-1.57-3.5-3.5S957.07-7033.5,959-7033.5
			 M959-7036c-3.313,0-6,2.687-6,6c0,3.314,2.688,6,6,6s6-2.686,6-6C965-7033.313,962.313-7036,959-7036L959-7036z"/>
	</g>
	<g>
		<path fill="#FF9933" d="M992-7025.25c-2.619,0-4.75-2.131-4.75-4.75s2.131-4.75,4.75-4.75s4.75,2.131,4.75,4.75
			S994.619-7025.25,992-7025.25z"/>
		<path fill="#333333" d="M992-7033.5c1.93,0,3.5,1.57,3.5,3.5s-1.57,3.5-3.5,3.5s-3.5-1.57-3.5-3.5S990.07-7033.5,992-7033.5
			 M992-7036c-3.313,0-6,2.687-6,6c0,3.314,2.688,6,6,6s6-2.686,6-6C998-7033.313,995.313-7036,992-7036L992-7036z"/>
	</g>
	<g>
		<path fill="#FFE556" d="M1025-7025.25c-2.619,0-4.75-2.131-4.75-4.75s2.131-4.75,4.75-4.75s4.75,2.131,4.75,4.75
			S1027.619-7025.25,1025-7025.25z"/>
		<path fill="#333333" d="M1025-7033.5c1.93,0,3.5,1.57,3.5,3.5s-1.57,3.5-3.5,3.5s-3.5-1.57-3.5-3.5S1023.07-7033.5,1025-7033.5
			 M1025-7036c-3.313,0-6,2.687-6,6c0,3.314,2.688,6,6,6s6-2.686,6-6C1031-7033.313,1028.313-7036,1025-7036L1025-7036z"/>
	</g>
</g>
<g>
	<g>
		<path fill="#333333" d="M406.791,25.747c-0.24,0.36-0.44,0.68-0.68,0.96l14.2-2c-0.72,4.72-2.8,8.68-6.28,11.88
			c1.52,0.24,3.04,0.4,4.6,0.44c2.68,0,4.6-0.16,5.8-0.48l-2,8.28c-1.56-0.24-3.04-0.521-4.4-0.84l1.96,13.12l-7.24,1l0.04-0.721
			l-12.16,0.88l0.04,0.8l-7.04,0.841l1.24-14.8l18.64-2.28c-2-0.601-3.88-1.28-5.56-2.08c-0.16,0.08-0.28,0.16-0.36,0.2
			c-3.76,2.279-9.44,3.88-17.04,4.76l-2.36-7.44c1.92,0.04,3.88,0.04,5.8,0.04c2.8-0.04,5.44-0.399,7.84-1.12
			c-1.28-0.96-2.44-1.96-3.4-3c-1.64,1.16-3.4,2.2-5.32,3.08l-3.8-7.48c6.24-0.68,10.96-3,14.2-7L406.791,25.747z M412.991,51.867
			l0.12-3.92l-13.24,0.359l0.44,5.88L412.991,51.867z M412.23,30.547l-9.64,0.24c-0.32,0.28-0.56,0.52-0.8,0.76
			c1.68,1.28,3.56,2.36,5.56,3.16C409.15,33.587,410.791,32.227,412.23,30.547z"/>
		<path fill="#333333" d="M441.271,24.107l0.64,4.04l2.88-0.6l0.56,3.24c2-1.76,3.56-4.2,4.72-7.32l3.4,1.76
			c-0.24,0.96-0.48,1.88-0.72,2.72l10.96-2.32l1.12,6.32l-13.96,0.92c-0.6,1.24-1.24,2.36-1.96,3.36l3.48,0.88
			c-0.16,0.8-0.32,1.52-0.44,2.16l1.48-0.48l0.52-4.8l3.6,0.36l0.04,3.12l7.08-2.2l-0.6,13.64l-5.72-0.681l1.4-6.439l-2.08,0.479
			l0.16,7.681l-5.64,0.56l0.76-7.16l-1.72,0.4c-0.08,0.72-0.12,1.319-0.12,1.88c0,3.04,0.24,4.88,0.8,5.6
			c0.8,1.08,2.2,1.601,4.24,1.601c2.32,0,5.2-0.681,8.64-2.08l-0.92,7.439c-2.32,0.641-4.44,1-6.4,1c-3.4,0-6.08-0.8-8-2.359
			c-1.76-1.4-2.6-4.48-2.6-9.24c0-0.88,0.08-1.84,0.16-2.84l-1.36,0.319l-0.6-2.079v2.96c0,7.399-1.76,11.88-5.28,13.52l-3.28-6.08
			c-0.88,2.641-2.12,4.68-3.68,6.08l-4.36-7c3.64-2.439,5.48-8.439,5.52-18l-2.8,0.24l-0.8-4.2l4.76-0.96l1.24-5.76L441.271,24.107z
			 M440.791,41.947l-2.68-0.12c-0.08,3.76-0.4,6.96-1.04,9.6C439.55,49.907,440.791,46.747,440.791,41.947z M447.43,40.707
			c0.08-0.96,0.24-2,0.4-3.04c-0.28,0.36-0.56,0.68-0.84,0.96l-3.04-4.96l-6.28,0.52c0.12,1.12,0.24,2.36,0.32,3.64l7.08-1.4v5.04
			L447.43,40.707z"/>
		<path fill="#333333" d="M484.431,33.067c2-1.36,3-3,3-4.88c0-1.2,0.04-2.4,0.08-3.6l4.32,0.8v0.16l8.8-1.12
			c-0.44,1.2-0.72,2.64-0.88,4.24c0,2.48,0.84,3.68,2.56,3.68c1.64,0,2.84-0.24,3.64-0.76l-1.56,7.24h-1.32
			c-0.08,4.96-1.04,9.08-2.88,12.28c1.68,0.479,3.6,0.84,5.68,1.119l-3.84,7.08c-2.4-0.96-4.56-2-6.4-3.12
			c-1.92,1.44-4.24,2.521-6.92,3.24l-3.68-6.319c2.04-0.16,3.84-0.48,5.36-1.041c-1.56-1.64-2.76-3.399-3.6-5.319l3.2-1.601
			c1.2,1.601,2.88,2.961,5.04,4.04c1.2-1.279,2-2.84,2.4-4.68l-11.2-0.12l-0.72-4.359l14.64-1.44c-3.36-0.76-5-3.04-5-6.88
			c0-0.6,0.08-1.2,0.32-1.76l-3.4-0.36c-0.08,4.72-1.52,8-4.24,9.84l-3.24-4.32l-13.56,0.92l-0.76-3.96l13.56-2.16L484.431,33.067z
			 M485.431,58.027l-6.16,0.76l0.12-0.92l-2.32,0.12l0.04,0.399l-6.44,0.8l1.32-11.52l11.56-0.96L485.431,58.027z M483.19,28.987
			l-11.24,0.76l-0.72-3.76l11-2.32L483.19,28.987z M483.111,40.307l-10.48,0.721l-0.6-3.041l10.28-1.92L483.111,40.307z
			 M483.351,45.347l-10.4,0.92l-0.6-3.12l10.24-1.88L483.351,45.347z M479.871,53.907l0.32-2.521l-4.04-0.439l0.48,3.68
			L479.871,53.907z"/>
		<path fill="#333333" d="M534.866,53.431v-0.288c1.08-1.367,1.979-2.916,2.592-4.571c0.468-1.548,0.757-3.204,0.757-5.04
			c-0.145-1.98-1.045-3.816-2.736-5.328c-1.368-1.224-2.916-1.98-4.572-2.304c0,3.204-0.324,6.408-0.756,9.468
			c-0.612,3.204-2.16,5.939-4.428,8.244c-1.692,1.512-3.816,2.268-6.12,2.268c-1.98-0.144-3.492-1.08-4.86-2.592
			c-1.224-1.512-1.98-3.204-2.448-5.04c-0.468-1.656-0.612-3.636-0.468-5.652c0.324-1.8,0.936-3.492,1.692-5.184
			c0.756-1.512,1.836-2.88,3.204-4.248c1.836-1.692,3.816-2.772,6.084-3.528c2.304-0.756,4.752-1.044,7.344-0.9
			c2.268,0.144,4.428,0.756,6.408,1.656c1.979,1.08,3.636,2.448,5.328,4.284c1.367,1.692,2.268,3.348,2.879,5.185
			c0.612,1.979,0.937,3.96,0.793,6.264c-0.181,1.98-0.612,3.96-1.404,5.652c-0.756,1.836-1.512,3.491-2.592,5.184l-0.433,0.144
			L534.866,53.431z M524.03,46.591c0.612-1.691,1.08-3.528,1.368-5.364c0.18-1.655,0.324-3.491,0.324-5.472h-0.468
			c-2.124,0.468-3.96,1.656-5.472,3.492c-1.548,1.979-2.16,4.284-1.836,7.02c0.144,1.368,0.756,2.448,1.656,3.528l1.08,0.288
			l1.224-0.612C522.986,48.715,523.562,47.635,524.03,46.591z"/>
		<path fill="#333333" d="M557.795,56.959c-1.656-0.468-3.205-1.224-4.717-2.16v-0.288l5.185-6.407
			c1.692,1.367,3.672,2.304,5.651,2.735c1.98,0.612,4.248,0.937,6.553,0.756l3.815-0.576l1.513,5.185
			c-1.98,0.756-3.961,1.368-6.084,1.656c-2.16,0.323-4.429,0.468-6.732,0.323C561.178,58.003,559.486,57.571,557.795,56.959z
			 M569.854,36.979l0.323-1.08c-1.08-0.288-2.303-0.468-3.672-0.468c-1.367,0-2.592,0-3.959,0l-7.488,0.936l-0.288-8.388h8.532
			c2.268,0.144,4.572,0.612,6.695,1.044c2.16,0.468,4.141,1.548,5.797,3.06c0.756,1.08,1.08,2.448,0.936,3.96
			c-0.469,1.368-1.08,2.592-1.98,3.672h-0.18L569.854,36.979z M574.139,26.899l3.636-1.224l1.692,5.94l-2.736,0.936L574.139,26.899z
			 M579.467,26.611l3.815-0.792l0.899,5.508l-2.735,0.756C580.69,30.391,579.934,28.591,579.467,26.611z"/>
		<path fill="#333333" d="M593.271,46.387c-0.28,4-0.72,7.601-1.36,10.8l-5-1.239c1.16-2.801,2.24-6.28,3.281-10.48L593.271,46.387z
			 M603.191,29.787l-0.48-3.28l19.359-2.16c0.08,1.84,0.2,3.64,0.36,5.48c0,8.04-2.84,12.479-8.521,13.28l-2.319-6.88
			c3.8,0,5.84-2.08,6.08-6.28l-5.24-0.08c-0.479,5.36-2.36,9.8-5.64,13.319l-4.561-5.359l2.2,5.72l-6.2,0.28l1.32,14.64l-6.12,1
			l0.8-15.479l-6.84,0.319l5.76-7.479l-5.52-3.8l8.04-9.08l2.399,2l-3.68,6.4l1.76,0.6l3.44-4.48l2.399,2.16l-3.52,5.72l2.92-0.72
			l0.721,1.88c2.879-1.84,4.959-4.4,6.159-7.68L603.191,29.787z M598.631,39.627l-0.4-2.88l-2.24,3.68L598.631,39.627z
			 M623.671,57.507l-7.08,0.96l0.08-0.92l-6.56,0.2l0.08,0.76l-6.841,1l0.44-4.399l-3.32,1.119c-0.24-3.56-0.641-7.16-1.2-10.76
			l2.761-0.68c0.92,2.08,1.64,4.04,2.199,5.92l0.6-6.36l17.08-1.52L623.671,57.507z M617.23,52.387l0.4-3.88l-8.439-0.399
			l0.559,5.84L617.23,52.387z"/>
		<path fill="#333333" d="M649.03,26.107c-0.159,0.24-0.319,0.44-0.479,0.6c4.56,3.04,9.96,5.36,16.199,6.92l-4,6.88
			c-5.72-2.48-10.72-5.96-14.959-10.44c-4.24,4.72-8.961,8.44-14.201,11.08l-3.879-7.16c7.359-2.48,13.56-6.16,18.6-11.04
			L649.03,26.107z M642.83,38.067c0.08,1.6,0.16,3.2,0.24,4.8c0,8.479-3.04,14.12-9.119,17.08l-3.921-7.641
			c4.12-0.96,6.681-3,7.72-6.12c0.721-1.52,1.08-4.359,1.08-8.52L642.83,38.067z M654.871,37.707l1.84,21.04l-7.641,0.72l1.84-22.12
			L654.871,37.707z"/>
	</g>
</g>
<g>
	<g>
		<g>
			<path fill="#FF9933" d="M26,43.766c-2.619,0-4.75-2.131-4.75-4.75c0-2.62,2.131-4.75,4.75-4.75s4.75,2.131,4.75,4.75
				C30.75,41.635,28.619,43.766,26,43.766z"/>
			<path fill="#333333" d="M26,35.515c1.93,0,3.5,1.57,3.5,3.5c0,1.93-1.57,3.5-3.5,3.5s-3.5-1.57-3.5-3.5
				C22.5,37.085,24.07,35.515,26,35.515 M26,33.015c-3.313,0-6,2.686-6,6c0,3.313,2.687,6,6,6s6-2.688,6-6
				C32,35.701,29.313,33.015,26,33.015L26,33.015z"/>
		</g>
		<g>
			<path fill="#FFE556" d="M59,43.766c-2.619,0-4.75-2.131-4.75-4.75c0-2.62,2.131-4.75,4.75-4.75s4.75,2.131,4.75,4.75
				C63.75,41.635,61.619,43.766,59,43.766z"/>
			<path fill="#333333" d="M59,35.515c1.93,0,3.5,1.57,3.5,3.5c0,1.93-1.57,3.5-3.5,3.5s-3.5-1.57-3.5-3.5
				C55.5,37.085,57.07,35.515,59,35.515 M59,33.015c-3.313,0-6,2.686-6,6c0,3.313,2.687,6,6,6s6-2.688,6-6
				C65,35.701,62.313,33.015,59,33.015L59,33.015z"/>
		</g>
		<g>
			<path fill="#ADCC33" d="M92,43.766c-2.619,0-4.75-2.131-4.75-4.75c0-2.62,2.131-4.75,4.75-4.75s4.75,2.131,4.75,4.75
				C96.75,41.635,94.619,43.766,92,43.766z"/>
			<path fill="#333333" d="M92,35.515c1.93,0,3.5,1.57,3.5,3.5c0,1.93-1.57,3.5-3.5,3.5s-3.5-1.57-3.5-3.5
				C88.5,37.085,90.07,35.515,92,35.515 M92,33.015c-3.313,0-6,2.686-6,6c0,3.313,2.687,6,6,6s6-2.688,6-6
				C98,35.701,95.313,33.015,92,33.015L92,33.015z"/>
		</g>
		<g>
			<path fill="#339900" d="M125,43.766c-2.619,0-4.75-2.131-4.75-4.75c0-2.62,2.131-4.75,4.75-4.75s4.75,2.131,4.75,4.75
				C129.75,41.635,127.619,43.766,125,43.766z"/>
			<path fill="#333333" d="M125,35.515c1.93,0,3.5,1.57,3.5,3.5c0,1.93-1.57,3.5-3.5,3.5s-3.5-1.57-3.5-3.5
				C121.5,37.085,123.07,35.515,125,35.515 M125,33.015c-3.313,0-6,2.686-6,6c0,3.313,2.687,6,6,6s6-2.688,6-6
				C131,35.701,128.313,33.015,125,33.015L125,33.015z"/>
		</g>
		<g>
			<path fill="#796CAF" d="M158,43.766c-2.619,0-4.75-2.131-4.75-4.75c0-2.62,2.131-4.75,4.75-4.75s4.75,2.131,4.75,4.75
				C162.75,41.635,160.619,43.766,158,43.766z"/>
			<path fill="#333333" d="M158,35.515c1.93,0,3.5,1.57,3.5,3.5c0,1.93-1.57,3.5-3.5,3.5s-3.5-1.57-3.5-3.5
				C154.5,37.085,156.07,35.515,158,35.515 M158,33.015c-3.313,0-6,2.686-6,6c0,3.313,2.687,6,6,6s6-2.688,6-6
				C164,35.701,161.313,33.015,158,33.015L158,33.015z"/>
		</g>
		<g>
			<path fill="#4F9FE0" d="M191,43.766c-2.619,0-4.75-2.131-4.75-4.75c0-2.62,2.131-4.75,4.75-4.75s4.75,2.131,4.75,4.75
				C195.75,41.635,193.619,43.766,191,43.766z"/>
			<path fill="#333333" d="M191,35.515c1.93,0,3.5,1.57,3.5,3.5c0,1.93-1.57,3.5-3.5,3.5s-3.5-1.57-3.5-3.5
				C187.5,37.085,189.07,35.515,191,35.515 M191,33.015c-3.313,0-6,2.686-6,6c0,3.313,2.687,6,6,6s6-2.688,6-6
				C197,35.701,194.313,33.015,191,33.015L191,33.015z"/>
		</g>
		<g>
			<path fill="#FF6F61" d="M224,43.766c-2.619,0-4.75-2.131-4.75-4.75c0-2.62,2.131-4.75,4.75-4.75s4.75,2.131,4.75,4.75
				C228.75,41.635,226.619,43.766,224,43.766z"/>
			<path fill="#333333" d="M224,35.515c1.93,0,3.5,1.57,3.5,3.5c0,1.93-1.57,3.5-3.5,3.5s-3.5-1.57-3.5-3.5
				C220.5,37.085,222.07,35.515,224,35.515 M224,33.015c-3.313,0-6,2.686-6,6c0,3.313,2.687,6,6,6s6-2.688,6-6
				C230,35.701,227.313,33.015,224,33.015L224,33.015z"/>
		</g>
		<g>
			<path fill="#FF9933" d="M257,43.766c-2.619,0-4.75-2.131-4.75-4.75c0-2.62,2.131-4.75,4.75-4.75s4.75,2.131,4.75,4.75
				C261.75,41.635,259.619,43.766,257,43.766z"/>
			<path fill="#333333" d="M257,35.515c1.93,0,3.5,1.57,3.5,3.5c0,1.93-1.57,3.5-3.5,3.5s-3.5-1.57-3.5-3.5
				C253.5,37.085,255.07,35.515,257,35.515 M257,33.015c-3.313,0-6,2.686-6,6c0,3.313,2.687,6,6,6s6-2.688,6-6
				C263,35.701,260.313,33.015,257,33.015L257,33.015z"/>
		</g>
		<g>
			<path fill="#FFE556" d="M290,43.766c-2.619,0-4.75-2.131-4.75-4.75c0-2.62,2.131-4.75,4.75-4.75s4.75,2.131,4.75,4.75
				C294.75,41.635,292.619,43.766,290,43.766z"/>
			<path fill="#333333" d="M290,35.515c1.93,0,3.5,1.57,3.5,3.5c0,1.93-1.57,3.5-3.5,3.5s-3.5-1.57-3.5-3.5
				C286.5,37.085,288.07,35.515,290,35.515 M290,33.015c-3.313,0-6,2.686-6,6c0,3.313,2.687,6,6,6s6-2.688,6-6
				C296,35.701,293.313,33.015,290,33.015L290,33.015z"/>
		</g>
	</g>
	<g>
		<g>
			<path fill="#FF9933" d="M763,43.766c-2.619,0-4.75-2.131-4.75-4.75c0-2.62,2.131-4.75,4.75-4.75s4.75,2.131,4.75,4.75
				C767.75,41.635,765.619,43.766,763,43.766z"/>
			<path fill="#333333" d="M763,35.515c1.93,0,3.5,1.57,3.5,3.5c0,1.93-1.57,3.5-3.5,3.5s-3.5-1.57-3.5-3.5
				C759.5,37.085,761.07,35.515,763,35.515 M763,33.015c-3.313,0-6,2.686-6,6c0,3.313,2.687,6,6,6s6-2.688,6-6
				C769,35.701,766.313,33.015,763,33.015L763,33.015z"/>
		</g>
		<g>
			<path fill="#FFE556" d="M796,43.766c-2.619,0-4.75-2.131-4.75-4.75c0-2.62,2.131-4.75,4.75-4.75s4.75,2.131,4.75,4.75
				C800.75,41.635,798.619,43.766,796,43.766z"/>
			<path fill="#333333" d="M796,35.515c1.93,0,3.5,1.57,3.5,3.5c0,1.93-1.57,3.5-3.5,3.5s-3.5-1.57-3.5-3.5
				C792.5,37.085,794.07,35.515,796,35.515 M796,33.015c-3.313,0-6,2.686-6,6c0,3.313,2.687,6,6,6s6-2.688,6-6
				C802,35.701,799.313,33.015,796,33.015L796,33.015z"/>
		</g>
		<g>
			<path fill="#ADCC33" d="M829,43.766c-2.619,0-4.75-2.131-4.75-4.75c0-2.62,2.131-4.75,4.75-4.75s4.75,2.131,4.75,4.75
				C833.75,41.635,831.619,43.766,829,43.766z"/>
			<path fill="#333333" d="M829,35.515c1.93,0,3.5,1.57,3.5,3.5c0,1.93-1.57,3.5-3.5,3.5s-3.5-1.57-3.5-3.5
				C825.5,37.085,827.07,35.515,829,35.515 M829,33.015c-3.313,0-6,2.686-6,6c0,3.313,2.687,6,6,6s6-2.688,6-6
				C835,35.701,832.313,33.015,829,33.015L829,33.015z"/>
		</g>
		<g>
			<path fill="#339900" d="M862,43.766c-2.619,0-4.75-2.131-4.75-4.75c0-2.62,2.131-4.75,4.75-4.75s4.75,2.131,4.75,4.75
				C866.75,41.635,864.619,43.766,862,43.766z"/>
			<path fill="#333333" d="M862,35.515c1.93,0,3.5,1.57,3.5,3.5c0,1.93-1.57,3.5-3.5,3.5s-3.5-1.57-3.5-3.5
				C858.5,37.085,860.07,35.515,862,35.515 M862,33.015c-3.313,0-6,2.686-6,6c0,3.313,2.687,6,6,6s6-2.688,6-6
				C868,35.701,865.313,33.015,862,33.015L862,33.015z"/>
		</g>
		<g>
			<path fill="#796CAF" d="M895,43.766c-2.619,0-4.75-2.131-4.75-4.75c0-2.62,2.131-4.75,4.75-4.75s4.75,2.131,4.75,4.75
				C899.75,41.635,897.619,43.766,895,43.766z"/>
			<path fill="#333333" d="M895,35.515c1.93,0,3.5,1.57,3.5,3.5c0,1.93-1.57,3.5-3.5,3.5s-3.5-1.57-3.5-3.5
				C891.5,37.085,893.07,35.515,895,35.515 M895,33.015c-3.313,0-6,2.686-6,6c0,3.313,2.687,6,6,6s6-2.688,6-6
				C901,35.701,898.313,33.015,895,33.015L895,33.015z"/>
		</g>
		<g>
			<path fill="#4F9FE0" d="M928,43.766c-2.619,0-4.75-2.131-4.75-4.75c0-2.62,2.131-4.75,4.75-4.75s4.75,2.131,4.75,4.75
				C932.75,41.635,930.619,43.766,928,43.766z"/>
			<path fill="#333333" d="M928,35.515c1.93,0,3.5,1.57,3.5,3.5c0,1.93-1.57,3.5-3.5,3.5s-3.5-1.57-3.5-3.5
				C924.5,37.085,926.07,35.515,928,35.515 M928,33.015c-3.313,0-6,2.686-6,6c0,3.313,2.687,6,6,6s6-2.688,6-6
				C934,35.701,931.313,33.015,928,33.015L928,33.015z"/>
		</g>
		<g>
			<path fill="#FF6F61" d="M961,43.766c-2.619,0-4.75-2.131-4.75-4.75c0-2.62,2.131-4.75,4.75-4.75s4.75,2.131,4.75,4.75
				C965.75,41.635,963.619,43.766,961,43.766z"/>
			<path fill="#333333" d="M961,35.515c1.93,0,3.5,1.57,3.5,3.5c0,1.93-1.57,3.5-3.5,3.5s-3.5-1.57-3.5-3.5
				C957.5,37.085,959.07,35.515,961,35.515 M961,33.015c-3.313,0-6,2.686-6,6c0,3.313,2.687,6,6,6s6-2.688,6-6
				C967,35.701,964.313,33.015,961,33.015L961,33.015z"/>
		</g>
		<g>
			<path fill="#FF9933" d="M994,43.766c-2.619,0-4.75-2.131-4.75-4.75c0-2.62,2.131-4.75,4.75-4.75s4.75,2.131,4.75,4.75
				C998.75,41.635,996.619,43.766,994,43.766z"/>
			<path fill="#333333" d="M994,35.515c1.93,0,3.5,1.57,3.5,3.5c0,1.93-1.57,3.5-3.5,3.5s-3.5-1.57-3.5-3.5
				C990.5,37.085,992.07,35.515,994,35.515 M994,33.015c-3.313,0-6,2.686-6,6c0,3.313,2.687,6,6,6s6-2.688,6-6
				C1000,35.701,997.313,33.015,994,33.015L994,33.015z"/>
		</g>
		<g>
			<path fill="#FFE556" d="M1027,43.766c-2.619,0-4.75-2.131-4.75-4.75c0-2.62,2.131-4.75,4.75-4.75s4.75,2.131,4.75,4.75
				C1031.75,41.635,1029.619,43.766,1027,43.766z"/>
			<path fill="#333333" d="M1027,35.515c1.93,0,3.5,1.57,3.5,3.5c0,1.93-1.57,3.5-3.5,3.5s-3.5-1.57-3.5-3.5
				C1023.5,37.085,1025.07,35.515,1027,35.515 M1027,33.015c-3.313,0-6,2.686-6,6c0,3.313,2.687,6,6,6s6-2.688,6-6
				C1033,35.701,1030.313,33.015,1027,33.015L1027,33.015z"/>
		</g>
	</g>
</g>
</svg>
