<?xml version="1.0" encoding="utf-8"?>
<!-- Generator: Adobe Illustrator 16.0.0, SVG Export Plug-In . SVG Version: 6.00 Build 0)  -->
<!DOCTYPE svg PUBLIC "-//W3C//DTD SVG 1.1//EN" "http://www.w3.org/Graphics/SVG/1.1/DTD/svg11.dtd">
<svg version="1.1" id="レイヤー_1" xmlns="http://www.w3.org/2000/svg" xmlns:xlink="http://www.w3.org/1999/xlink" x="0px"
	 y="0px" width="328.962px" height="90.636px" viewBox="0 0 328.962 90.636" enable-background="new 0 0 328.962 90.636"
	 xml:space="preserve">
<g>
	<g>
		<path fill="#FF9933" d="M315.896,88.769c-0.449,0-0.449-0.082-0.897-0.082c-0.449,0-0.449-0.048-0.898-0.048
			c-0.448,0-0.448,0.099-0.897,0.099s-0.449-0.209-0.897-0.209s-0.448,0.469-0.897,0.469s-0.449-0.816-0.896-0.816
			c-0.449,0-0.449,0.797-0.898,0.797c-0.447,0-0.447-0.747-0.896-0.747s-0.449,0.329-0.896,0.329c-0.449,0-0.449-0.363-0.898-0.363
			c-0.447,0-0.447,0.623-0.896,0.623c-0.448,0-0.448-0.514-0.896-0.514s-0.448,0.826-0.896,0.826c-0.449,0-0.449-0.247-0.896-0.247
			c-0.449,0-0.449-0.438-0.897-0.438s-0.448,0.592-0.897,0.592c-0.447,0-0.447-0.436-0.896-0.436c-0.447,0-0.447-0.364-0.896-0.364
			c-0.447,0-0.447,0.429-0.896,0.429c-0.447,0-0.447-0.471-0.896-0.471c-0.447,0-0.447,0.197-0.896,0.197
			c-0.447,0-0.447-0.096-0.896-0.096c-0.447,0-0.447,0.178-0.896,0.178c-0.448,0-0.448,0.457-0.896,0.457
			c-0.447,0-0.447,0.076-0.896,0.076c-0.447,0-0.447-0.502-0.896-0.502c-0.447,0-0.447,0.52-0.896,0.52
			c-0.447,0-0.447-0.307-0.896-0.307s-0.448,0.211-0.897,0.211c-0.447,0-0.447-0.736-0.896-0.736s-0.448,0.27-0.897,0.27
			c-0.447,0-0.447,0.169-0.896,0.169s-0.448-0.16-0.896-0.16s-0.448,0.235-0.897,0.235c-0.447,0-0.447-0.229-0.896-0.229
			c-0.447,0-0.447,0.252-0.896,0.252c-0.447,0-0.447,0.049-0.896,0.049c-0.448,0-0.448-0.528-0.896-0.528s-0.448,0.784-0.896,0.784
			c-0.449,0-0.449-0.196-0.896-0.196c-0.449,0-0.449-0.222-0.897-0.222s-0.448,0.308-0.897,0.308c-0.448,0-0.448-0.785-0.896-0.785
			c-0.449,0-0.449,0.354-0.896,0.354c-0.449,0-0.449,0.607-0.898,0.607c-0.448,0-0.448-0.07-0.896-0.07
			c-0.449,0-0.449,0.042-0.898,0.042c-0.448,0-0.448-0.712-0.896-0.712c-0.449,0-0.449,0.685-0.898,0.685
			c-0.448,0-0.448-0.892-0.896-0.892c-0.449,0-0.449,0.846-0.898,0.846s-0.449-0.131-0.897-0.131c-0.45,0-0.45,0.179-0.899,0.179
			s-0.449,0.021-0.897,0.021c-0.449,0-0.449-0.718-0.898-0.718c-0.448,0-0.448,0.024-0.898,0.024s-0.45,0.641-0.898,0.641
			c-0.45,0-0.45-0.049-0.899-0.049s-0.449-0.09-0.898-0.09c-0.45,0-0.45-0.25-0.899-0.25c-0.45,0-0.45-0.383-0.899-0.383
			s-0.449,0.854-0.898,0.854c-0.451,0-0.451-0.289-0.9-0.289s-0.449-0.009-0.899-0.009s-0.45-0.062-0.899-0.062
			s-0.449-0.453-0.898-0.453c-0.45,0-0.45,0.711-0.9,0.711c-0.449,0-0.449-0.098-0.898-0.098s-0.449,0.01-0.898,0.01
			s-0.449-0.506-0.898-0.506s-0.449,0.047-0.898,0.047s-0.449,0.351-0.898,0.351s-0.449-0.49-0.898-0.49s-0.449-0.003-0.898-0.003
			s-0.449-0.107-0.897-0.107c-0.449,0-0.449,0.529-0.898,0.529c-0.448,0-0.448-0.143-0.897-0.143s-0.449-0.303-0.898-0.303
			s-0.449,0.569-0.897,0.569s-0.448-0.436-0.897-0.436s-0.449-0.161-0.898-0.161c-0.448,0-0.448,0.269-0.896,0.269
			c-0.449,0-0.449,0.256-0.898,0.256c-0.448,0-0.448-0.001-0.896-0.001c-0.449,0-0.449-0.262-0.898-0.262
			c-0.448,0-0.448,0.143-0.896,0.143c-0.449,0-0.449-0.336-0.898-0.336c-0.448,0-0.448,0-0.897,0c-0.448,0-0.448,0.389-0.897,0.389
			c-0.448,0-0.448,0.188-0.896,0.188c-0.449,0-0.449,0.036-0.898,0.036c-0.448,0-0.448-0.796-0.896-0.796
			c-0.449,0-0.449,0.479-0.897,0.479c-0.45,0-0.45,0.173-0.897,0.173c-0.449,0-0.449-0.13-0.898-0.13
			c-0.448,0-0.448,0.038-0.896,0.038c-0.449,0-0.449-0.479-0.898-0.479s-0.449-0.08-0.898-0.08c-0.447,0-0.447,0.714-0.896,0.714
			s-0.449-0.582-0.898-0.582s-0.449,0.833-0.898,0.833c-0.448,0-0.448,0.018-0.897,0.018s-0.449-0.569-0.897-0.569
			c-0.45,0-0.45-0.315-0.898-0.315c-0.449,0-0.449-0.076-0.898-0.076s-0.449,0.951-0.898,0.951c-0.45,0-0.45-0.698-0.899-0.698
			c-0.45,0-0.45,0.656-0.899,0.656s-0.449-0.352-0.898-0.352s-0.449-0.455-0.898-0.455c-0.45,0-0.45,0.331-0.899,0.331
			c-0.45,0-0.45-0.319-0.899-0.319c-0.45,0-0.45,0.521-0.9,0.521c-0.449,0-0.449-0.42-0.9-0.42c-0.449,0-0.449,0.146-0.898,0.146
			c-0.451,0-0.451,0.539-0.9,0.539s-0.449-0.461-0.9-0.461c-0.449,0-0.449,0.477-0.898,0.477s-0.449-0.145-0.9-0.145
			c-0.448,0-0.448,0.107-0.898,0.107c-0.449,0-0.449-0.088-0.898-0.088s-0.449-0.107-0.899-0.107c-0.449,0-0.449,0.23-0.898,0.23
			s-0.449-0.362-0.898-0.362s-0.449,0.06-0.899,0.06c-0.449,0-0.449,0.139-0.898,0.139s-0.449-0.375-0.898-0.375
			s-0.449,0.506-0.898,0.506c-0.447,0-0.447-0.729-0.898-0.729c-0.448,0-0.448,0.257-0.897,0.257s-0.449-0.042-0.897-0.042
			c-0.449,0-0.449,0.354-0.898,0.354s-0.449-0.627-0.898-0.627s-0.449,0.682-0.898,0.682s-0.449,0.156-0.898,0.156
			s-0.449-0.533-0.898-0.533c-0.448,0-0.448-0.203-0.897-0.203s-0.449,0.297-0.898,0.297c-0.448,0-0.448,0.459-0.897,0.459
			s-0.449-0.739-0.898-0.739c-0.447,0-0.447,0.429-0.895,0.429s-0.447-0.173-0.893-0.173c-0.447,0-0.447-0.106-0.895-0.106
			s-0.447-0.234-0.894-0.234s-0.446,0.605-0.894,0.605s-0.447-0.613-0.893-0.613c-0.447,0-0.447,0.382-0.895,0.382
			s-0.447-0.023-0.894-0.023s-0.446-0.374-0.894-0.374c-0.446,0-0.446,0.098-0.893,0.098c-0.447,0-0.447,0.766-0.895,0.766
			c-0.446,0-0.446-0.051-0.893-0.051c-0.447,0-0.447-0.826-0.894-0.826c-0.447,0-0.447,0.628-0.894,0.628
			c-0.447,0-0.447,0.198-0.895,0.198s-0.447-0.488-0.894-0.488s-0.446-0.006-0.894-0.006s-0.447,0.547-0.895,0.547
			s-0.447-0.77-0.894-0.77c-0.447,0-0.447,0.461-0.895,0.461s-0.447,0.249-0.895,0.249s-0.447-0.661-0.895-0.661
			s-0.447-0.008-0.896-0.008c-0.447,0-0.447,0.137-0.895,0.137s-0.447-0.141-0.895-0.141s-0.447-0.002-0.896-0.002
			c-0.447,0-0.447-0.177-0.895-0.177c-0.449,0-0.449,0.237-0.896,0.237c-0.448,0-0.448,0.28-0.896,0.28s-0.448,0.032-0.896,0.032
			s-0.448-0.244-0.896-0.244c-0.449,0-0.449-0.26-0.896-0.26c-0.449,0-0.449,0.02-0.898,0.02c-0.448,0-0.448,0.781-0.897,0.781
			c-0.448,0-0.448-0.803-0.898-0.803c-0.449,0-0.449,0.828-0.898,0.828s-0.449-0.668-0.898-0.668c-0.45,0-0.45-0.092-0.899-0.092
			c-0.45,0-0.45,0.196-0.9,0.196c-0.449,0-0.449-0.319-0.9-0.319c-0.449,0-0.449,0.414-0.9,0.414c-0.45,0-0.45-0.042-0.901-0.042
			c-0.45,0-0.45-0.319-0.9-0.319s-0.45,0-0.901,0c-0.45,0-0.45,0.512-0.899,0.512c-0.45,0-0.45-0.169-0.9-0.169
			s-0.45,0.021-0.899,0.021c-0.45,0-0.45,0.161-0.899,0.161c-0.45,0-0.45,0.293-0.899,0.293s-0.449-0.93-0.898-0.93
			s-0.449,0.313-0.898,0.313s-0.449-0.15-0.898-0.15s-0.449-0.117-0.898-0.117c-0.448,0-0.448,0.821-0.896,0.821
			c-0.449,0-0.449-0.26-0.898-0.26s-0.449,0.073-0.897,0.073s-0.448-0.103-0.897-0.103c-0.447,0-0.447,0.358-0.896,0.358
			s-0.449-0.599-0.897-0.599s-0.448,0.406-0.897,0.406c-0.447,0-0.447-0.099-0.896-0.099c-0.448,0-0.448,0.03-0.896,0.03
			s-0.448-0.033-0.896-0.033c-0.449,0-0.449-0.638-0.897-0.638s-0.448,0.623-0.897,0.623c-0.447,0-0.447-0.489-0.896-0.489
			s-0.449,0.56-0.896,0.56c-0.449,0-0.449-0.252-0.897-0.252c-0.449,0-0.449,0.324-0.897,0.324c-0.449,0-0.449-0.765-0.897-0.765
			s-0.448,0.204-0.897,0.204s-0.449-0.107-0.898-0.107s-0.449,0.695-0.898,0.695s-0.449-0.114-0.898-0.114s-0.449,0.259-0.898,0.259
			s-0.449-0.39-0.898-0.39c-0.45,0-0.45-0.36-0.9-0.36c-0.449,0-0.449-0.188-0.899-0.188s-0.45,0.154-0.9,0.154
			s-0.45,0.797-0.899,0.797c-0.451,0-0.451-0.658-0.902-0.658s-0.451,0.254-0.901,0.254c-0.451,0-0.451-0.125-0.901-0.125
			c-0.451,0-0.451,0.491-0.902,0.491s-0.451-0.018-0.902-0.018s-0.451-0.766-0.9-0.766c-0.451,0-0.451,0.504-0.901,0.504
			s-0.45,0.339-0.9,0.339s-0.45-0.535-0.9-0.535s-0.45,0.029-0.899,0.029c-0.45,0-0.45,0.236-0.9,0.236
			c-0.449,0-0.449,0.264-0.898,0.265c-0.45,0-0.45-0.44-0.9-0.44c-0.449,0-0.449,0.042-0.898,0.042s-0.449,0.23-0.898,0.23
			c-0.45,0-0.45-0.72-0.9-0.72c-0.449,0-0.449,0.809-0.898,0.809s-0.449,0.004-0.898,0.004c-0.45,0-0.45-0.334-0.9-0.334
			c-0.449,0-0.449,0.285-0.898,0.285s-0.449-0.424-0.9-0.424c-0.449,0-0.449,0.336-0.898,0.336c-0.45,0-0.45-0.607-0.9-0.607
			c-0.449,0-0.449,0.728-0.899,0.728s-0.45-0.362-0.901-0.362c-0.449,0-0.449-0.418-0.9-0.418s-0.451,0.532-0.902,0.532
			c-0.45,0-0.45,0.007-0.9,0.007c-0.451,0-0.451-0.352-0.902-0.352c-0.452,0-0.452-0.24-0.904-0.24
			c-0.451,0-0.451,0.429-0.902,0.429s-0.451,0.501-0.901,0.501c-0.451,0-0.451-0.098-0.901-0.098c-0.451,0-0.451-0.482-0.902-0.482
			c-0.449,0-0.449,0.297-0.9,0.297s-0.451,0.08-0.9,0.08c-0.451,0-0.451-0.271-0.9-0.271c-0.45,0-0.45-0.016-0.9-0.016
			c-0.451,0-0.451-0.043-0.9-0.043c-0.451,0-0.451-0.01-0.9-0.01c-0.451,0-0.451-0.083-0.9-0.083c-0.451,0-0.451,0.146-0.901,0.146
			s-0.45,0.053-0.901,0.053c-0.45,0-0.45-0.027-0.9-0.027c-0.451,0-0.451-0.465-0.902-0.465S77.469,88.9,77.018,88.9
			s-0.451,0.068-0.902,0.068s-0.451-0.488-0.903-0.488c-0.451,0-0.451,0.527-0.903,0.527c-0.451,0-0.451,0.114-0.902,0.114
			s-0.451-0.413-0.902-0.413c-0.45,0-0.45,0.07-0.9,0.07c-0.451,0-0.451-0.542-0.902-0.542s-0.451,0.054-0.901,0.054
			s-0.45,0.123-0.901,0.123s-0.451,0.176-0.902,0.176c-0.45,0-0.45-0.218-0.9-0.218c-0.451,0-0.451,0.625-0.902,0.625
			s-0.451-0.087-0.902-0.087s-0.451-0.711-0.902-0.711c-0.452,0-0.452,0-0.904,0c-0.451,0-0.451,0.732-0.903,0.732
			c-0.451,0-0.451,0.052-0.903,0.052c-0.451,0-0.451-0.763-0.902-0.763c-0.449,0-0.449,0.107-0.899,0.107s-0.45,0.162-0.899,0.162
			s-0.449,0.326-0.898,0.326s-0.449,0.186-0.897,0.186c-0.449,0-0.449-0.318-0.898-0.318c-0.448,0-0.448,0.35-0.897,0.35
			s-0.449-0.85-0.898-0.85s-0.449,0.953-0.898,0.953s-0.449-0.017-0.898-0.017s-0.449-0.272-0.898-0.272
			c-0.451,0-0.451-0.056-0.9-0.056c-0.451,0-0.451-0.429-0.902-0.429s-0.451,0.474-0.902,0.474c-0.452,0-0.452-0.527-0.904-0.527
			s-0.452,0.372-0.904,0.372c-0.451,0-0.451-0.041-0.904-0.041c-0.451,0-0.451,0.1-0.901,0.1c-0.451,0-0.451-0.42-0.901-0.42
			c-0.451,0-0.451,0.76-0.902,0.76c-0.45,0-0.45-0.393-0.9-0.393c-0.451,0-0.451-0.283-0.901-0.283
			c-0.451,0-0.451,0.105-0.902,0.105c-0.452,0-0.452,0.133-0.903,0.133c-0.452,0-0.452,0.106-0.904,0.106
			c-0.453,0-0.453,0.046-0.906,0.046c-0.452,0-0.452-0.534-0.904-0.534s-0.452,0.185-0.904,0.185c-0.451,0-0.451,0.432-0.902,0.432
			s-0.451-0.465-0.903-0.465s-0.452,0.668-0.904,0.668s-0.452-0.396-0.905-0.396s-0.453-0.162-0.906-0.162s-0.453,0.473-0.905,0.473
			s-0.452-0.648-0.904-0.648s-0.452,0.096-0.905,0.096s-0.453,0.253-0.905,0.253c-0.454,0-0.454-0.228-0.907-0.228
			c-0.452,0-0.452,0.486-0.904,0.486c-0.453,0-0.453-0.494-0.906-0.494s-0.453,0.035-0.906,0.035c-0.452,0-0.452-0.232-0.904-0.232
			c-0.451,0-0.451,0.66-0.902,0.66s-0.451-0.614-0.903-0.614c-0.454,0-0.454-0.028-0.908-0.028c-0.452,0-0.452,0.406-0.905,0.406
			s-0.453-0.234-0.906-0.234c-0.455,0-0.455,0.41-0.908,0.41c-0.455,0-0.455-0.609-0.908-0.609s-0.453,0.227-0.906,0.227
			s-0.453,0.007-0.906,0.007c-0.455,0-0.455,0.003-0.909,0.003c-0.456,0-0.456,0.281-0.911,0.281c-0.457,0-0.457-0.532-0.914-0.532
			s-0.457,0.085-0.914,0.085c-0.311,0-0.639,0.521-0.943,0.492c-0.31-0.028-0.682,0.182-0.982,0.125
			c-0.305-0.057-0.572-0.405-0.866-0.488c-0.298-0.086-0.403-0.719-0.688-0.83c-0.289-0.111-0.766,0.23-1.041,0.094
			C7.172,87.576,6.74,87.663,6.479,87.5c-0.262-0.163-0.225-0.786-0.471-0.972c-0.246-0.187-0.73-0.096-0.959-0.303
			c-0.228-0.208-0.492-0.416-0.7-0.644s-0.434-0.479-0.619-0.726c-0.186-0.244-0.274-0.586-0.437-0.849
			c-0.162-0.261-0.443-0.486-0.58-0.762c-0.138-0.274-0.375-0.546-0.487-0.834c-0.111-0.286,0.163-0.727,0.079-1.025
			c-0.084-0.294-0.46-0.542-0.517-0.846c-0.056-0.3,0.47-0.691,0.44-1c-0.027-0.304,0.134-0.592,0.134-0.904
			c0-0.449,0.088-0.449,0.088-0.898c0-0.45-0.751-0.45-0.751-0.899c0-0.45,0.29-0.45,0.29-0.9c0-0.451-0.22-0.451-0.22-0.9
			c0-0.45,0.037-0.45,0.037-0.9c0-0.45,0.268-0.45,0.268-0.9c0-0.449,0.184-0.449,0.184-0.899c0-0.449,0.172-0.449,0.172-0.899
			c0-0.449-0.457-0.449-0.457-0.898s0.021-0.449,0.021-0.898c0-0.45,0.121-0.45,0.121-0.899s-0.504-0.449-0.504-0.899
			c0-0.449,0.651-0.449,0.651-0.898c0-0.45-0.21-0.45-0.21-0.899c0-0.45-0.46-0.45-0.46-0.9s0.183-0.45,0.183-0.9
			c0-0.45-0.248-0.45-0.248-0.9c0-0.45,0.525-0.45,0.525-0.901c0-0.45,0.273-0.45,0.273-0.9c0-0.45-0.411-0.45-0.411-0.899
			c0-0.449,0.421-0.449,0.421-0.897c0-0.448-0.381-0.448-0.381-0.896s0.447-0.448,0.447-0.896c0-0.448-0.693-0.448-0.693-0.896
			c0-0.448,0.651-0.448,0.651-0.895S1.77,55.72,1.77,55.272c0-0.447,0.566-0.447,0.566-0.895s-0.239-0.448-0.239-0.896
			c0-0.448-0.421-0.448-0.421-0.896c0-0.448,0.025-0.448,0.025-0.896c0-0.449-0.072-0.449-0.072-0.897
			c0-0.449,0.717-0.449,0.717-0.899s-0.139-0.45-0.139-0.9c0-0.451,0.214-0.451,0.214-0.901c0-0.451-0.517-0.451-0.517-0.902
			s0.327-0.451,0.327-0.901c0-0.45-0.206-0.45-0.206-0.899s-0.23-0.45-0.23-0.898c0-0.449,0.25-0.449,0.25-0.898
			s0.357-0.449,0.357-0.898s-0.678-0.449-0.678-0.899s0.193-0.45,0.193-0.899s0.446-0.45,0.446-0.9c0-0.451-0.829-0.451-0.829-0.902
			c0-0.452,0.059-0.452,0.059-0.903c0-0.451,0.188-0.451,0.188-0.902c0-0.451,0.428-0.451,0.428-0.901s0.16-0.45,0.16-0.9
			s-0.568-0.45-0.568-0.9s0.65-0.45,0.65-0.901s-0.424-0.451-0.424-0.903s0.19-0.452,0.19-0.903s0.091-0.451,0.091-0.903
			c0-0.451-0.246-0.451-0.246-0.901c0-0.451,0.252-0.451,0.252-0.902c0-0.452-0.268-0.452-0.268-0.904s-0.305-0.452-0.305-0.903
			c0-0.451-0.242-0.451-0.242-0.903c0-0.451,0.957-0.451,0.957-0.903s-0.744-0.452-0.744-0.904c0-0.45,0.215-0.45,0.215-0.901
			c0-0.45,0.174-0.45,0.174-0.899c0-0.451-0.204-0.451-0.204-0.901c0-0.452,0.568-0.452,0.568-0.905
			c0-0.451-0.144-0.451-0.144-0.903c0-0.451-0.104-0.451-0.104-0.902c0-0.454-0.596-0.454-0.596-0.906
			c0-0.452,0.664-0.452,0.664-0.905c0-0.452-0.244-0.452-0.244-0.904c0-0.451-0.047-0.451-0.047-0.902
			c0-0.454,0.435-0.454,0.435-0.907c0-0.454-0.248-0.454-0.248-0.909c0-0.456-0.453-0.456-0.453-0.911
			c0-0.456,0.468-0.456,0.468-0.911c0-0.312-0.252-0.623-0.224-0.927c0.028-0.31,0.151-0.603,0.208-0.904
			c0.057-0.305,0.063-0.619,0.146-0.913C2.412,8.949,2.959,8.828,3.07,8.542C3.182,8.253,2.717,7.725,2.854,7.45
			c0.138-0.276,0.431-0.477,0.592-0.738C3.609,6.449,4.117,6.444,4.303,6.2C4.488,5.954,4.1,5.231,4.307,5.004
			c0.208-0.228,0.801-0.085,1.027-0.293c0.229-0.207,0.464-0.383,0.71-0.569C6.289,3.957,6.66,4,6.923,3.837
			c0.261-0.162,0.317-0.65,0.595-0.788c0.274-0.137,0.409-0.636,0.697-0.748C8.501,2.19,8.869,2.229,9.168,2.145
			c0.293-0.084,0.574-0.371,0.88-0.428c0.301-0.056,0.661,0.054,0.972,0.025c0.303-0.028,0.639,0.322,0.949,0.322
			c0.449,0,0.449-0.248,0.897-0.248c0.449,0,0.449,0.361,0.898,0.361c0.448,0,0.448-0.296,0.897-0.296s0.449,0.52,0.896,0.52
			c0.449,0,0.449-0.191,0.898-0.191s0.449-0.229,0.897-0.229s0.448-0.308,0.897-0.308c0.448,0,0.448,0.665,0.896,0.665
			c0.449,0,0.449-0.187,0.896-0.187c0.449,0,0.449-0.484,0.898-0.484c0.448,0,0.448,0.288,0.896,0.288s0.448-0.137,0.896-0.137
			c0.449,0,0.449,0.587,0.897,0.587s0.448-0.054,0.897-0.054c0.447,0,0.447-0.354,0.896-0.354s0.448-0.123,0.897-0.123
			c0.447,0,0.447-0.088,0.896-0.088c0.447,0,0.447,0.397,0.896,0.397c0.447,0,0.447,0.046,0.896,0.046
			c0.447,0,0.447,0.243,0.896,0.243c0.447,0,0.447-0.436,0.896-0.436c0.447,0,0.447-0.535,0.896-0.535
			c0.448,0,0.448,0.497,0.896,0.497c0.447,0,0.447,0.28,0.896,0.28c0.447,0,0.447-0.595,0.896-0.595
			c0.447,0,0.447,0.536,0.896,0.536c0.447,0,0.447-0.552,0.896-0.552c0.447,0,0.447,0.172,0.896,0.172s0.448,0.117,0.896,0.117
			s0.448-0.292,0.897-0.292c0.447,0,0.447,0.221,0.896,0.221c0.447,0,0.447,0.246,0.896,0.246c0.447,0,0.447,0.244,0.896,0.244
			s0.448-0.799,0.897-0.799c0.447,0,0.447,0.808,0.896,0.808c0.447,0,0.447-0.43,0.896-0.43c0.447,0,0.447,0.135,0.896,0.135
			c0.448,0,0.448-0.575,0.896-0.575c0.449,0,0.449,0.622,0.896,0.622c0.449,0,0.449,0,0.896,0c0.449,0,0.449-0.568,0.897-0.568
			s0.448,0.783,0.897,0.783c0.448,0,0.448-0.128,0.896-0.128c0.449,0,0.449-0.213,0.896-0.213c0.449,0,0.449-0.28,0.898-0.28
			c0.448,0,0.448,0.374,0.896,0.374c0.449,0,0.449,0.154,0.898,0.154s0.449-0.109,0.896-0.109c0.449,0,0.449-0.029,0.898-0.029
			c0.448,0,0.448-0.31,0.896-0.31c0.45,0,0.45-0.109,0.898-0.109c0.449,0,0.449,0.111,0.898,0.111s0.449,0.392,0.898,0.392
			s0.449-0.54,0.898-0.54c0.448,0,0.448,0.259,0.897,0.259s0.449,0.155,0.899,0.155c0.449,0,0.449,0.322,0.897,0.322
			c0.45,0,0.45-0.262,0.899-0.262s0.449,0.202,0.898,0.202c0.45,0,0.45-0.21,0.899-0.21c0.45,0,0.45-0.21,0.899-0.21
			s0.449,0.381,0.899,0.381s0.45,0.188,0.899,0.188s0.449-0.821,0.899-0.821s0.45,0.354,0.899,0.354s0.449,0.039,0.898,0.039
			c0.45,0,0.45,0.302,0.9,0.302c0.449,0,0.449-0.456,0.898-0.456s0.449-0.127,0.898-0.127s0.449-0.236,0.898-0.236
			s0.449,0.33,0.898,0.33s0.449,0.27,0.898,0.27s0.449-0.204,0.898-0.204s0.449,0.394,0.898,0.394s0.449-0.569,0.898-0.569
			c0.448,0,0.448,0.583,0.896,0.583c0.449,0,0.449-0.369,0.898-0.369s0.449-0.195,0.898-0.195s0.449,0.044,0.897,0.044
			s0.448-0.082,0.897-0.082s0.449,0.195,0.897,0.195c0.45,0,0.45,0.18,0.897,0.18c0.449,0,0.449-0.354,0.898-0.354
			c0.448,0,0.448,0.119,0.896,0.119c0.449,0,0.449,0.279,0.898,0.279s0.449-0.589,0.896-0.589c0.449,0,0.449-0.017,0.898-0.017
			c0.448,0,0.448,0.565,0.896,0.565c0.449,0,0.449,0.361,0.898,0.361c0.448,0,0.448-0.251,0.896-0.251
			c0.449,0,0.449-0.598,0.898-0.598c0.448,0,0.448,0.388,0.896,0.388c0.449,0,0.449-0.034,0.898-0.034
			c0.448,0,0.448-0.155,0.896-0.155c0.449,0,0.449-0.079,0.898-0.079c0.448,0,0.448-0.132,0.896-0.132
			c0.449,0,0.449,0.331,0.898,0.331s0.449,0.306,0.898,0.306c0.448,0,0.448-0.37,0.897-0.37c0.448,0,0.448,0.158,0.897,0.158
			s0.449-0.025,0.898-0.025s0.449-0.14,0.897-0.14c0.449,0,0.449,0.089,0.898,0.089c0.45,0,0.45,0.459,0.897,0.459
			c0.449,0,0.449-0.188,0.898-0.188s0.449-0.69,0.9-0.69c0.448,0,0.448,0.313,0.897,0.313c0.45,0,0.45-0.25,0.899-0.25
			s0.449,0.428,0.898,0.428c0.45,0,0.45,0.342,0.898,0.342c0.45,0,0.45-0.006,0.9-0.006c0.449,0,0.449-0.774,0.898-0.774
			c0.451,0,0.451,0.141,0.9,0.141s0.449,0.362,0.9,0.362c0.449,0,0.449-0.435,0.899-0.435s0.45,0.551,0.899,0.551
			s0.449-0.512,0.9-0.512c0.449,0,0.449,0.453,0.898,0.453c0.45,0,0.45-0.25,0.899-0.25s0.449,0.062,0.899,0.062
			c0.449,0,0.449-0.265,0.898-0.265s0.449,0.593,0.899,0.593c0.449,0,0.449-0.79,0.898-0.79s0.449,0.031,0.899,0.031
			c0.449,0,0.449,0.065,0.898,0.065s0.449,0.265,0.898,0.265s0.449-0.088,0.898-0.088s0.449,0.14,0.898,0.14
			s0.449,0.044,0.898,0.044c0.448,0,0.448-0.444,0.897-0.444s0.449,0.86,0.898,0.86c0.448,0,0.448-0.742,0.897-0.742
			s0.449,0.014,0.898,0.014s0.449-0.09,0.898-0.09s0.449,0.793,0.898,0.793s0.449-0.321,0.897-0.321
			c0.449,0,0.449,0.005,0.898,0.005s0.449-0.38,0.898-0.38c0.448,0,0.448,0.492,0.898,0.492c0.448,0,0.448-0.084,0.897-0.084
			c0.447,0,0.447-0.16,0.895-0.16s0.447,0.215,0.894,0.215s0.446,0.303,0.894,0.303s0.447-0.796,0.895-0.796
			c0.445,0,0.445-0.004,0.893-0.004s0.447,0.853,0.895,0.853c0.445,0,0.445-0.472,0.893-0.472s0.447-0.187,0.894-0.187
			s0.446-0.093,0.894-0.093c0.446,0,0.446-0.16,0.893-0.16c0.447,0,0.447,0.272,0.895,0.272c0.446,0,0.446,0.314,0.893,0.314
			c0.447,0,0.447,0.286,0.895,0.286c0.446,0,0.446-0.58,0.893-0.58c0.447,0,0.447,0.41,0.895,0.41s0.447-0.093,0.894-0.093
			s0.446,0.131,0.894,0.131s0.447-0.072,0.895-0.072s0.447-0.727,0.895-0.727s0.447,0.953,0.894,0.953
			c0.447,0,0.447-0.007,0.896-0.007c0.446,0,0.446-0.528,0.895-0.528c0.446,0,0.446-0.318,0.895-0.318
			c0.447,0,0.447,0.816,0.895,0.816s0.447-0.811,0.896-0.811c0.447,0,0.447,0.235,0.896,0.235c0.447,0,0.447-0.037,0.896-0.037
			s0.448,0.165,0.896,0.165c0.448,0,0.448-0.469,0.896-0.469s0.448,0.534,0.896,0.534c0.449,0,0.449-0.434,0.896-0.434
			c0.449,0,0.449,0.831,0.896,0.831c0.449,0,0.449-0.774,0.898-0.774s0.449,0.774,0.897,0.774c0.449,0,0.449-0.099,0.898-0.099
			s0.449-0.63,0.898-0.63s0.449,0.569,0.899,0.569c0.449,0,0.449-0.604,0.898-0.604s0.449,0.039,0.9,0.039
			c0.449,0,0.449,0.438,0.9,0.438c0.449,0,0.449,0.047,0.9,0.047s0.451-0.038,0.9-0.038c0.451,0,0.451-0.123,0.901-0.123
			s0.45,0.123,0.901,0.123c0.449,0,0.449-0.52,0.9-0.52c0.449,0,0.449,0.506,0.899,0.506s0.45-0.586,0.899-0.586
			c0.45,0,0.45,0.331,0.899,0.331c0.45,0,0.45-0.169,0.899-0.169s0.449,0.253,0.898,0.253s0.449-0.256,0.898-0.256
			s0.449,0.382,0.898,0.382s0.449,0.299,0.898,0.299c0.448,0,0.448-0.14,0.896-0.14c0.449,0,0.449-0.585,0.898-0.585
			s0.449-0.077,0.897-0.077s0.448,0.328,0.897,0.328c0.447,0,0.447,0.28,0.896,0.28s0.449-0.255,0.896-0.255
			c0.449,0,0.449,0.276,0.898,0.276c0.447,0,0.447,0.167,0.896,0.167c0.448,0,0.448-0.61,0.896-0.61s0.448-0.241,0.897-0.241
			c0.448,0,0.448,0.372,0.896,0.372s0.448,0.566,0.897,0.566c0.447,0,0.447-0.502,0.896-0.502s0.449,0.338,0.896,0.338
			c0.449,0,0.449-0.635,0.897-0.635c0.449,0,0.449,0.294,0.897,0.294c0.449,0,0.449-0.141,0.897-0.141s0.448,0.229,0.897,0.229
			s0.449,0.084,0.898,0.084s0.449,0.047,0.898,0.047s0.449-0.675,0.898-0.675s0.449,0.527,0.898,0.527s0.449,0.409,0.898,0.409
			c0.45,0,0.45-0.591,0.9-0.591c0.449,0,0.449,0.248,0.899,0.248s0.45,0.258,0.9,0.258s0.45-0.262,0.9-0.262s0.45-0.538,0.901-0.538
			s0.451,0.777,0.902,0.777c0.45,0,0.45-0.309,0.901-0.309c0.45,0,0.45-0.365,0.901-0.365s0.451,0.708,0.902,0.708
			s0.451-0.352,0.9-0.352c0.451,0,0.451,0.001,0.901,0.001s0.45-0.199,0.9-0.199s0.45-0.119,0.9-0.119s0.45,0.618,0.899,0.618
			c0.45,0,0.45-0.091,0.9-0.091c0.449,0,0.449-0.5,0.899-0.5c0.449,0,0.449,0.315,0.899,0.315c0.449,0,0.449-0.35,0.898-0.35
			s0.449-0.081,0.899-0.081c0.449,0,0.449,0.538,0.899,0.538c0.449,0,0.449-0.533,0.898-0.533s0.449-0.011,0.898-0.011
			c0.451,0,0.451,0.791,0.9,0.791s0.449-0.044,0.898-0.044s0.449-0.769,0.899-0.769s0.45,0.236,0.899,0.236
			c0.45,0,0.45-0.147,0.9-0.147c0.449,0,0.449,0.53,0.9,0.53c0.449,0,0.449-0.329,0.9-0.329c0.45,0,0.45,0.562,0.9,0.562
			c0.451,0,0.451-0.197,0.902-0.197c0.45,0,0.45,0.221,0.901,0.221s0.451-0.215,0.902-0.215s0.451,0.172,0.903,0.172
			c0.451,0,0.451-0.397,0.902-0.397s0.451-0.305,0.901-0.305c0.452,0,0.452-0.059,0.901-0.059c0.451,0,0.451,0.167,0.902,0.167
			c0.45,0,0.45,0.1,0.9,0.1c0.451,0,0.451,0.039,0.9,0.039c0.451,0,0.451-0.407,0.9-0.407c0.451,0,0.451,0.894,0.901,0.894
			s0.45,0.008,0.899,0.008c0.451,0,0.451-0.206,0.9-0.206c0.451,0,0.451-0.078,0.901-0.078s0.45-0.057,0.901-0.057
			c0.449,0,0.449-0.149,0.9-0.149c0.45,0,0.45,0.444,0.9,0.444c0.451,0,0.451,0.006,0.902,0.006s0.451-0.1,0.902-0.1
			s0.451-0.479,0.902-0.479s0.451,0.456,0.903,0.456s0.452,0.16,0.903,0.16s0.451-0.025,0.902-0.025s0.451-0.939,0.902-0.939
			c0.45,0,0.45,0.035,0.9,0.035c0.451,0,0.451,0.064,0.902,0.064s0.451,0.646,0.901,0.646c0.451,0,0.451-0.71,0.901-0.71
			c0.451,0,0.451,0.687,0.902,0.687c0.45,0,0.45-0.695,0.9-0.695c0.451,0,0.451,0.432,0.902,0.432s0.451-0.086,0.902-0.086
			s0.451-0.268,0.902-0.268c0.452,0,0.452-0.047,0.904-0.047c0.451,0,0.451,0.927,0.903,0.927c0.451,0,0.451-0.264,0.903-0.264
			c0.451,0,0.451-0.111,0.902-0.111c0.449,0,0.449-0.188,0.899-0.188s0.45,0.212,0.899,0.212s0.449-0.412,0.898-0.412
			s0.449,0.046,0.898,0.046c0.448,0,0.448-0.048,0.897-0.048s0.449-0.223,0.897-0.223c0.449,0,0.449,0.627,0.898,0.627
			s0.449-0.627,0.898-0.627s0.449,0.15,0.898,0.15s0.449,0.081,0.898,0.081c0.451,0,0.451,0.588,0.901,0.588s0.45-0.154,0.901-0.154
			s0.451-0.109,0.902-0.109c0.452,0,0.452-0.146,0.904-0.146c0.453,0,0.453-0.338,0.904-0.338c0.452,0,0.452,0.378,0.904,0.378
			c0.451,0,0.451,0.501,0.902,0.501c0.45,0,0.45-0.692,0.9-0.692c0.451,0,0.451,0.575,0.902,0.575c0.449,0,0.449-0.381,0.9-0.381
			s0.451,0.103,0.901,0.103c0.451,0,0.451,0.33,0.903,0.33c0.451,0,0.451-0.455,0.902-0.455c0.452,0,0.452-0.415,0.904-0.415
			c0.453,0,0.453,0.96,0.906,0.96c0.452,0,0.452-0.18,0.904-0.18s0.452-0.308,0.904-0.308c0.451,0,0.451,0.24,0.902,0.24
			s0.451-0.125,0.903-0.125s0.452,0.288,0.904,0.288s0.452-0.434,0.905-0.434s0.453,0.132,0.906,0.132s0.453,0.245,0.905,0.245
			s0.452-0.172,0.904-0.172s0.452-0.606,0.905-0.606s0.453,0.239,0.906,0.239s0.453,0.405,0.906,0.405
			c0.452,0,0.452-0.396,0.904-0.396c0.453,0,0.453,0.676,0.906,0.676s0.453-0.869,0.906-0.869c0.452,0,0.452-0.106,0.904-0.106
			c0.451,0,0.451,0.971,0.902,0.971s0.451-0.229,0.903-0.229c0.454,0,0.454-0.435,0.908-0.435c0.452,0,0.452,0.25,0.905,0.25
			s0.453,0.346,0.906,0.346c0.455,0,0.455,0.067,0.908,0.067c0.454,0,0.454-0.322,0.908-0.322c0.453,0,0.453-0.026,0.906-0.026
			s0.453-0.034,0.906-0.034c0.455,0,0.455,0.387,0.91,0.387s0.455-0.153,0.91-0.153c0.457,0,0.457-0.717,0.914-0.717
			s0.457,0.657,0.914,0.657c0.312,0,0.662-0.734,0.966-0.707c0.31,0.028,0.588,0.453,0.889,0.508
			c0.306,0.057,0.537,0.396,0.831,0.48c0.299,0.084,0.67-0.071,0.956,0.04c0.288,0.112,0.757-0.122,1.032,0.016
			c0.275,0.138,0.495,0.452,0.757,0.614c0.263,0.162,0.452,0.47,0.697,0.655c0.246,0.186,0.392,0.505,0.619,0.713
			s0.718,0.179,0.927,0.406c0.207,0.228,0.135,0.712,0.32,0.958s0.334,0.518,0.496,0.78c0.162,0.261,0.264,0.553,0.402,0.829
			c0.137,0.274-0.096,0.688,0.016,0.976c0.111,0.286,0.85,0.353,0.934,0.65c0.084,0.294-0.039,0.652,0.018,0.956
			c0.057,0.301,0.293,0.591,0.32,0.9c0.029,0.304-0.555,0.633-0.555,0.944c0,0.449,0.213,0.449,0.213,0.898
			c0,0.45-0.101,0.45-0.101,0.899c0,0.45,0.31,0.45,0.31,0.9c0,0.45,0.332,0.45,0.332,0.9c0,0.451-0.588,0.451-0.588,0.9
			c0,0.451,0.016,0.451,0.016,0.9c0,0.449,0.66,0.449,0.66,0.899s-0.084,0.45-0.084,0.899s-0.859,0.45-0.859,0.899
			c0,0.449,0.318,0.449,0.318,0.898c0,0.449-0.051,0.449-0.051,0.898c0,0.45-0.171,0.45-0.171,0.899c0,0.45,0.011,0.45,0.011,0.899
			c0,0.449,0.838,0.449,0.838,0.899c0,0.45-0.121,0.45-0.121,0.899c0,0.45-0.656,0.45-0.656,0.9c0,0.45,0.64,0.45,0.64,0.901
			c0,0.45-0.519,0.45-0.519,0.901c0,0.45-0.309,0.45-0.309,0.9c0,0.45,0.291,0.45,0.291,0.899c0,0.449-0.062,0.449-0.062,0.897
			c0,0.448,0.022,0.448,0.022,0.896c0,0.448,0.453,0.448,0.453,0.896s-0.094,0.448-0.094,0.895c0,0.448,0.35,0.448,0.35,0.896
			c0,0.448-0.596,0.448-0.596,0.895c0,0.448-0.054,0.448-0.054,0.895c0,0.448-0.036,0.448-0.036,0.896
			c0,0.448-0.121,0.448-0.121,0.896s0.789,0.448,0.789,0.896s-0.936,0.449-0.936,0.898c0,0.449,0.539,0.449,0.539,0.898
			c0,0.45-0.188,0.45-0.188,0.9c0,0.451-0.348,0.451-0.348,0.901c0,0.451,0.566,0.451,0.566,0.902s-0.174,0.451-0.174,0.9
			c0,0.45-0.021,0.45-0.021,0.9s0.373,0.45,0.373,0.899c0,0.449,0.079,0.449,0.079,0.898c0,0.45-0.686,0.45-0.686,0.898
			c0,0.45,0.453,0.45,0.453,0.899c0,0.45-0.358,0.45-0.358,0.899s0.209,0.45,0.209,0.9s-0.23,0.451-0.23,0.901
			c0,0.451,0.566,0.451,0.566,0.903c0,0.451,0.072,0.451,0.072,0.902c0,0.45-0.339,0.45-0.339,0.901c0,0.45,0.354,0.45,0.354,0.9
			c0,0.45,0.072,0.45,0.072,0.9s-0.569,0.451-0.569,0.901c0,0.451,0.199,0.451,0.199,0.902c0,0.453,0.261,0.453,0.261,0.904
			c0,0.451-0.596,0.451-0.596,0.902c0,0.451-0.215,0.451-0.215,0.901s0.381,0.451,0.381,0.902c0,0.452,0.264,0.452,0.264,0.904
			s-0.178,0.452-0.178,0.903s0.025,0.452,0.025,0.903s-0.12,0.451-0.12,0.903s0.521,0.452,0.521,0.904
			c0,0.45-0.592,0.45-0.592,0.901c0,0.45,0.068,0.45,0.068,0.899c0,0.451,0.322,0.451,0.322,0.9c0,0.453,0.046,0.453,0.046,0.906
			c0,0.452-0.304,0.452-0.304,0.903c0,0.452,0.168,0.452,0.168,0.903c0,0.453-0.522,0.453-0.522,0.906
			c0,0.452,0.191,0.452,0.191,0.904c0,0.452-0.106,0.452-0.106,0.904c0,0.451,0.676,0.451,0.676,0.903
			c0,0.454-0.304,0.454-0.304,0.907c0,0.454-0.474,0.454-0.474,0.908c0,0.456,0.51,0.456,0.51,0.911
			c0,0.456-0.359,0.456-0.359,0.911c0,0.312,0.447,0.639,0.42,0.942c-0.028,0.31-0.556,0.544-0.611,0.845
			c-0.057,0.304,0.168,0.661,0.083,0.955c-0.084,0.298-0.543,0.453-0.653,0.739c-0.111,0.288-0.273,0.514-0.41,0.789
			c-0.138,0.276-0.034,0.657-0.196,0.918c-0.163,0.263-0.021,0.739-0.207,0.984c-0.187,0.245-0.356,0.536-0.563,0.765
			c-0.209,0.227-0.848,0.023-1.074,0.23c-0.228,0.209-0.453,0.373-0.699,0.56c-0.246,0.186-0.249,0.708-0.511,0.872
			c-0.261,0.162-0.683,0.03-0.958,0.168s-0.41,0.584-0.699,0.696c-0.285,0.11-0.584,0.239-0.881,0.324
			c-0.295,0.083-0.656-0.096-0.961-0.038c-0.301,0.055-0.584,0.254-0.895,0.281C316.522,88.696,316.208,88.769,315.896,88.769z"/>
		<path fill="none" stroke="#333333" stroke-width="3" stroke-miterlimit="10" d="M315.896,88.769c-0.449,0-0.449-0.082-0.897-0.082
			c-0.449,0-0.449-0.048-0.898-0.048c-0.448,0-0.448,0.099-0.897,0.099s-0.449-0.209-0.897-0.209s-0.448,0.469-0.897,0.469
			s-0.449-0.816-0.896-0.816c-0.449,0-0.449,0.797-0.898,0.797c-0.447,0-0.447-0.747-0.896-0.747s-0.449,0.329-0.896,0.329
			c-0.449,0-0.449-0.363-0.898-0.363c-0.447,0-0.447,0.623-0.896,0.623c-0.448,0-0.448-0.514-0.896-0.514s-0.448,0.826-0.896,0.826
			c-0.449,0-0.449-0.247-0.896-0.247c-0.449,0-0.449-0.438-0.897-0.438s-0.448,0.592-0.897,0.592c-0.447,0-0.447-0.436-0.896-0.436
			c-0.447,0-0.447-0.364-0.896-0.364c-0.447,0-0.447,0.429-0.896,0.429c-0.447,0-0.447-0.471-0.896-0.471
			c-0.447,0-0.447,0.197-0.896,0.197c-0.447,0-0.447-0.096-0.896-0.096c-0.447,0-0.447,0.178-0.896,0.178
			c-0.448,0-0.448,0.457-0.896,0.457c-0.447,0-0.447,0.076-0.896,0.076c-0.447,0-0.447-0.502-0.896-0.502
			c-0.447,0-0.447,0.52-0.896,0.52c-0.447,0-0.447-0.307-0.896-0.307s-0.448,0.211-0.897,0.211c-0.447,0-0.447-0.736-0.896-0.736
			s-0.448,0.27-0.897,0.27c-0.447,0-0.447,0.169-0.896,0.169s-0.448-0.16-0.896-0.16s-0.448,0.235-0.897,0.235
			c-0.447,0-0.447-0.229-0.896-0.229c-0.447,0-0.447,0.252-0.896,0.252c-0.447,0-0.447,0.049-0.896,0.049
			c-0.448,0-0.448-0.528-0.896-0.528s-0.448,0.784-0.896,0.784c-0.449,0-0.449-0.196-0.896-0.196c-0.449,0-0.449-0.222-0.897-0.222
			s-0.448,0.308-0.897,0.308c-0.448,0-0.448-0.785-0.896-0.785c-0.449,0-0.449,0.354-0.896,0.354c-0.449,0-0.449,0.607-0.898,0.607
			c-0.448,0-0.448-0.07-0.896-0.07c-0.449,0-0.449,0.042-0.898,0.042c-0.448,0-0.448-0.712-0.896-0.712
			c-0.449,0-0.449,0.685-0.898,0.685c-0.448,0-0.448-0.892-0.896-0.892c-0.449,0-0.449,0.846-0.898,0.846s-0.449-0.131-0.897-0.131
			c-0.45,0-0.45,0.179-0.899,0.179s-0.449,0.021-0.897,0.021c-0.449,0-0.449-0.718-0.898-0.718c-0.448,0-0.448,0.024-0.898,0.024
			s-0.45,0.641-0.898,0.641c-0.45,0-0.45-0.049-0.899-0.049s-0.449-0.09-0.898-0.09c-0.45,0-0.45-0.25-0.899-0.25
			c-0.45,0-0.45-0.383-0.899-0.383s-0.449,0.854-0.898,0.854c-0.451,0-0.451-0.289-0.9-0.289s-0.449-0.009-0.899-0.009
			s-0.45-0.062-0.899-0.062s-0.449-0.453-0.898-0.453c-0.45,0-0.45,0.711-0.9,0.711c-0.449,0-0.449-0.098-0.898-0.098
			s-0.449,0.01-0.898,0.01s-0.449-0.506-0.898-0.506s-0.449,0.047-0.898,0.047s-0.449,0.351-0.898,0.351s-0.449-0.49-0.898-0.49
			s-0.449-0.003-0.898-0.003s-0.449-0.107-0.897-0.107c-0.449,0-0.449,0.529-0.898,0.529c-0.448,0-0.448-0.143-0.897-0.143
			s-0.449-0.303-0.898-0.303s-0.449,0.569-0.897,0.569s-0.448-0.436-0.897-0.436s-0.449-0.161-0.898-0.161
			c-0.448,0-0.448,0.269-0.896,0.269c-0.449,0-0.449,0.256-0.898,0.256c-0.448,0-0.448-0.001-0.896-0.001
			c-0.449,0-0.449-0.262-0.898-0.262c-0.448,0-0.448,0.143-0.896,0.143c-0.449,0-0.449-0.336-0.898-0.336c-0.448,0-0.448,0-0.897,0
			c-0.448,0-0.448,0.389-0.897,0.389c-0.448,0-0.448,0.188-0.896,0.188c-0.449,0-0.449,0.036-0.898,0.036
			c-0.448,0-0.448-0.796-0.896-0.796c-0.449,0-0.449,0.479-0.897,0.479c-0.45,0-0.45,0.173-0.897,0.173
			c-0.449,0-0.449-0.13-0.898-0.13c-0.448,0-0.448,0.038-0.896,0.038c-0.449,0-0.449-0.479-0.898-0.479s-0.449-0.08-0.898-0.08
			c-0.447,0-0.447,0.714-0.896,0.714s-0.449-0.582-0.898-0.582s-0.449,0.833-0.898,0.833c-0.448,0-0.448,0.018-0.897,0.018
			s-0.449-0.569-0.897-0.569c-0.45,0-0.45-0.315-0.898-0.315c-0.449,0-0.449-0.076-0.898-0.076s-0.449,0.951-0.898,0.951
			c-0.45,0-0.45-0.698-0.899-0.698c-0.45,0-0.45,0.656-0.899,0.656s-0.449-0.352-0.898-0.352s-0.449-0.455-0.898-0.455
			c-0.45,0-0.45,0.331-0.899,0.331c-0.45,0-0.45-0.319-0.899-0.319c-0.45,0-0.45,0.521-0.9,0.521c-0.449,0-0.449-0.42-0.9-0.42
			c-0.449,0-0.449,0.146-0.898,0.146c-0.451,0-0.451,0.539-0.9,0.539s-0.449-0.461-0.9-0.461c-0.449,0-0.449,0.477-0.898,0.477
			s-0.449-0.145-0.9-0.145c-0.448,0-0.448,0.107-0.898,0.107c-0.449,0-0.449-0.088-0.898-0.088s-0.449-0.107-0.899-0.107
			c-0.449,0-0.449,0.23-0.898,0.23s-0.449-0.362-0.898-0.362s-0.449,0.06-0.899,0.06c-0.449,0-0.449,0.139-0.898,0.139
			s-0.449-0.375-0.898-0.375s-0.449,0.506-0.898,0.506c-0.447,0-0.447-0.729-0.898-0.729c-0.448,0-0.448,0.257-0.897,0.257
			s-0.449-0.042-0.897-0.042c-0.449,0-0.449,0.354-0.898,0.354s-0.449-0.627-0.898-0.627s-0.449,0.682-0.898,0.682
			s-0.449,0.156-0.898,0.156s-0.449-0.533-0.898-0.533c-0.448,0-0.448-0.203-0.897-0.203s-0.449,0.297-0.898,0.297
			c-0.448,0-0.448,0.459-0.897,0.459s-0.449-0.739-0.898-0.739c-0.447,0-0.447,0.429-0.895,0.429s-0.447-0.173-0.893-0.173
			c-0.447,0-0.447-0.106-0.895-0.106s-0.447-0.234-0.894-0.234s-0.446,0.605-0.894,0.605s-0.447-0.613-0.893-0.613
			c-0.447,0-0.447,0.382-0.895,0.382s-0.447-0.023-0.894-0.023s-0.446-0.374-0.894-0.374c-0.446,0-0.446,0.098-0.893,0.098
			c-0.447,0-0.447,0.766-0.895,0.766c-0.446,0-0.446-0.051-0.893-0.051c-0.447,0-0.447-0.826-0.894-0.826
			c-0.447,0-0.447,0.628-0.894,0.628c-0.447,0-0.447,0.198-0.895,0.198s-0.447-0.488-0.894-0.488s-0.446-0.006-0.894-0.006
			s-0.447,0.547-0.895,0.547s-0.447-0.77-0.894-0.77c-0.447,0-0.447,0.461-0.895,0.461s-0.447,0.249-0.895,0.249
			s-0.447-0.661-0.895-0.661s-0.447-0.008-0.896-0.008c-0.447,0-0.447,0.137-0.895,0.137s-0.447-0.141-0.895-0.141
			s-0.447-0.002-0.896-0.002c-0.447,0-0.447-0.177-0.895-0.177c-0.449,0-0.449,0.237-0.896,0.237c-0.448,0-0.448,0.28-0.896,0.28
			s-0.448,0.032-0.896,0.032s-0.448-0.244-0.896-0.244c-0.449,0-0.449-0.26-0.896-0.26c-0.449,0-0.449,0.02-0.898,0.02
			c-0.448,0-0.448,0.781-0.897,0.781c-0.448,0-0.448-0.803-0.898-0.803c-0.449,0-0.449,0.828-0.898,0.828s-0.449-0.668-0.898-0.668
			c-0.45,0-0.45-0.092-0.899-0.092c-0.45,0-0.45,0.196-0.9,0.196c-0.449,0-0.449-0.319-0.9-0.319c-0.449,0-0.449,0.414-0.9,0.414
			c-0.45,0-0.45-0.042-0.901-0.042c-0.45,0-0.45-0.319-0.9-0.319s-0.45,0-0.901,0c-0.45,0-0.45,0.512-0.899,0.512
			c-0.45,0-0.45-0.169-0.9-0.169s-0.45,0.021-0.899,0.021c-0.45,0-0.45,0.161-0.899,0.161c-0.45,0-0.45,0.293-0.899,0.293
			s-0.449-0.93-0.898-0.93s-0.449,0.313-0.898,0.313s-0.449-0.15-0.898-0.15s-0.449-0.117-0.898-0.117
			c-0.448,0-0.448,0.821-0.896,0.821c-0.449,0-0.449-0.26-0.898-0.26s-0.449,0.073-0.897,0.073s-0.448-0.103-0.897-0.103
			c-0.447,0-0.447,0.358-0.896,0.358s-0.449-0.599-0.897-0.599s-0.448,0.406-0.897,0.406c-0.447,0-0.447-0.099-0.896-0.099
			c-0.448,0-0.448,0.03-0.896,0.03s-0.448-0.033-0.896-0.033c-0.449,0-0.449-0.638-0.897-0.638s-0.448,0.623-0.897,0.623
			c-0.447,0-0.447-0.489-0.896-0.489s-0.449,0.56-0.896,0.56c-0.449,0-0.449-0.252-0.897-0.252c-0.449,0-0.449,0.324-0.897,0.324
			c-0.449,0-0.449-0.765-0.897-0.765s-0.448,0.204-0.897,0.204s-0.449-0.107-0.898-0.107s-0.449,0.695-0.898,0.695
			s-0.449-0.114-0.898-0.114s-0.449,0.259-0.898,0.259s-0.449-0.39-0.898-0.39c-0.45,0-0.45-0.36-0.9-0.36
			c-0.449,0-0.449-0.188-0.899-0.188s-0.45,0.154-0.9,0.154s-0.45,0.797-0.899,0.797c-0.451,0-0.451-0.658-0.902-0.658
			s-0.451,0.254-0.901,0.254c-0.451,0-0.451-0.125-0.901-0.125c-0.451,0-0.451,0.491-0.902,0.491s-0.451-0.018-0.902-0.018
			s-0.451-0.766-0.9-0.766c-0.451,0-0.451,0.504-0.901,0.504s-0.45,0.339-0.9,0.339s-0.45-0.535-0.9-0.535s-0.45,0.029-0.899,0.029
			c-0.45,0-0.45,0.236-0.9,0.236c-0.449,0-0.449,0.264-0.898,0.265c-0.45,0-0.45-0.44-0.9-0.44c-0.449,0-0.449,0.042-0.898,0.042
			s-0.449,0.23-0.898,0.23c-0.45,0-0.45-0.72-0.9-0.72c-0.449,0-0.449,0.809-0.898,0.809s-0.449,0.004-0.898,0.004
			c-0.45,0-0.45-0.334-0.9-0.334c-0.449,0-0.449,0.285-0.898,0.285s-0.449-0.424-0.9-0.424c-0.449,0-0.449,0.336-0.898,0.336
			c-0.45,0-0.45-0.607-0.9-0.607c-0.449,0-0.449,0.728-0.899,0.728s-0.45-0.362-0.901-0.362c-0.449,0-0.449-0.418-0.9-0.418
			s-0.451,0.532-0.902,0.532c-0.45,0-0.45,0.007-0.9,0.007c-0.451,0-0.451-0.352-0.902-0.352c-0.452,0-0.452-0.24-0.904-0.24
			c-0.451,0-0.451,0.429-0.902,0.429s-0.451,0.501-0.901,0.501c-0.451,0-0.451-0.098-0.901-0.098c-0.451,0-0.451-0.482-0.902-0.482
			c-0.449,0-0.449,0.297-0.9,0.297s-0.451,0.08-0.9,0.08c-0.451,0-0.451-0.271-0.9-0.271c-0.45,0-0.45-0.016-0.9-0.016
			c-0.451,0-0.451-0.043-0.9-0.043c-0.451,0-0.451-0.01-0.9-0.01c-0.451,0-0.451-0.083-0.9-0.083c-0.451,0-0.451,0.146-0.901,0.146
			s-0.45,0.053-0.901,0.053c-0.45,0-0.45-0.027-0.9-0.027c-0.451,0-0.451-0.465-0.902-0.465S77.469,88.9,77.018,88.9
			s-0.451,0.068-0.902,0.068s-0.451-0.488-0.903-0.488c-0.451,0-0.451,0.527-0.903,0.527c-0.451,0-0.451,0.114-0.902,0.114
			s-0.451-0.413-0.902-0.413c-0.45,0-0.45,0.07-0.9,0.07c-0.451,0-0.451-0.542-0.902-0.542s-0.451,0.054-0.901,0.054
			s-0.45,0.123-0.901,0.123s-0.451,0.176-0.902,0.176c-0.45,0-0.45-0.218-0.9-0.218c-0.451,0-0.451,0.625-0.902,0.625
			s-0.451-0.087-0.902-0.087s-0.451-0.711-0.902-0.711c-0.452,0-0.452,0-0.904,0c-0.451,0-0.451,0.732-0.903,0.732
			c-0.451,0-0.451,0.052-0.903,0.052c-0.451,0-0.451-0.763-0.902-0.763c-0.449,0-0.449,0.107-0.899,0.107s-0.45,0.162-0.899,0.162
			s-0.449,0.326-0.898,0.326s-0.449,0.186-0.897,0.186c-0.449,0-0.449-0.318-0.898-0.318c-0.448,0-0.448,0.35-0.897,0.35
			s-0.449-0.85-0.898-0.85s-0.449,0.953-0.898,0.953s-0.449-0.017-0.898-0.017s-0.449-0.272-0.898-0.272
			c-0.451,0-0.451-0.056-0.9-0.056c-0.451,0-0.451-0.429-0.902-0.429s-0.451,0.474-0.902,0.474c-0.452,0-0.452-0.527-0.904-0.527
			s-0.452,0.372-0.904,0.372c-0.451,0-0.451-0.041-0.904-0.041c-0.451,0-0.451,0.1-0.901,0.1c-0.451,0-0.451-0.42-0.901-0.42
			c-0.451,0-0.451,0.76-0.902,0.76c-0.45,0-0.45-0.393-0.9-0.393c-0.451,0-0.451-0.283-0.901-0.283
			c-0.451,0-0.451,0.105-0.902,0.105c-0.452,0-0.452,0.133-0.903,0.133c-0.452,0-0.452,0.106-0.904,0.106
			c-0.453,0-0.453,0.046-0.906,0.046c-0.452,0-0.452-0.534-0.904-0.534s-0.452,0.185-0.904,0.185c-0.451,0-0.451,0.432-0.902,0.432
			s-0.451-0.465-0.903-0.465s-0.452,0.668-0.904,0.668s-0.452-0.396-0.905-0.396s-0.453-0.162-0.906-0.162s-0.453,0.473-0.905,0.473
			s-0.452-0.648-0.904-0.648s-0.452,0.096-0.905,0.096s-0.453,0.253-0.905,0.253c-0.454,0-0.454-0.228-0.907-0.228
			c-0.452,0-0.452,0.486-0.904,0.486c-0.453,0-0.453-0.494-0.906-0.494s-0.453,0.035-0.906,0.035c-0.452,0-0.452-0.232-0.904-0.232
			c-0.451,0-0.451,0.66-0.902,0.66s-0.451-0.614-0.903-0.614c-0.454,0-0.454-0.028-0.908-0.028c-0.452,0-0.452,0.406-0.905,0.406
			s-0.453-0.234-0.906-0.234c-0.455,0-0.455,0.41-0.908,0.41c-0.455,0-0.455-0.609-0.908-0.609s-0.453,0.227-0.906,0.227
			s-0.453,0.007-0.906,0.007c-0.455,0-0.455,0.003-0.909,0.003c-0.456,0-0.456,0.281-0.911,0.281c-0.457,0-0.457-0.532-0.914-0.532
			s-0.457,0.085-0.914,0.085c-0.311,0-0.639,0.521-0.943,0.492c-0.31-0.028-0.682,0.182-0.982,0.125
			c-0.305-0.057-0.572-0.405-0.866-0.488c-0.298-0.086-0.403-0.719-0.688-0.83c-0.289-0.111-0.766,0.23-1.041,0.094
			C7.172,87.576,6.74,87.663,6.479,87.5c-0.262-0.163-0.225-0.786-0.471-0.972c-0.246-0.187-0.73-0.096-0.959-0.303
			c-0.228-0.208-0.492-0.416-0.7-0.644s-0.434-0.479-0.619-0.726c-0.186-0.244-0.274-0.586-0.437-0.849
			c-0.162-0.261-0.443-0.486-0.58-0.762c-0.138-0.274-0.375-0.546-0.487-0.834c-0.111-0.286,0.163-0.727,0.079-1.025
			c-0.084-0.294-0.46-0.542-0.517-0.846c-0.056-0.3,0.47-0.691,0.44-1c-0.027-0.304,0.134-0.592,0.134-0.904
			c0-0.449,0.088-0.449,0.088-0.898c0-0.45-0.751-0.45-0.751-0.899c0-0.45,0.29-0.45,0.29-0.9c0-0.451-0.22-0.451-0.22-0.9
			c0-0.45,0.037-0.45,0.037-0.9c0-0.45,0.268-0.45,0.268-0.9c0-0.449,0.184-0.449,0.184-0.899c0-0.449,0.172-0.449,0.172-0.899
			c0-0.449-0.457-0.449-0.457-0.898s0.021-0.449,0.021-0.898c0-0.45,0.121-0.45,0.121-0.899s-0.504-0.449-0.504-0.899
			c0-0.449,0.651-0.449,0.651-0.898c0-0.45-0.21-0.45-0.21-0.899c0-0.45-0.46-0.45-0.46-0.9s0.183-0.45,0.183-0.9
			c0-0.45-0.248-0.45-0.248-0.9c0-0.45,0.525-0.45,0.525-0.901c0-0.45,0.273-0.45,0.273-0.9c0-0.45-0.411-0.45-0.411-0.899
			c0-0.449,0.421-0.449,0.421-0.897c0-0.448-0.381-0.448-0.381-0.896s0.447-0.448,0.447-0.896c0-0.448-0.693-0.448-0.693-0.896
			c0-0.448,0.651-0.448,0.651-0.895S1.77,55.72,1.77,55.272c0-0.447,0.566-0.447,0.566-0.895s-0.239-0.448-0.239-0.896
			c0-0.448-0.421-0.448-0.421-0.896c0-0.448,0.025-0.448,0.025-0.896c0-0.449-0.072-0.449-0.072-0.897
			c0-0.449,0.717-0.449,0.717-0.899s-0.139-0.45-0.139-0.9c0-0.451,0.214-0.451,0.214-0.901c0-0.451-0.517-0.451-0.517-0.902
			s0.327-0.451,0.327-0.901c0-0.45-0.206-0.45-0.206-0.899s-0.23-0.45-0.23-0.898c0-0.449,0.25-0.449,0.25-0.898
			s0.357-0.449,0.357-0.898s-0.678-0.449-0.678-0.899s0.193-0.45,0.193-0.899s0.446-0.45,0.446-0.9c0-0.451-0.829-0.451-0.829-0.902
			c0-0.452,0.059-0.452,0.059-0.903c0-0.451,0.188-0.451,0.188-0.902c0-0.451,0.428-0.451,0.428-0.901s0.16-0.45,0.16-0.9
			s-0.568-0.45-0.568-0.9s0.65-0.45,0.65-0.901s-0.424-0.451-0.424-0.903s0.19-0.452,0.19-0.903s0.091-0.451,0.091-0.903
			c0-0.451-0.246-0.451-0.246-0.901c0-0.451,0.252-0.451,0.252-0.902c0-0.452-0.268-0.452-0.268-0.904s-0.305-0.452-0.305-0.903
			c0-0.451-0.242-0.451-0.242-0.903c0-0.451,0.957-0.451,0.957-0.903s-0.744-0.452-0.744-0.904c0-0.45,0.215-0.45,0.215-0.901
			c0-0.45,0.174-0.45,0.174-0.899c0-0.451-0.204-0.451-0.204-0.901c0-0.452,0.568-0.452,0.568-0.905
			c0-0.451-0.144-0.451-0.144-0.903c0-0.451-0.104-0.451-0.104-0.902c0-0.454-0.596-0.454-0.596-0.906
			c0-0.452,0.664-0.452,0.664-0.905c0-0.452-0.244-0.452-0.244-0.904c0-0.451-0.047-0.451-0.047-0.902
			c0-0.454,0.435-0.454,0.435-0.907c0-0.454-0.248-0.454-0.248-0.909c0-0.456-0.453-0.456-0.453-0.911
			c0-0.456,0.468-0.456,0.468-0.911c0-0.312-0.252-0.623-0.224-0.927c0.028-0.31,0.151-0.603,0.208-0.904
			c0.057-0.305,0.063-0.619,0.146-0.913C2.412,8.949,2.959,8.828,3.07,8.542C3.182,8.253,2.717,7.725,2.854,7.45
			c0.138-0.276,0.431-0.477,0.592-0.738C3.609,6.449,4.117,6.444,4.303,6.2C4.488,5.954,4.1,5.231,4.307,5.004
			c0.208-0.228,0.801-0.085,1.027-0.293c0.229-0.207,0.464-0.383,0.71-0.569C6.289,3.957,6.66,4,6.923,3.837
			c0.261-0.162,0.317-0.65,0.595-0.788c0.274-0.137,0.409-0.636,0.697-0.748C8.501,2.19,8.869,2.229,9.168,2.145
			c0.293-0.084,0.574-0.371,0.88-0.428c0.301-0.056,0.661,0.054,0.972,0.025c0.303-0.028,0.639,0.322,0.949,0.322
			c0.449,0,0.449-0.248,0.897-0.248c0.449,0,0.449,0.361,0.898,0.361c0.448,0,0.448-0.296,0.897-0.296s0.449,0.52,0.896,0.52
			c0.449,0,0.449-0.191,0.898-0.191s0.449-0.229,0.897-0.229s0.448-0.308,0.897-0.308c0.448,0,0.448,0.665,0.896,0.665
			c0.449,0,0.449-0.187,0.896-0.187c0.449,0,0.449-0.484,0.898-0.484c0.448,0,0.448,0.288,0.896,0.288s0.448-0.137,0.896-0.137
			c0.449,0,0.449,0.587,0.897,0.587s0.448-0.054,0.897-0.054c0.447,0,0.447-0.354,0.896-0.354s0.448-0.123,0.897-0.123
			c0.447,0,0.447-0.088,0.896-0.088c0.447,0,0.447,0.397,0.896,0.397c0.447,0,0.447,0.046,0.896,0.046
			c0.447,0,0.447,0.243,0.896,0.243c0.447,0,0.447-0.436,0.896-0.436c0.447,0,0.447-0.535,0.896-0.535
			c0.448,0,0.448,0.497,0.896,0.497c0.447,0,0.447,0.28,0.896,0.28c0.447,0,0.447-0.595,0.896-0.595
			c0.447,0,0.447,0.536,0.896,0.536c0.447,0,0.447-0.552,0.896-0.552c0.447,0,0.447,0.172,0.896,0.172s0.448,0.117,0.896,0.117
			s0.448-0.292,0.897-0.292c0.447,0,0.447,0.221,0.896,0.221c0.447,0,0.447,0.246,0.896,0.246c0.447,0,0.447,0.244,0.896,0.244
			s0.448-0.799,0.897-0.799c0.447,0,0.447,0.808,0.896,0.808c0.447,0,0.447-0.43,0.896-0.43c0.447,0,0.447,0.135,0.896,0.135
			c0.448,0,0.448-0.575,0.896-0.575c0.449,0,0.449,0.622,0.896,0.622c0.449,0,0.449,0,0.896,0c0.449,0,0.449-0.568,0.897-0.568
			s0.448,0.783,0.897,0.783c0.448,0,0.448-0.128,0.896-0.128c0.449,0,0.449-0.213,0.896-0.213c0.449,0,0.449-0.28,0.898-0.28
			c0.448,0,0.448,0.374,0.896,0.374c0.449,0,0.449,0.154,0.898,0.154s0.449-0.109,0.896-0.109c0.449,0,0.449-0.029,0.898-0.029
			c0.448,0,0.448-0.31,0.896-0.31c0.45,0,0.45-0.109,0.898-0.109c0.449,0,0.449,0.111,0.898,0.111s0.449,0.392,0.898,0.392
			s0.449-0.54,0.898-0.54c0.448,0,0.448,0.259,0.897,0.259s0.449,0.155,0.899,0.155c0.449,0,0.449,0.322,0.897,0.322
			c0.45,0,0.45-0.262,0.899-0.262s0.449,0.202,0.898,0.202c0.45,0,0.45-0.21,0.899-0.21c0.45,0,0.45-0.21,0.899-0.21
			s0.449,0.381,0.899,0.381s0.45,0.188,0.899,0.188s0.449-0.821,0.899-0.821s0.45,0.354,0.899,0.354s0.449,0.039,0.898,0.039
			c0.45,0,0.45,0.302,0.9,0.302c0.449,0,0.449-0.456,0.898-0.456s0.449-0.127,0.898-0.127s0.449-0.236,0.898-0.236
			s0.449,0.33,0.898,0.33s0.449,0.27,0.898,0.27s0.449-0.204,0.898-0.204s0.449,0.394,0.898,0.394s0.449-0.569,0.898-0.569
			c0.448,0,0.448,0.583,0.896,0.583c0.449,0,0.449-0.369,0.898-0.369s0.449-0.195,0.898-0.195s0.449,0.044,0.897,0.044
			s0.448-0.082,0.897-0.082s0.449,0.195,0.897,0.195c0.45,0,0.45,0.18,0.897,0.18c0.449,0,0.449-0.354,0.898-0.354
			c0.448,0,0.448,0.119,0.896,0.119c0.449,0,0.449,0.279,0.898,0.279s0.449-0.589,0.896-0.589c0.449,0,0.449-0.017,0.898-0.017
			c0.448,0,0.448,0.565,0.896,0.565c0.449,0,0.449,0.361,0.898,0.361c0.448,0,0.448-0.251,0.896-0.251
			c0.449,0,0.449-0.598,0.898-0.598c0.448,0,0.448,0.388,0.896,0.388c0.449,0,0.449-0.034,0.898-0.034
			c0.448,0,0.448-0.155,0.896-0.155c0.449,0,0.449-0.079,0.898-0.079c0.448,0,0.448-0.132,0.896-0.132
			c0.449,0,0.449,0.331,0.898,0.331s0.449,0.306,0.898,0.306c0.448,0,0.448-0.37,0.897-0.37c0.448,0,0.448,0.158,0.897,0.158
			s0.449-0.025,0.898-0.025s0.449-0.14,0.897-0.14c0.449,0,0.449,0.089,0.898,0.089c0.45,0,0.45,0.459,0.897,0.459
			c0.449,0,0.449-0.188,0.898-0.188s0.449-0.69,0.9-0.69c0.448,0,0.448,0.313,0.897,0.313c0.45,0,0.45-0.25,0.899-0.25
			s0.449,0.428,0.898,0.428c0.45,0,0.45,0.342,0.898,0.342c0.45,0,0.45-0.006,0.9-0.006c0.449,0,0.449-0.774,0.898-0.774
			c0.451,0,0.451,0.141,0.9,0.141s0.449,0.362,0.9,0.362c0.449,0,0.449-0.435,0.899-0.435s0.45,0.551,0.899,0.551
			s0.449-0.512,0.9-0.512c0.449,0,0.449,0.453,0.898,0.453c0.45,0,0.45-0.25,0.899-0.25s0.449,0.062,0.899,0.062
			c0.449,0,0.449-0.265,0.898-0.265s0.449,0.593,0.899,0.593c0.449,0,0.449-0.79,0.898-0.79s0.449,0.031,0.899,0.031
			c0.449,0,0.449,0.065,0.898,0.065s0.449,0.265,0.898,0.265s0.449-0.088,0.898-0.088s0.449,0.14,0.898,0.14
			s0.449,0.044,0.898,0.044c0.448,0,0.448-0.444,0.897-0.444s0.449,0.86,0.898,0.86c0.448,0,0.448-0.742,0.897-0.742
			s0.449,0.014,0.898,0.014s0.449-0.09,0.898-0.09s0.449,0.793,0.898,0.793s0.449-0.321,0.897-0.321
			c0.449,0,0.449,0.005,0.898,0.005s0.449-0.38,0.898-0.38c0.448,0,0.448,0.492,0.898,0.492c0.448,0,0.448-0.084,0.897-0.084
			c0.447,0,0.447-0.16,0.895-0.16s0.447,0.215,0.894,0.215s0.446,0.303,0.894,0.303s0.447-0.796,0.895-0.796
			c0.445,0,0.445-0.004,0.893-0.004s0.447,0.853,0.895,0.853c0.445,0,0.445-0.472,0.893-0.472s0.447-0.187,0.894-0.187
			s0.446-0.093,0.894-0.093c0.446,0,0.446-0.16,0.893-0.16c0.447,0,0.447,0.272,0.895,0.272c0.446,0,0.446,0.314,0.893,0.314
			c0.447,0,0.447,0.286,0.895,0.286c0.446,0,0.446-0.58,0.893-0.58c0.447,0,0.447,0.41,0.895,0.41s0.447-0.093,0.894-0.093
			s0.446,0.131,0.894,0.131s0.447-0.072,0.895-0.072s0.447-0.727,0.895-0.727s0.447,0.953,0.894,0.953
			c0.447,0,0.447-0.007,0.896-0.007c0.446,0,0.446-0.528,0.895-0.528c0.446,0,0.446-0.318,0.895-0.318
			c0.447,0,0.447,0.816,0.895,0.816s0.447-0.811,0.896-0.811c0.447,0,0.447,0.235,0.896,0.235c0.447,0,0.447-0.037,0.896-0.037
			s0.448,0.165,0.896,0.165c0.448,0,0.448-0.469,0.896-0.469s0.448,0.534,0.896,0.534c0.449,0,0.449-0.434,0.896-0.434
			c0.449,0,0.449,0.831,0.896,0.831c0.449,0,0.449-0.774,0.898-0.774s0.449,0.774,0.897,0.774c0.449,0,0.449-0.099,0.898-0.099
			s0.449-0.63,0.898-0.63s0.449,0.569,0.899,0.569c0.449,0,0.449-0.604,0.898-0.604s0.449,0.039,0.9,0.039
			c0.449,0,0.449,0.438,0.9,0.438c0.449,0,0.449,0.047,0.9,0.047s0.451-0.038,0.9-0.038c0.451,0,0.451-0.123,0.901-0.123
			s0.45,0.123,0.901,0.123c0.449,0,0.449-0.52,0.9-0.52c0.449,0,0.449,0.506,0.899,0.506s0.45-0.586,0.899-0.586
			c0.45,0,0.45,0.331,0.899,0.331c0.45,0,0.45-0.169,0.899-0.169s0.449,0.253,0.898,0.253s0.449-0.256,0.898-0.256
			s0.449,0.382,0.898,0.382s0.449,0.299,0.898,0.299c0.448,0,0.448-0.14,0.896-0.14c0.449,0,0.449-0.585,0.898-0.585
			s0.449-0.077,0.897-0.077s0.448,0.328,0.897,0.328c0.447,0,0.447,0.28,0.896,0.28s0.449-0.255,0.896-0.255
			c0.449,0,0.449,0.276,0.898,0.276c0.447,0,0.447,0.167,0.896,0.167c0.448,0,0.448-0.61,0.896-0.61s0.448-0.241,0.897-0.241
			c0.448,0,0.448,0.372,0.896,0.372s0.448,0.566,0.897,0.566c0.447,0,0.447-0.502,0.896-0.502s0.449,0.338,0.896,0.338
			c0.449,0,0.449-0.635,0.897-0.635c0.449,0,0.449,0.294,0.897,0.294c0.449,0,0.449-0.141,0.897-0.141s0.448,0.229,0.897,0.229
			s0.449,0.084,0.898,0.084s0.449,0.047,0.898,0.047s0.449-0.675,0.898-0.675s0.449,0.527,0.898,0.527s0.449,0.409,0.898,0.409
			c0.45,0,0.45-0.591,0.9-0.591c0.449,0,0.449,0.248,0.899,0.248s0.45,0.258,0.9,0.258s0.45-0.262,0.9-0.262s0.45-0.538,0.901-0.538
			s0.451,0.777,0.902,0.777c0.45,0,0.45-0.309,0.901-0.309c0.45,0,0.45-0.365,0.901-0.365s0.451,0.708,0.902,0.708
			s0.451-0.352,0.9-0.352c0.451,0,0.451,0.001,0.901,0.001s0.45-0.199,0.9-0.199s0.45-0.119,0.9-0.119s0.45,0.618,0.899,0.618
			c0.45,0,0.45-0.091,0.9-0.091c0.449,0,0.449-0.5,0.899-0.5c0.449,0,0.449,0.315,0.899,0.315c0.449,0,0.449-0.35,0.898-0.35
			s0.449-0.081,0.899-0.081c0.449,0,0.449,0.538,0.899,0.538c0.449,0,0.449-0.533,0.898-0.533s0.449-0.011,0.898-0.011
			c0.451,0,0.451,0.791,0.9,0.791s0.449-0.044,0.898-0.044s0.449-0.769,0.899-0.769s0.45,0.236,0.899,0.236
			c0.45,0,0.45-0.147,0.9-0.147c0.449,0,0.449,0.53,0.9,0.53c0.449,0,0.449-0.329,0.9-0.329c0.45,0,0.45,0.562,0.9,0.562
			c0.451,0,0.451-0.197,0.902-0.197c0.45,0,0.45,0.221,0.901,0.221s0.451-0.215,0.902-0.215s0.451,0.172,0.903,0.172
			c0.451,0,0.451-0.397,0.902-0.397s0.451-0.305,0.901-0.305c0.452,0,0.452-0.059,0.901-0.059c0.451,0,0.451,0.167,0.902,0.167
			c0.45,0,0.45,0.1,0.9,0.1c0.451,0,0.451,0.039,0.9,0.039c0.451,0,0.451-0.407,0.9-0.407c0.451,0,0.451,0.894,0.901,0.894
			s0.45,0.008,0.899,0.008c0.451,0,0.451-0.206,0.9-0.206c0.451,0,0.451-0.078,0.901-0.078s0.45-0.057,0.901-0.057
			c0.449,0,0.449-0.149,0.9-0.149c0.45,0,0.45,0.444,0.9,0.444c0.451,0,0.451,0.006,0.902,0.006s0.451-0.1,0.902-0.1
			s0.451-0.479,0.902-0.479s0.451,0.456,0.903,0.456s0.452,0.16,0.903,0.16s0.451-0.025,0.902-0.025s0.451-0.939,0.902-0.939
			c0.45,0,0.45,0.035,0.9,0.035c0.451,0,0.451,0.064,0.902,0.064s0.451,0.646,0.901,0.646c0.451,0,0.451-0.71,0.901-0.71
			c0.451,0,0.451,0.687,0.902,0.687c0.45,0,0.45-0.695,0.9-0.695c0.451,0,0.451,0.432,0.902,0.432s0.451-0.086,0.902-0.086
			s0.451-0.268,0.902-0.268c0.452,0,0.452-0.047,0.904-0.047c0.451,0,0.451,0.927,0.903,0.927c0.451,0,0.451-0.264,0.903-0.264
			c0.451,0,0.451-0.111,0.902-0.111c0.449,0,0.449-0.188,0.899-0.188s0.45,0.212,0.899,0.212s0.449-0.412,0.898-0.412
			s0.449,0.046,0.898,0.046c0.448,0,0.448-0.048,0.897-0.048s0.449-0.223,0.897-0.223c0.449,0,0.449,0.627,0.898,0.627
			s0.449-0.627,0.898-0.627s0.449,0.15,0.898,0.15s0.449,0.081,0.898,0.081c0.451,0,0.451,0.588,0.901,0.588s0.45-0.154,0.901-0.154
			s0.451-0.109,0.902-0.109c0.452,0,0.452-0.146,0.904-0.146c0.453,0,0.453-0.338,0.904-0.338c0.452,0,0.452,0.378,0.904,0.378
			c0.451,0,0.451,0.501,0.902,0.501c0.45,0,0.45-0.692,0.9-0.692c0.451,0,0.451,0.575,0.902,0.575c0.449,0,0.449-0.381,0.9-0.381
			s0.451,0.103,0.901,0.103c0.451,0,0.451,0.33,0.903,0.33c0.451,0,0.451-0.455,0.902-0.455c0.452,0,0.452-0.415,0.904-0.415
			c0.453,0,0.453,0.96,0.906,0.96c0.452,0,0.452-0.18,0.904-0.18s0.452-0.308,0.904-0.308c0.451,0,0.451,0.24,0.902,0.24
			s0.451-0.125,0.903-0.125s0.452,0.288,0.904,0.288s0.452-0.434,0.905-0.434s0.453,0.132,0.906,0.132s0.453,0.245,0.905,0.245
			s0.452-0.172,0.904-0.172s0.452-0.606,0.905-0.606s0.453,0.239,0.906,0.239s0.453,0.405,0.906,0.405
			c0.452,0,0.452-0.396,0.904-0.396c0.453,0,0.453,0.676,0.906,0.676s0.453-0.869,0.906-0.869c0.452,0,0.452-0.106,0.904-0.106
			c0.451,0,0.451,0.971,0.902,0.971s0.451-0.229,0.903-0.229c0.454,0,0.454-0.435,0.908-0.435c0.452,0,0.452,0.25,0.905,0.25
			s0.453,0.346,0.906,0.346c0.455,0,0.455,0.067,0.908,0.067c0.454,0,0.454-0.322,0.908-0.322c0.453,0,0.453-0.026,0.906-0.026
			s0.453-0.034,0.906-0.034c0.455,0,0.455,0.387,0.91,0.387s0.455-0.153,0.91-0.153c0.457,0,0.457-0.717,0.914-0.717
			s0.457,0.657,0.914,0.657c0.312,0,0.662-0.734,0.966-0.707c0.31,0.028,0.588,0.453,0.889,0.508
			c0.306,0.057,0.537,0.396,0.831,0.48c0.299,0.084,0.67-0.071,0.956,0.04c0.288,0.112,0.757-0.122,1.032,0.016
			c0.275,0.138,0.495,0.452,0.757,0.614c0.263,0.162,0.452,0.47,0.697,0.655c0.246,0.186,0.392,0.505,0.619,0.713
			s0.718,0.179,0.927,0.406c0.207,0.228,0.135,0.712,0.32,0.958s0.334,0.518,0.496,0.78c0.162,0.261,0.264,0.553,0.402,0.829
			c0.137,0.274-0.096,0.688,0.016,0.976c0.111,0.286,0.85,0.353,0.934,0.65c0.084,0.294-0.039,0.652,0.018,0.956
			c0.057,0.301,0.293,0.591,0.32,0.9c0.029,0.304-0.555,0.633-0.555,0.944c0,0.449,0.213,0.449,0.213,0.898
			c0,0.45-0.101,0.45-0.101,0.899c0,0.45,0.31,0.45,0.31,0.9c0,0.45,0.332,0.45,0.332,0.9c0,0.451-0.588,0.451-0.588,0.9
			c0,0.451,0.016,0.451,0.016,0.9c0,0.449,0.66,0.449,0.66,0.899s-0.084,0.45-0.084,0.899s-0.859,0.45-0.859,0.899
			c0,0.449,0.318,0.449,0.318,0.898c0,0.449-0.051,0.449-0.051,0.898c0,0.45-0.171,0.45-0.171,0.899c0,0.45,0.011,0.45,0.011,0.899
			c0,0.449,0.838,0.449,0.838,0.899c0,0.45-0.121,0.45-0.121,0.899c0,0.45-0.656,0.45-0.656,0.9c0,0.45,0.64,0.45,0.64,0.901
			c0,0.45-0.519,0.45-0.519,0.901c0,0.45-0.309,0.45-0.309,0.9c0,0.45,0.291,0.45,0.291,0.899c0,0.449-0.062,0.449-0.062,0.897
			c0,0.448,0.022,0.448,0.022,0.896c0,0.448,0.453,0.448,0.453,0.896s-0.094,0.448-0.094,0.895c0,0.448,0.35,0.448,0.35,0.896
			c0,0.448-0.596,0.448-0.596,0.895c0,0.448-0.054,0.448-0.054,0.895c0,0.448-0.036,0.448-0.036,0.896
			c0,0.448-0.121,0.448-0.121,0.896s0.789,0.448,0.789,0.896s-0.936,0.449-0.936,0.898c0,0.449,0.539,0.449,0.539,0.898
			c0,0.45-0.188,0.45-0.188,0.9c0,0.451-0.348,0.451-0.348,0.901c0,0.451,0.566,0.451,0.566,0.902s-0.174,0.451-0.174,0.9
			c0,0.45-0.021,0.45-0.021,0.9s0.373,0.45,0.373,0.899c0,0.449,0.079,0.449,0.079,0.898c0,0.45-0.686,0.45-0.686,0.898
			c0,0.45,0.453,0.45,0.453,0.899c0,0.45-0.358,0.45-0.358,0.899s0.209,0.45,0.209,0.9s-0.23,0.451-0.23,0.901
			c0,0.451,0.566,0.451,0.566,0.903c0,0.451,0.072,0.451,0.072,0.902c0,0.45-0.339,0.45-0.339,0.901c0,0.45,0.354,0.45,0.354,0.9
			c0,0.45,0.072,0.45,0.072,0.9s-0.569,0.451-0.569,0.901c0,0.451,0.199,0.451,0.199,0.902c0,0.453,0.261,0.453,0.261,0.904
			c0,0.451-0.596,0.451-0.596,0.902c0,0.451-0.215,0.451-0.215,0.901s0.381,0.451,0.381,0.902c0,0.452,0.264,0.452,0.264,0.904
			s-0.178,0.452-0.178,0.903s0.025,0.452,0.025,0.903s-0.12,0.451-0.12,0.903s0.521,0.452,0.521,0.904
			c0,0.45-0.592,0.45-0.592,0.901c0,0.45,0.068,0.45,0.068,0.899c0,0.451,0.322,0.451,0.322,0.9c0,0.453,0.046,0.453,0.046,0.906
			c0,0.452-0.304,0.452-0.304,0.903c0,0.452,0.168,0.452,0.168,0.903c0,0.453-0.522,0.453-0.522,0.906
			c0,0.452,0.191,0.452,0.191,0.904c0,0.452-0.106,0.452-0.106,0.904c0,0.451,0.676,0.451,0.676,0.903
			c0,0.454-0.304,0.454-0.304,0.907c0,0.454-0.474,0.454-0.474,0.908c0,0.456,0.51,0.456,0.51,0.911
			c0,0.456-0.359,0.456-0.359,0.911c0,0.312,0.447,0.639,0.42,0.942c-0.028,0.31-0.556,0.544-0.611,0.845
			c-0.057,0.304,0.168,0.661,0.083,0.955c-0.084,0.298-0.543,0.453-0.653,0.739c-0.111,0.288-0.273,0.514-0.41,0.789
			c-0.138,0.276-0.034,0.657-0.196,0.918c-0.163,0.263-0.021,0.739-0.207,0.984c-0.187,0.245-0.356,0.536-0.563,0.765
			c-0.209,0.227-0.848,0.023-1.074,0.23c-0.228,0.209-0.453,0.373-0.699,0.56c-0.246,0.186-0.249,0.708-0.511,0.872
			c-0.261,0.162-0.683,0.03-0.958,0.168s-0.41,0.584-0.699,0.696c-0.285,0.11-0.584,0.239-0.881,0.324
			c-0.295,0.083-0.656-0.096-0.961-0.038c-0.301,0.055-0.584,0.254-0.895,0.281C316.522,88.696,316.208,88.769,315.896,88.769z"/>
	</g>
	<g>
		<g>
			<path fill="#FFFFFF" d="M115.01,55.519c-1.107-1.629-3.327-5.233-3.119-10.744c-0.069-1.837,0.451-5.303,1.18-7.486
				c0.691-2.218,3.222-6.724,7.693-8.076c1.246-0.416,2.529-0.727,3.951-0.727c1.213,0.138,2.494,0.589,3.465,1.178
				c0.971,0.728,1.977,1.629,2.98,2.634c1.214,1.629,2.046,3.397,2.773,5.303c0.555,1.906,0.866,4.125,0.693,6.308
				c-0.277,2.357-0.866,4.541-1.664,6.62c-0.867,2.044-2.113,3.951-3.813,5.58c-1.109,1.005-2.391,1.595-3.605,2.045
				c-1.385,0.451-2.841,0.589-4.365,0.451C118.822,58.465,116.674,57.425,115.01,55.519z M125.27,42.591l-1.283-2.496
				c-0.693-0.45-1.421-0.728-2.253-0.589c-0.831,0.589-1.421,1.317-1.802,2.219l-0.416,2.911l1.005,1.906
				c0.555,0.451,1.213,0.59,2.045,0.451l1.282-0.589C124.957,45.363,125.373,44.22,125.27,42.591z"/>
			<path fill="#FFFFFF" d="M160.482,28.624l0.173,1.664l9.774-1.075l0.797,4.333l-10.189,0.138l0.172,1.56l12.409-0.97l0.797,4.748
				l-2.53,0.069c1.074,0.832,2.114,1.906,3.154,3.154l-3.882,3.119c-0.416-1.316-1.074-2.599-1.906-3.881l0.555,3.327l-3.327,0.035
				c0.208,1.768,0.589,3.223,1.144,4.401c0.832-0.97,1.56-2.045,2.218-3.258l2.912,1.525c-0.624,1.906-1.353,3.604-2.253,5.129
				c0.692,0.382,1.49,0.59,2.356,0.624c0.693,0,1.317-0.069,1.837-0.208l-1.144,6.239c-0.486,0-0.971-0.035-1.49-0.07
				c-2.011-0.173-3.709-0.866-5.025-2.08c-0.763,0.763-1.595,1.456-2.427,2.08l-1.976-3.223l-1.629,2.011
				c-0.797-1.525-1.698-2.877-2.703-4.125l0.346,4.991l-5.268,0.208l0.381-4.229c-0.97,1.595-2.08,2.807-3.326,3.57l-1.56-2.461
				c-0.485,1.352-1.146,2.496-1.906,3.466l-4.472-5.129c2.496-1.49,3.778-3.708,3.778-6.689c0-2.01-0.035-4.055-0.035-6.169h3.604
				c0,0.208,0.035,0.416,0.069,0.624l12.616-1.144c0-0.554,0.034-1.074,0.068-1.594l-18.195,0.45l-0.52-3.223l4.575-0.347
				l0.797-6.135l3.292,0.346l0.659,5.408l2.946-0.208l0.936-7.348L160.482,28.624z M163.982,52.365
				c-0.762-2.044-1.282-4.54-1.49-7.452l-12.338,0.174c0,0.624,0.034,1.213,0.034,1.802c0,2.288-0.173,4.333-0.52,6.1
				c0.866-0.485,1.802-1.178,2.772-2.08l1.56,1.352l0.208-2.184l-3.188,0.07l-0.555-3.05l10.952-1.664l0.797,4.471l-4.158,0.104
				l0.172,2.738l1.491-1.976c1.108,0.763,2.114,1.525,3.017,2.288C163.152,52.85,163.567,52.642,163.982,52.365z M166.236,40.616
				l2.218-0.208c-0.104-0.138-0.208-0.242-0.277-0.381l1.108-0.867l-3.049,0.07V40.616z"/>
			<path fill="#FFFFFF" d="M186.407,29.56l1.109,15.493l2.253,0.242l1.421-15.562l14.903-1.525L208,44.497l-5.996,0.728l0.069-1.109
				l-6.62,0.277l0.035,0.555l-4.679,0.519c0.173,0.555,0.276,1.629,0.276,3.293c-0.207,6.031-3.328,9.566-9.288,10.675l-2.739-6.307
				c4.992-0.174,7.73-1.665,8.216-4.437c0.067-0.936,0.103-1.907,0.138-2.946l-6.03,0.624l1.872-17.121L186.407,29.56z
				 M202.593,34.169l0.069-1.04l-7.902-0.208l0.174,2.634L202.593,34.169z M202.281,39.854l0.104-1.664l-7.278,0.416l0.138,2.53
				L202.281,39.854z M199.335,50.042c0,1.976,1.144,2.981,3.466,3.016c2.426,0,4.575-0.381,6.447-1.178l-1.145,6.758
				c-1.455,0.277-3.119,0.451-4.921,0.451c-3.188,0-5.269-0.589-6.204-1.698c-1.04-1.144-1.525-3.223-1.525-6.239
				c0.277-3.015,0.623-5.06,1.039-6.134l3.675,0.728C199.611,47.062,199.335,48.483,199.335,50.042z"/>
		</g>
	</g>
</g>
</svg>
