<?xml version="1.0" encoding="utf-8"?>
<!-- Generator: Adobe Illustrator 16.0.0, SVG Export Plug-In . SVG Version: 6.00 Build 0)  -->
<!DOCTYPE svg PUBLIC "-//W3C//DTD SVG 1.1//EN" "http://www.w3.org/Graphics/SVG/1.1/DTD/svg11.dtd">
<svg version="1.1" id="レイヤー_1" xmlns="http://www.w3.org/2000/svg" xmlns:xlink="http://www.w3.org/1999/xlink" x="0px"
	 y="0px" width="21.135254px" height="20.666504px" viewBox="0 0 21.135254 20.666504"
	 enable-background="new 0 0 21.135254 20.666504" xml:space="preserve">
<polygon fill="#F08300" points="18.06543,10.39209 10.484863,14.768555 2.903809,19.14502 2.903809,10.39209 2.903809,1.638672 
	10.484863,6.015137 "/>
</svg>
